Chain1,Chain2,n_contacts
A,B,73
A,E,66
A,J,119
A,K,9
A,L,14
B,C,64
B,I,116
B,L,10
B,M,16
C,D,68
C,H,121
C,M,10
C,N,15
D,E,65
D,G,118
D,N,11
D,O,16
E,F,119
E,K,15
E,O,10
F,G,68
F,J,69
F,P,11
F,Q,16
G,H,66
G,R,18
H,I,66
H,R,11
H,S,15
I,J,69
I,S,11
I,T,16
J,P,15
J,T,11
K,L,73
K,O,69
L,M,70
M,N,70
N,O,71
P,Q,73
P,T,72
Q,R,68
R,S,69
S,T,70
