Chain1,Chain2,n_contacts
A,B,30
A,I,396
A,L,18
A,N,23
A,P,102
B,D,31
B,E,18
B,F,30
B,G,103
B,I,20
C,D,17
C,F,22
C,H,101
C,J,29
C,O,393
D,E,100
D,G,23
D,H,30
D,K,25
E,H,22
E,L,28
E,M,391
F,G,18
F,H,30
F,I,98
F,O,29
G,K,392
G,P,29
H,I,17
H,M,24
I,N,25
J,K,18
J,L,31
J,M,101
J,N,30
J,O,21
K,L,102
K,P,26
L,M,20
L,P,31
M,N,17
N,O,103
N,P,30
O,P,18
