Chain,Sequence,Useq
A,ATTEEQKLIEDVNASFRAAMATTANVPPADKYKTFEAAFTVSSKRNLADAVSKAPQLVPKLDEVYNAAYNAADHAAPEDKYEAFVLHFSEALRIIAGTPEVHAV,1
B,ATTEEQKLIEDVNASFRAAMATTANVPPADKYKTFEAAFTVSSKRNLADAVSKAPQLVPKLDEVYNAAYNAADHAAPEDKYEAFVLHFSEALRIIAGTPEVHAV,1
C,ATTEEQKLIEDVNASFRAAMATTANVPPADKYKTFEAAFTVSSKRNLADAVSKAPQLVPKLDEVYNAAYNAADHAAPEDKYEAFVLHFSEALRIIAGTPEVHAV,1
D,ATTEEQKLIEDVNASFRAAMATTANVPPADKYKTFEAAFTVSSKRNLADAVSKAPQLVPKLDEVYNAAYNAADHAAPEDKYEAFVLHFSEALRIIAGTPEVHAV,1
E,ATTEEQKLIEDVNASFRAAMATTANVPPADKYKTFEAAFTVSSKRNLADAVSKAPQLVPKLDEVYNAAYNAADHAAPEDKYEAFVLHFSEALRIIAGTPEVHAV,1
F,ATTEEQKLIEDVNASFRAAMATTANVPPADKYKTFEAAFTVSSKRNLADAVSKAPQLVPKLDEVYNAAYNAADHAAPEDKYEAFVLHFSEALRIIAGTPEVHAV,1
G,ATTEEQKLIEDVNASFRAAMATTANVPPADKYKTFEAAFTVSSKRNLADAVSKAPQLVPKLDEVYNAAYNAADHAAPEDKYEAFVLHFSEALRIIAGTPEVHAV,1
H,ATTEEQKLIEDVNASFRAAMATTANVPPADKYKTFEAAFTVSSKRNLADAVSKAPQLVPKLDEVYNAAYNAADHAAPEDKYEAFVLHFSEALRIIAGTPEVHAV,1
I,ATTEEQKLIEDVNASFRAAMATTANVPPADKYKTFEAAFTVSSKRNLADAVSKAPQLVPKLDEVYNAAYNAADHAAPEDKYEAFVLHFSEALRIIAGTPEVHAV,1
J,ATTEEQKLIEDVNASFRAAMATTANVPPADKYKTFEAAFTVSSKRNLADAVSKAPQLVPKLDEVYNAAYNAADHAAPEDKYEAFVLHFSEALRIIAGTPEVHAV,1
K,ATTEEQKLIEDVNASFRAAMATTANVPPADKYKTFEAAFTVSSKRNLADAVSKAPQLVPKLDEVYNAAYNAADHAAPEDKYEAFVLHFSEALRIIAGTPEVHAV,1
L,ATTEEQKLIEDVNASFRAAMATTANVPPADKYKTFEAAFTVSSKRNLADAVSKAPQLVPKLDEVYNAAYNAADHAAPEDKYEAFVLHFSEALRIIAGTPEVHAV,1
M,ATTEEQKLIEDVNASFRAAMATTANVPPADKYKTFEAAFTVSSKRNLADAVSKAPQLVPKLDEVYNAAYNAADHAAPEDKYEAFVLHFSEALRIIAGTPEVHAV,1
N,ATTEEQKLIEDVNASFRAAMATTANVPPADKYKTFEAAFTVSSKRNLADAVSKAPQLVPKLDEVYNAAYNAADHAAPEDKYEAFVLHFSEALRIIAGTPEVHAV,1
