Chain,Sequence,Useq
A,GAMNFLAETAHKVLAESLNNLVLVKLKGNKEVRGMLRSYDQHMNLVLSDSEEIQSDGSGKKLGTIVIRGDNVILISPL,1
B,GAMNFLAETAHKVLAESLNNLVLVKLKGNKEVRGMLRSYDQHMNLVLSDSEEIQSDGSGKKLGTIVIRGDNVILISPL,1
C,GAMNFLAETAHKVLAESLNNLVLVKLKGNKEVRGMLRSYDQHMNLVLSDSEEIQSDGSGKKLGTIVIRGDNVILISPL,1
D,GAMNFLAETAHKVLAESLNNLVLVKLKGNKEVRGMLRSYDQHMNLVLSDSEEIQSDGSGKKLGTIVIRGDNVILISPL,1
E,GAMNFLAETAHKVLAESLNNLVLVKLKGNKEVRGMLRSYDQHMNLVLSDSEEIQSDGSGKKLGTIVIRGDNVILISPL,1
F,GAMNFLAETAHKVLAESLNNLVLVKLKGNKEVRGMLRSYDQHMNLVLSDSEEIQSDGSGKKLGTIVIRGDNVILISPL,1
G,GAMNFLAETAHKVLAESLNNLVLVKLKGNKEVRGMLRSYDQHMNLVLSDSEEIQSDGSGKKLGTIVIRGDNVILISPL,1
H,GAMNFLAETAHKVLAESLNNLVLVKLKGNKEVRGMLRSYDQHMNLVLSDSEEIQSDGSGKKLGTIVIRGDNVILISPL,1
I,GAMNFLAETAHKVLAESLNNLVLVKLKGNKEVRGMLRSYDQHMNLVLSDSEEIQSDGSGKKLGTIVIRGDNVILISPL,1
J,GAMNFLAETAHKVLAESLNNLVLVKLKGNKEVRGMLRSYDQHMNLVLSDSEEIQSDGSGKKLGTIVIRGDNVILISPL,1
K,GAMNFLAETAHKVLAESLNNLVLVKLKGNKEVRGMLRSYDQHMNLVLSDSEEIQSDGSGKKLGTIVIRGDNVILISPL,1
L,GAMNFLAETAHKVLAESLNNLVLVKLKGNKEVRGMLRSYDQHMNLVLSDSEEIQSDGSGKKLGTIVIRGDNVILISPL,1
M,GAMNFLAETAHKVLAESLNNLVLVKLKGNKEVRGMLRSYDQHMNLVLSDSEEIQSDGSGKKLGTIVIRGDNVILISPL,1
N,GAMNFLAETAHKVLAESLNNLVLVKLKGNKEVRGMLRSYDQHMNLVLSDSEEIQSDGSGKKLGTIVIRGDNVILISPL,1
