Chain,Sequence,Useq
A,MMDYLITQNGGMVFAVLAMATATIFSGIGSAKGVGMTGEAAAALTTSQPEKFGQALILQLLPGTQGLYGFVIAFLIFINLGSDMSVVQGLNFLGASLPIAFTGLFSGIAQGKVAAAGIQILAKKPEHATKGIIFAAMVETYAILGFVISFLLVLNA,1
B,MMDYLITQNGGMVFAVLAMATATIFSGIGSAKGVGMTGEAAAALTTSQPEKFGQALILQLLPGTQGLYGFVIAFLIFINLGSDMSVVQGLNFLGASLPIAFTGLFSGIAQGKVAAAGIQILAKKPEHATKGIIFAAMVETYAILGFVISFLLVLNA,1
C,MMDYLITQNGGMVFAVLAMATATIFSGIGSAKGVGMTGEAAAALTTSQPEKFGQALILQLLPGTQGLYGFVIAFLIFINLGSDMSVVQGLNFLGASLPIAFTGLFSGIAQGKVAAAGIQILAKKPEHATKGIIFAAMVETYAILGFVISFLLVLNA,1
D,MMDYLITQNGGMVFAVLAMATATIFSGIGSAKGVGMTGEAAAALTTSQPEKFGQALILQLLPGTQGLYGFVIAFLIFINLGSDMSVVQGLNFLGASLPIAFTGLFSGIAQGKVAAAGIQILAKKPEHATKGIIFAAMVETYAILGFVISFLLVLNA,1
E,MMDYLITQNGGMVFAVLAMATATIFSGIGSAKGVGMTGEAAAALTTSQPEKFGQALILQLLPGTQGLYGFVIAFLIFINLGSDMSVVQGLNFLGASLPIAFTGLFSGIAQGKVAAAGIQILAKKPEHATKGIIFAAMVETYAILGFVISFLLVLNA,1
F,MMDYLITQNGGMVFAVLAMATATIFSGIGSAKGVGMTGEAAAALTTSQPEKFGQALILQLLPGTQGLYGFVIAFLIFINLGSDMSVVQGLNFLGASLPIAFTGLFSGIAQGKVAAAGIQILAKKPEHATKGIIFAAMVETYAILGFVISFLLVLNA,1
G,MMDYLITQNGGMVFAVLAMATATIFSGIGSAKGVGMTGEAAAALTTSQPEKFGQALILQLLPGTQGLYGFVIAFLIFINLGSDMSVVQGLNFLGASLPIAFTGLFSGIAQGKVAAAGIQILAKKPEHATKGIIFAAMVETYAILGFVISFLLVLNA,1
H,MMDYLITQNGGMVFAVLAMATATIFSGIGSAKGVGMTGEAAAALTTSQPEKFGQALILQLLPGTQGLYGFVIAFLIFINLGSDMSVVQGLNFLGASLPIAFTGLFSGIAQGKVAAAGIQILAKKPEHATKGIIFAAMVETYAILGFVISFLLVLNA,1
I,MMDYLITQNGGMVFAVLAMATATIFSGIGSAKGVGMTGEAAAALTTSQPEKFGQALILQLLPGTQGLYGFVIAFLIFINLGSDMSVVQGLNFLGASLPIAFTGLFSGIAQGKVAAAGIQILAKKPEHATKGIIFAAMVETYAILGFVISFLLVLNA,1
J,MMDYLITQNGGMVFAVLAMATATIFSGIGSAKGVGMTGEAAAALTTSQPEKFGQALILQLLPGTQGLYGFVIAFLIFINLGSDMSVVQGLNFLGASLPIAFTGLFSGIAQGKVAAAGIQILAKKPEHATKGIIFAAMVETYAILGFVISFLLVLNA,1
