Chain,Sequence,Useq
A,MVIATDDLEVACPKCERAGEIEGTPCPACSGKGVILTAQGYTLLDFIQKHLNK,1
B,MVIATDDLEVACPKCERAGEIEGTPCPACSGKGVILTAQGYTLLDFIQKHLNK,1
C,MVIATDDLEVACPKCERAGEIEGTPCPACSGKGVILTAQGYTLLDFIQKHLNK,1
D,MVIATDDLEVACPKCERAGEIEGTPCPACSGKGVILTAQGYTLLDFIQKHLNK,1
E,MVIATDDLEVACPKCERAGEIEGTPCPACSGKGVILTAQGYTLLDFIQKHLNK,1
F,MVIATDDLEVACPKCERAGEIEGTPCPACSGKGVILTAQGYTLLDFIQKHLNK,1
G,MVIATDDLEVACPKCERAGEIEGTPCPACSGKGVILTAQGYTLLDFIQKHLNK,1
H,MVIATDDLEVACPKCERAGEIEGTPCPACSGKGVILTAQGYTLLDFIQKHLNK,1
I,MVIATDDLEVACPKCERAGEIEGTPCPACSGKGVILTAQGYTLLDFIQKHLNK,1
J,MVIATDDLEVACPKCERAGEIEGTPCPACSGKGVILTAQGYTLLDFIQKHLNK,1
K,MVIATDDLEVACPKCERAGEIEGTPCPACSGKGVILTAQGYTLLDFIQKHLNK,1
L,MVIATDDLEVACPKCERAGEIEGTPCPACSGKGVILTAQGYTLLDFIQKHLNK,1
