Chain,Sequence,Useq
A,AQTGTERVKRGMAEMQKGGVIMDVINAEQAKIAEEAGAVAVMALERVPADIRAAGGVARMADPTIVEEVMNAVSIPVMAKARIGHIVEARVLEAMGVDYIDESEVLTPADEEFHLNKNEYTVPFVCGCRDLGEATRRIAEGASMLRTKGEPGTGNIVEAVRHMRKVNAQVRKVVAMSEDELMTEAKNLGAPYELLLQIKKDGKLPVVNFAAGGVATPADAALMMQLGADGVFVGSGIFKSDNPAKFAKAIVEATTHFTDYKLIAELSK,1
B,MLTIGVLGLQGAVREHIHAIEACGAAGLVVKRPEQLNEVDGLILPGGESTTMRRLIDTYQFMEPLREFAAQGKPMFGTCAGLIILAKEIAGSDNPHLGLLNVVVERNSFGRQVDSFEADLTIKGLDEPFTGVFIRAPHILEAGENVEVLSEHNGRIVAAKQGQFLGCSFNPELTEDHRVTQLFVEMVEEYKQKQ,2
C,AQTGTERVKRGMAEMQKGGVIMDVINAEQAKIAEEAGAVAVMALERVPADIRAAGGVARMADPTIVEEVMNAVSIPVMAKARIGHIVEARVLEAMGVDYIDESEVLTPADEEFHLNKNEYTVPFVCGCRDLGEATRRIAEGASMLRTKGEPGTGNIVEAVRHMRKVNAQVRKVVAMSEDELMTEAKNLGAPYELLLQIKKDGKLPVVNFAAGGVATPADAALMMQLGADGVFVGSGIFKSDNPAKFAKAIVEATTHFTDYKLIAELSKE,1
D,MLTIGVLGLQGAVREHIHAIEACGAAGLVVKRPEQLNEVDGLILPGGESTTMRRLIDTYQFMEPLREFAAQGKPMFGTCAGLIILAKEIAGSDNPHLGLLNVVVERNSFGRQVDSFEADLTIKGLDEPFTGVFIRAPHILEAGENVEVLSEHNGRIVAAKQGQFLGCSFNPELTEDHRVTQLFVEMVEEYKQKAQ,2
E,AQTGTERVKRGMAEMQKGGVIMDVINAEQAKIAEEAGAVAVMALERVPADIRAAGGVARMADPTIVEEVMNAVSIPVMAKARIGHIVEARVLEAMGVDYIDESEVLTPADEEFHLNKNEYTVPFVCGCRDLGEATRRIAEGASMLRTKGEPGTGNIVEAVRHMRKVNAQVRKVVAMSEDELMTEAKNLGAPYELLLQIKKDGKLPVVNFAAGGVATPADAALMMQLGADGVFVGSGIFKSDNPAKFAKAIVEATTHFTDYKLIAELSKE,1
F,MLTIGVLGLQGAVREHIHAIEACGAAGLVVKRPEQLNEVDGLILPGGESTTMRRLIDTYQFMEPLREFAAQGKPMFGTCAGLIILAKEIAGSDNPHLGLLNVVVERNSFGRQVDSFEADLTIKGLDEPFTGVFIRAPHILEAGENVEVLSEHNGRIVAAKQGQFLGCSFNPELTEDHRVTQLFVEMVEEYKQ,2
G,AQTGTERVKRGMAEMQKGGVIMDVINAEQAKIAEEAGAVAVMALERVPADIRAAGGVARMADPTIVEEVMNAVSIPVMAKARIGHIVEARVLEAMGVDYIDESEVLTPADEEFHLNKNEYTVPFVCGCRDLGEATRRIAEGASMLRTKGEPGTGNIVEAVRHMRKVNAQVRKVVAMSEDELMTEAKNLGAPYELLLQIKKDGKLPVVNFAAGGVATPADAALMMQLGADGVFVGSGIFKSDNPAKFAKAIVEATTHFTDYKLIAELSK,1
H,MLTIGVLGLQGAVREHIHAIEACGAAGLVVKRPEQLNEVDGLILPGGESTTMRRLIDTYQFMEPLREFAAQGKPMFGTCAGLIILAKEIAGSDNPHLGLLNVVVERNSFGRQVDSFEADLTIKGLDEPFTGVFIRAPHILEAGENVEVLSEHNGRIVAAKQGQFLGCSFNPELTEDHRVTQLFVEMVEEYKQKQ,2
I,AQTGTERVKRGMAEMQKGGVIMDVINAEQAKIAEEAGAVAVMALERVPADIRAAGGVARMADPTIVEEVMNAVSIPVMAKARIGHIVEARVLEAMGVDYIDESEVLTPADEEFHLNKNEYTVPFVCGCRDLGEATRRIAEGASMLRTKGEPGTGNIVEAVRHMRKVNAQVRKVVAMSEDELMTEAKNLGAPYELLLQIKKDGKLPVVNFAAGGVATPADAALMMQLGADGVFVGSGIFKSDNPAKFAKAIVEATTHFTDYKLIAELSKELG,1
J,MLTIGVLGLQGAVREHIHAIEACGAAGLVVKRPEQLNEVDGLILPGGESTTMRRLIDTYQFMEPLREFAAQGKPMFGTCAGLIILAKEIAGSDNPHLGLLNVVVERNSFGRQVDSFEADLTIKGLDEPFTGVFIRAPHILEAGENVEVLSEHNGRIVAAKQGQFLGCSFNPELTEDHRVTQLFVEMVEEYKQKALVQ,2
K,AQTGTERVKRGMAEMQKGGVIMDVINAEQAKIAEEAGAVAVMALERVPADIRAAGGVARMADPTIVEEVMNAVSIPVMAKARIGHIVEARVLEAMGVDYIDESEVLTPADEEFHLNKNEYTVPFVCGCRDLGEATRRIAEGASMLRTKGEPGTGNIVEAVRHMRKVNAQVRKVVAMSEDELMTEAKNLGAPYELLLQIKKDGKLPVVNFAAGGVATPADAALMMQLGADGVFVGSGIFKSDNPAKFAKAIVEATTHFTDYKLIAELSKEL,1
L,MLTIGVLGLQGAVREHIHAIEACGAAGLVVKRPEQLNEVDGLILPGGESTTMRRLIDTYQFMEPLREFAAQGKPMFGTCAGLIILAKEIAGSDNPHLGLLNVVVERNSFGRQVDSFEADLTIKGLDEPFTGVFIRAPHILEAGENVEVLSEHNGRIVAAKQGQFLGCSFNPELTEDHRVTQLFVEMVEEYKQQ,2
M,AQTGTERVKRGMAEMQKGGVIMDVINAEQAKIAEEAGAVAVMALERVPADIRAAGGVARMADPTIVEEVMNAVSIPVMAKARIGHIVEARVLEAMGVDYIDESEVLTPADEEFHLNKNEYTVPFVCGCRDLGEATRRIAEGASMLRTKGEPGTGNIVEAVRHMRKVNAQVRKVVAMSEDELMTEAKNLGAPYELLLQIKKDGKLPVVNFAAGGVATPADAALMMQLGADGVFVGSGIFKSDNPAKFAKAIVEATTHFTDYKLIAELSKE,1
N,MLTIGVLGLQGAVREHIHAIEACGAAGLVVKRPEQLNEVDGLILPGGESTTMRRLIDTYQFMEPLREFAAQGKPMFGTCAGLIILAKEIAGSDNPHLGLLNVVVERNSFGRQVDSFEADLTIKGLDEPFTGVFIRAPHILEAGENVEVLSEHNGRIVAAKQGQFLGCSFNPELTEDHRVTQLFVEMVEEYKQKQ,2
O,AQTGTERVKRGMAEMQKGGVIMDVINAEQAKIAEEAGAVAVMALERVPADIRAAGGVARMADPTIVEEVMNAVSIPVMAKARIGHIVEARVLEAMGVDYIDESEVLTPADEEFHLNKNEYTVPFVCGCRDLGEATRRIAEGASMLRTKGEPGTGNIVEAVRHMRKVNAQVRKVVAMSEDELMTEAKNLGAPYELLLQIKKDGKLPVVNFAAGGVATPADAALMMQLGADGVFVGSGIFKSDNPAKFAKAIVEATTHFTDYKLIAELSK,1
P,MLTIGVLGLQGAVREHIHAIEACGAAGLVVKRPEQLNEVDGLILPGGESTTMRRLIDTYQFMEPLREFAAQGKPMFGTCAGLIILAKEIAGSDNPHLGLLNVVVERNSFGRQVDSFEADLTIKGLDEPFTGVFIRAPHILEAGENVEVLSEHNGRIVAAKQGQFLGCSFNPELTEDHRVTQLFVEMVEEYKQKQ,2
Q,AQTGTERVKRGMAEMQKGGVIMDVINAEQAKIAEEAGAVAVMALERVPADIRAAGGVARMADPTIVEEVMNAVSIPVMAKARIGHIVEARVLEAMGVDYIDESEVLTPADEEFHLNKNEYTVPFVCGCRDLGEATRRIAEGASMLRTKGEPGTGNIVEAVRHMRKVNAQVRKVVAMSEDELMTEAKNLGAPYELLLQIKKDGKLPVVNFAAGGVATPADAALMMQLGADGVFVGSGIFKSDNPAKFAKAIVEATTHFTDYKLIAELSKEL,1
R,MLTIGVLGLQGAVREHIHAIEACGAAGLVVKRPEQLNEVDGLILPGGESTTMRRLIDTYQFMEPLREFAAQGKPMFGTCAGLIILAKEIAGSDNPHLGLLNVVVERNSFGRQVDSFEADLTIKGLDEPFTGVFIRAPHILEAGENVEVLSEHNGRIVAAKQGQFLGCSFNPELTEDHRVTQLFVEMVEEYKQKQ,2
S,AQTGTERVKRGMAEMQKGGVIMDVINAEQAKIAEEAGAVAVMALERVPADIRAAGGVARMADPTIVEEVMNAVSIPVMAKARIGHIVEARVLEAMGVDYIDESEVLTPADEEFHLNKNEYTVPFVCGCRDLGEATRRIAEGASMLRTKGEPGTGNIVEAVRHMRKVNAQVRKVVAMSEDELMTEAKNLGAPYELLLQIKKDGKLPVVNFAAGGVATPADAALMMQLGADGVFVGSGIFKSDNPAKFAKAIVEATTHFTDYKLIAELSKEL,1
T,MLTIGVLGLQGAVREHIHAIEACGAAGLVVKRPEQLNEVDGLILPGGESTTMRRLIDTYQFMEPLREFAAQGKPMFGTCAGLIILAKEIAGSDNPHLGLLNVVVERNSFGRQVDSFEADLTIKGLDEPFTGVFIRAPHILEAGENVEVLSEHNGRIVAAKQGQFLGCSFNPELTEDHRVTQLFVEMVEEYKQKAQ,2
U,AQTGTERVKRGMAEMQKGGVIMDVINAEQAKIAEEAGAVAVMALERVPADIRAAGGVARMADPTIVEEVMNAVSIPVMAKARIGHIVEARVLEAMGVDYIDESEVLTPADEEFHLNKNEYTVPFVCGCRDLGEATRRIAEGASMLRTKGEPGTGNIVEAVRHMRKVNAQVRKVVAMSEDELMTEAKNLGAPYELLLQIKKDGKLPVVNFAAGGVATPADAALMMQLGADGVFVGSGIFKSDNPAKFAKAIVEATTHFTDYKLIAELSKELG,1
V,MLTIGVLGLQGAVREHIHAIEACGAAGLVVKRPEQLNEVDGLILPGGESTTMRRLIDTYQFMEPLREFAAQGKPMFGTCAGLIILAKEIAGSDNPHLGLLNVVVERNSFGRQVDSFEADLTIKGLDEPFTGVFIRAPHILEAGENVEVLSEHNGRIVAAKQGQFLGCSFNPELTEDHRVTQLFVEMVEEYKQKAQ,2
W,AQTGTERVKRGMAEMQKGGVIMDVINAEQAKIAEEAGAVAVMALERVPADIRAAGGVARMADPTIVEEVMNAVSIPVMAKARIGHIVEARVLEAMGVDYIDESEVLTPADEEFHLNKNEYTVPFVCGCRDLGEATRRIAEGASMLRTKGEPGTGNIVEAVRHMRKVNAQVRKVVAMSEDELMTEAKNLGAPYELLLQIKKDGKLPVVNFAAGGVATPADAALMMQLGADGVFVGSGIFKSDNPAKFAKAIVEATTHFTDYKLIAELSKEL,1
X,MLTIGVLGLQGAVREHIHAIEACGAAGLVVKRPEQLNEVDGLILPGGESTTMRRLIDTYQFMEPLREFAAQGKPMFGTCAGLIILAKEIAGSDNPHLGLLNVVVERNSFGRQVDSFEADLTIKGLDEPFTGVFIRAPHILEAGENVEVLSEHNGRIVAAKQGQFLGCSFNPELTEDHRVTQLFVEMVEEYKQKALQ,2
