Entry ID,Sequence,Total Number of polymer Entity Instances (Chains) per Entity,Polymer Entity Sequence Length,Total Number of Polymer Instances (Chains) per Assembly,Oligomeric Count,SeqID,cluster,PDB,Species,Kingdom,Stoichiometry
5K2M,MRIGITYTVLRREEMAIKERAGEFGEVVMLHEDDLLFPGNYDLDVVIIRNVSHFKALYTARLFESEGIPTVNSSRLIFEAGDKLFATLRLAGKVPVPEWKAALSEGGALRVPDSLGYPLVSKPVFGSWGRLLAKVNDRDSLEAVLEHRKWMKNPLYGIHYFQEFVEKPGRDIRSYVIGGEFVGAIYRYSNHWITNTARGGKAEPCSDPEVEELSVKAWEAFGEGALAIDIFESEKGLLVNEVNPNMEFKNAARVTGADMAGKLVEYAVEVAKT,8,273,14,14,1,5K2M_1,5K2M,Thermococcus kodakarensis,Archaea,10
5K2M,MVECPVCGSEIEIGEVELHQIVECPVCGAELEVVSLEPLTLEELPEVEEDWGE,6,53,14,14,2,5K2M_2,5K2M,Thermococcus kodakarensis,Archaea,4
