Chain,Sequence,Useq
A,GTVRQTSGPALARGDKVAVVSIANYTETPDAGHSAESIAANTLRAGGIADVRIAPEWARSQNARYVLSGAVEEWRYKTGVDGEPVVGVTFELIDVSNGAVVWSATGTRTGWSRSGLSSVATSLIAKVLSPLQAR,1
B,GTVRQTSGPALARGDKVAVVSIANYTETPDAGHSAESIAANTLRAGGIADVRIAPASDKAEWARSQNARYVLSGAVEEWRYKTGVDGEPVVGVTFELIDVSNGAVVWSATGTRTGWSRSGLSSVATSLIAKVLSPLQAR,1
C,GTVRQTSGPALARGDKVAVVSIANYTETPDAGHSAESIAANTLRAGGIADVRIAPAEWARSQNARYVLSGAVEEWRYKTGVDGEPVVGVTFELIDVSNGAVVWSATGTRTGWSRSGLSSVATSLIAKVLSPLQA,1
D,GTVRQTSGPALARGDKVAVVSIANYTETPDAGHSAESIAANTLRAGGIADVRIAPWARSQNARYVLSGAVEEWRYKTGVDGEPVVGVTFELIDVSNGAVVWSATGTRTGWSRSGLSSVATSLIAKVLSPLQAR,1
E,GTVRQTSGPALARGDKVAVVSIANYTETPDAGHSAESIAANTLRAGGIADVRIAPAKAEWARSQNARYVLSGAVEEWRYKTGVDGEPVVGVTFELIDVSNGAVVWSATGTRTGWSRSGLSSVATSLIAKVLSPLQAR,1
F,GTVRQTSGPALARGDKVAVVSIANYTETPDAGHSAESIAANTLRAGGIADVRIAPAEWARSQNARYVLSGAVEEWRYKTGVDGEPVVGVTFELIDVSNGAVVWSATGTRTGWSRSGLSSVATSLIAKVLSPLQA,1
G,GTVRQTSGPALARGDKVAVVSIANYTETPDAGHSAESIAANTLRAGGIADVRIAPAEWARSQNARYVLSGAVEEWRYKTGVDGEPVVGVTFELIDVSNGAVVWSATGTRTGWSRSGLSSVATSLIAKVLSPLQAR,1
H,GTVRQTSGPALARGDKVAVVSIANYTETPDAGHSAESIAANTLRAGGIADVRIAPKAEWARSQNARYVLSGAVEEWRYKTGVDGEPVVGVTFELIDVSNGAVVWSATGTRTGWSRSGLSSVATSLIAKVLSPLQAR,1
I,GTVRQTSGPALARGDKVAVVSIANYTETPDAGHSAESIAANTLRAGGIADVRIAPAEWARSQNARYVLSGAVEEWRYKTGVDGEPVVGVTFELIDVSNGAVVWSATGTRTGWSRSGLSSVATSLIAKVLSPLQA,1
J,GTVRQTSGPALARGDKVAVVSIANYTETPDAGHSAESIAANTLRAGGIADVRIAPAKAEWARSQNARYVLSGAVEEWRYKTGVDGEPVVGVTFELIDVSNGAVVWSATGTRTGWSRSGLSSVATSLIAKVLSPLQAR,1
K,GTVRQTSGPALARGDKVAVVSIANYTETPDAGHSAESIAANTLRAGGIADVRIAPQNARYVLSGAVEEWRYKTGVDGEPVVGVTFELIDVSNGAVVWSATGTRTGWSRSGLSSVATSLIAKVLSPLQARQ,1
L,GTVRQTSGPALARGDKVAVVSIANYTETPDAGHSAESIAANTLRAGGIADVRIAPEWARSQNARYVLSGAVEEWRYKTGVDGEPVVGVTFELIDVSNGAVVWSATGTRTGWSRSGLSSVATSLIAKVLSPLQAR,1
