Chain1,Chain2,n_contacts
A,D,40
A,Q,30
A,R,24
B,O,37
B,S,28
B,T,25
C,S,25
C,T,29
C,X,39
D,F,28
D,G,29
E,F,33
E,N,28
E,X,27
F,V,29
G,I,38
G,V,29
H,J,36
H,M,19
H,U,26
I,K,29
I,O,31
J,N,29
J,X,31
K,L,25
K,Q,38
L,O,28
L,W,40
M,P,38
M,W,39
N,R,38
P,Q,30
P,R,29
S,U,39
T,V,37
U,W,30
