Chain1,Chain2,n_contacts
A,B,23
A,C,21
A,D,17
A,F,19
A,K,22
B,C,21
B,I,21
B,J,20
B,K,19
C,D,21
C,H,19
C,I,18
D,E,22
D,F,22
D,H,19
E,F,22
E,G,19
E,H,20
E,L,19
F,K,21
F,L,18
G,H,22
G,I,22
G,J,16
G,L,20
H,I,22
I,J,20
J,K,22
J,L,21
K,L,22
