Chain1,Chain2,n_contacts
A,B,198
A,I,193
A,J,56
A,K,30
A,R,9
B,E,193
B,J,9
B,K,56
B,N,31
C,D,195
C,G,196
C,L,56
C,M,9
C,P,30
D,F,193
D,L,30
D,M,56
D,O,9
E,H,195
E,K,9
E,N,56
E,Q,31
F,H,193
F,M,30
F,O,56
F,Q,9
G,I,194
G,L,9
G,P,57
G,R,30
H,N,9
H,O,30
H,Q,55
I,J,30
I,P,9
I,R,56
J,K,34
J,R,33
K,N,33
L,M,33
L,P,35
M,O,34
N,Q,34
O,Q,33
P,R,34
