Chain1,Chain2,n_contacts
A,I,45
A,P,45
A,Q,45
B,C,45
B,D,45
B,V,45
C,D,45
C,E,45
D,G,45
E,M,98
E,U,98
F,G,98
F,J,45
F,P,98
G,P,98
H,Q,45
H,V,99
H,W,98
I,Q,45
I,X,45
J,K,45
J,L,45
K,L,45
K,M,45
L,O,44
M,U,97
N,O,100
N,R,45
N,X,97
O,X,96
R,S,45
R,T,45
S,T,45
S,U,45
T,W,45
V,W,98
