Chain,Sequence,Useq
A,TPWSGYLDDVSAKFDTGVDNLQTQVTEALDKLAAKPSDPALLAAYQSKLSEYNLYRNAQSNTVKAFKDIDAAIIQNFR,1
B,TPWSGYLDDVSAKFDTGVDNLQTQVTEALDKLAAKPSDPALLAAYQSKLSEYNLYRNAQSNTVKAFKDIDAAIIQNFR,1
C,TPWSGYLDDVSAKFDTGVDNLQTQVTEALDKLAAKPSDPALLAAYQSKLSEYNLYRNAQSNTVKAFKDIDAAIIQNFR,1
D,TPWSGYLDDVSAKFDTGVDNLQTQVTEALDKLAAKPSDPALLAAYQSKLSEYNLYRNAQSNTVKAFKDIDAAIIQNFR,1
E,TPWSGYLDDVSAKFDTGVDNLQTQVTEALDKLAAKPSDPALLAAYQSKLSEYNLYRNAQSNTVKAFKDIDAAIIQNFR,1
F,TPWSGYLDDVSAKFDTGVDNLQTQVTEALDKLAAKPSDPALLAAYQSKLSEYNLYRNAQSNTVKAFKDIDAAIIQNFR,1
G,TPWSGYLDDVSAKFDTGVDNLQTQVTEALDKLAAKPSDPALLAAYQSKLSEYNLYRNAQSNTVKAFKDIDAAIIQNFR,1
H,TPWSGYLDDVSAKFDTGVDNLQTQVTEALDKLAAKPSDPALLAAYQSKLSEYNLYRNAQSNTVKAFKDIDAAIIQNFR,1
I,TPWSGYLDDVSAKFDTGVDNLQTQVTEALDKLAAKPSDPALLAAYQSKLSEYNLYRNAQSNTVKAFKDIDAAIIQNFR,1
J,TPWSGYLDDVSAKFDTGVDNLQTQVTEALDKLAAKPSDPALLAAYQSKLSEYNLYRNAQSNTVKAFKDIDAAIIQNFR,1
K,TPWSGYLDDVSAKFDTGVDNLQTQVTEALDKLAAKPSDPALLAAYQSKLSEYNLYRNAQSNTVKAFKDIDAAIIQNFR,1
L,TPWSGYLDDVSAKFDTGVDNLQTQVTEALDKLAAKPSDPALLAAYQSKLSEYNLYRNAQSNTVKAFKDIDAAIIQNFR,1
M,TPWSGYLDDVSAKFDTGVDNLQTQVTEALDKLAAKPSDPALLAAYQSKLSEYNLYRNAQSNTVKAFKDIDAAIIQNFR,1
N,TPWSGYLDDVSAKFDTGVDNLQTQVTEALDKLAAKPSDPALLAAYQSKLSEYNLYRNAQSNTVKAFKDIDAAIIQNFR,1
O,TPWSGYLDDVSAKFDTGVDNLQTQVTEALDKLAAKPSDPALLAAYQSKLSEYNLYRNAQSNTVKAFKDIDAAIIQNFR,1
P,TPWSGYLDDVSAKFDTGVDNLQTQVTEALDKLAAKPSDPALLAAYQSKLSEYNLYRNAQSNTVKAFKDIDAAIIQNFR,1
Q,TPWSGYLDDVSAKFDTGVDNLQTQVTEALDKLAAKPSDPALLAAYQSKLSEYNLYRNAQSNTVKAFKDIDAAIIQNFR,1
R,TPWSGYLDDVSAKFDTGVDNLQTQVTEALDKLAAKPSDPALLAAYQSKLSEYNLYRNAQSNTVKAFKDIDAAIIQNFR,1
