Chain1,Chain2,n_contacts
A,B,239
A,C,41
A,D,69
A,E,41
B,D,50
B,E,69
B,F,52
B,J,30
C,D,239
C,E,48
C,F,70
D,F,50
D,H,31
E,F,249
F,L,31
G,H,243
G,I,47
G,J,68
G,K,39
H,J,49
H,K,71
H,L,51
I,J,239
I,K,39
I,L,69
J,L,50
K,L,251
