Chain1,Chain2,n_contacts
A,B,12
A,C,9
A,D,53
A,J,24
A,V,7
A,c,9
B,C,131
B,D,59
B,E,24
B,G,17
B,I,56
B,M,38
B,O,48
B,Q,60
B,R,40
B,S,67
B,T,92
B,U,89
B,c,31
C,D,65
C,F,79
C,I,38
C,O,67
C,S,22
C,U,19
C,V,100
C,X,49
D,E,29
D,J,110
D,K,60
D,N,65
D,b,46
D,c,80
F,H,27
F,I,52
F,K,71
F,N,43
F,Q,10
F,S,27
F,V,46
F,X,36
G,M,36
G,Q,24
G,S,43
H,K,25
H,L,74
H,N,37
H,P,117
H,Y,57
I,N,42
I,O,17
I,Q,69
I,R,29
I,V,98
I,X,12
J,N,26
J,V,26
J,W,42
K,P,59
K,b,40
K,c,27
L,P,22
L,Z,16
L,a,55
M,S,28
M,T,50
N,W,45
O,S,76
O,U,117
P,Y,14
P,a,54
P,b,44
Q,R,39
Q,S,59
R,T,30
R,U,75
Y,a,106
Y,b,19
Z,a,184
Z,b,116
Z,c,24
a,b,57
b,c,206
