Chain1,Chain2,n_contacts
A,B,150
A,C,72
A,D,147
A,H,90
B,C,59
B,D,284
B,E,106
B,F,139
B,G,129
B,H,76
B,I,47
C,D,88
C,G,69
C,H,54
C,I,22
D,E,60
D,F,217
D,G,92
D,H,48
E,F,136
E,G,26
E,I,53
F,G,54
F,H,114
F,I,7
G,H,170
G,I,10
G,K,39
G,L,46
H,I,12
J,K,34
J,L,84
K,L,67
