Chain,Sequence,Useq
A,GDWSFLGNILEEVNEHSTVIGRVWLTVLFIFRILILGTAAEFVWGDEQSDFVCNTQQPGCENVCYDEAFPISHIRLWVLQIIFVSTPSLVYVGHAVHHVRMEEKRKERRLEGTLLRTYVCHIIFKTLFEVGFIVGHYFLYGFRILPLYRCSRWPCPNVVDCFVSRPTEKTIFILFMLSVASVSLFLNILEMSHLGL,1
B,GDWSFLGNILEEVNEHSTVIGRVWLTVLFIFRILILGTAAEFVWGDEQSDFVCNTQQPGCENVCYDEAFPISHIRLWVLQIIFVSTPSLVYVGHAVHHVRMEEKRKERRLEGTLLRTYVCHIIFKTLFEVGFIVGHYFLYGFRILPLYRCSRWPCPNVVDCFVSRPTEKTIFILFMLSVASVSLFLNILEMSHLGL,1
C,GDWSFLGNILEEVNEHSTVIGRVWLTVLFIFRILILGTAAEFVWGDEQSDFVCNTQQPGCENVCYDEAFPISHIRLWVLQIIFVSTPSLVYVGHAVHHVRMEEKRKERRLEGTLLRTYVCHIIFKTLFEVGFIVGHYFLYGFRILPLYRCSRWPCPNVVDCFVSRPTEKTIFILFMLSVASVSLFLNILEMSHLGL,1
D,GDWSFLGNILEEVNEHSTVIGRVWLTVLFIFRILILGTAAEFVWGDEQSDFVCNTQQPGCENVCYDEAFPISHIRLWVLQIIFVSTPSLVYVGHAVHHVRMEEKRKERRLEGTLLRTYVCHIIFKTLFEVGFIVGHYFLYGFRILPLYRCSRWPCPNVVDCFVSRPTEKTIFILFMLSVASVSLFLNILEMSHLGL,1
E,GDWSFLGNILEEVNEHSTVIGRVWLTVLFIFRILILGTAAEFVWGDEQSDFVCNTQQPGCENVCYDEAFPISHIRLWVLQIIFVSTPSLVYVGHAVHHVRMEEKRKERRLEGTLLRTYVCHIIFKTLFEVGFIVGHYFLYGFRILPLYRCSRWPCPNVVDCFVSRPTEKTIFILFMLSVASVSLFLNILEMSHLGL,1
F,GDWSFLGNILEEVNEHSTVIGRVWLTVLFIFRILILGTAAEFVWGDEQSDFVCNTQQPGCENVCYDEAFPISHIRLWVLQIIFVSTPSLVYVGHAVHHVRMEEKRKERRLEGTLLRTYVCHIIFKTLFEVGFIVGHYFLYGFRILPLYRCSRWPCPNVVDCFVSRPTEKTIFILFMLSVASVSLFLNILEMSHLGL,1
G,GDWSFLGNILEEVNEHSTVIGRVWLTVLFIFRILILGTAAEFVWGDEQSDFVCNTQQPGCENVCYDEAFPISHIRLWVLQIIFVSTPSLVYVGHAVHHVRMEEKRKERRLEGTLLRTYVCHIIFKTLFEVGFIVGHYFLYGFRILPLYRCSRWPCPNVVDCFVSRPTEKTIFILFMLSVASVSLFLNILEMSHLGL,1
H,GDWSFLGNILEEVNEHSTVIGRVWLTVLFIFRILILGTAAEFVWGDEQSDFVCNTQQPGCENVCYDEAFPISHIRLWVLQIIFVSTPSLVYVGHAVHHVRMEEKRKERRLEGTLLRTYVCHIIFKTLFEVGFIVGHYFLYGFRILPLYRCSRWPCPNVVDCFVSRPTEKTIFILFMLSVASVSLFLNILEMSHLGL,1
I,GDWSFLGNILEEVNEHSTVIGRVWLTVLFIFRILILGTAAEFVWGDEQSDFVCNTQQPGCENVCYDEAFPISHIRLWVLQIIFVSTPSLVYVGHAVHHVRMEEKRKERRLEGTLLRTYVCHIIFKTLFEVGFIVGHYFLYGFRILPLYRCSRWPCPNVVDCFVSRPTEKTIFILFMLSVASVSLFLNILEMSHLGL,1
J,GDWSFLGNILEEVNEHSTVIGRVWLTVLFIFRILILGTAAEFVWGDEQSDFVCNTQQPGCENVCYDEAFPISHIRLWVLQIIFVSTPSLVYVGHAVHHVRMEEKRKERRLEGTLLRTYVCHIIFKTLFEVGFIVGHYFLYGFRILPLYRCSRWPCPNVVDCFVSRPTEKTIFILFMLSVASVSLFLNILEMSHLGL,1
K,GDWSFLGNILEEVNEHSTVIGRVWLTVLFIFRILILGTAAEFVWGDEQSDFVCNTQQPGCENVCYDEAFPISHIRLWVLQIIFVSTPSLVYVGHAVHHVRMEEKRKERRLEGTLLRTYVCHIIFKTLFEVGFIVGHYFLYGFRILPLYRCSRWPCPNVVDCFVSRPTEKTIFILFMLSVASVSLFLNILEMSHLGL,1
L,GDWSFLGNILEEVNEHSTVIGRVWLTVLFIFRILILGTAAEFVWGDEQSDFVCNTQQPGCENVCYDEAFPISHIRLWVLQIIFVSTPSLVYVGHAVHHVRMEEKRKERRLEGTLLRTYVCHIIFKTLFEVGFIVGHYFLYGFRILPLYRCSRWPCPNVVDCFVSRPTEKTIFILFMLSVASVSLFLNILEMSHLGL,1
