Stoichiometry,SeqID,Sequence,ID
4,1,AEMGAAACTLLWGVSSSEEVVKAILGGDKALKFFSITGQTMESFVKSLDGDVQELDSDESQFVFALAGIVTNVAAIACGREFLVNSSRVLLDTILQLLGDLKPGQCTKLKVLMLMSLYNVSINLKGLKYISESPGFIPLLWWLLSDPDAEVCLHVLRLVQSVVLEPEVFSKSASEFRSSLPLQRILAMSKSRNPRLQTAAQELLEDLRTLEHNV,7bdx
2,2,NEFDRIIENQEKSLKASKSTPDGTIKDRRLFMHHVSLEPITTVPFRTTKERQENLYFQG,7bdx
