Chain,Edge_chain,Source,Name,PDBchain1,PDBchain2,Modelchain1,Modelchain2,Numcontacts,DockQ,PDB
I,J,1AVO_ICJ,I-J,A,B,I,J,211,0.912,1AVO
J,H,1AVO_EHJ,H-J,B,D,J,H,213,0.818,1AVO
G,H,1AVO_GEH,G-H,C,D,G,H,207,0.030,1AVO
C,E,1AVO_CEL,C-E,,,,,,,
E,F,1AVO_IEF,E-F,F,G,F,E,26,0.030,1AVO
H,F,1AVO_CFH,F-H,D,F,H,F,216,0.809,1AVO
F,D,1AVO_KDF,D-F,F,H,F,D,216,0.810,1AVO
K,L,1AVO_KLD,K-L,M,N,K,L,208,0.915,1AVO
D,B,1AVO_GBD,B-D,H,J,D,B,211,0.819,1AVO
L,N,1AVO_CLN,L-N,L,N,N,L,214,0.798,1AVO
N,M,1AVO_MNF,M-N,K,L,M,N,210,0.907,1AVO
M,A,1AVO_AMF,A-M,I,K,A,M,63,0.233,1AVO
B,A,1AVO_AMB,A-B,I,J,A,B,209,0.905,1AVO
,,,I-K,A,M,I,K,62,0.946,1AVO
,,,I-L,A,N,I,L,28,0.748,1AVO
,,,J-L,B,N,J,L,214,0.812,1AVO
,,,C-G,C,E,G,C,63,0.005,1AVO
,,,C-H,D,E,H,C,29,0.008,1AVO
,,,C-F,E,F,C,F,209,0.009,1AVO
,,,D-E,G,H,E,D,217,0.027,1AVO
,,,A-E,G,I,E,A,63,0.023,1AVO
,,,A-D,H,I,D,A,27,0.651,1AVO
,,,B-M,J,K,B,M,25,0.160,1AVO
,,,B-N,J,L,B,N,214,0.217,1AVO
,,,K-M,K,M,M,K,64,0.900,1AVO
,,,K-N,L,M,N,K,27,0.935,1AVO
