Chain,Edge_chain,Source,Name,PDBchain1,PDBchain2,Modelchain1,Modelchain2,Numcontacts,DockQ,PDB
K,D,1DPS_DJK,D-K,B,D,D,K,208,0.009,1DPS
D,B,1DPS_BDG,B-D,,,,,,,
I,G,1DPS_JGI,G-I,,,,,,,
G,E,1DPS_EGA,E-G,,,,,,,
E,C,1DPS_CEB,C-E,A,H,C,E,66,0.053,1DPS
B,F,1DPS_BEF,B-F,J,L,B,F,209,0.961,1DPS
F,J,1DPS_CFJ,F-J,G,L,J,F,105,0.016,1DPS
J,L,1DPS_JLB,J-L,G,I,J,L,68,0.014,1DPS
H,C,1DPS_CBH,C-H,A,C,C,H,210,0.028,1DPS
L,C,1DPS_KCL,C-L,,,,,,,
C,A,1DPS_LAC,A-C,,,,,,,
,,,D-I,B,F,D,I,68,0.008,1DPS
,,,A-H,C,E,H,A,68,0.053,1DPS
,,,E-H,C,H,H,E,110,0.007,1DPS
,,,F-H,C,L,H,F,70,0.014,1DPS
,,,I-K,D,F,K,I,105,0.014,1DPS
,,,K-L,D,I,K,L,70,0.011,1DPS
,,,G-K,D,K,K,G,103,0.010,1DPS
,,,A-J,E,G,A,J,212,0.017,1DPS
,,,A-L,E,I,A,L,107,0.012,1DPS
,,,E-I,F,H,I,E,209,0.010,1DPS
,,,B-I,F,J,I,B,67,0.014,1DPS
,,,G-L,I,K,L,G,209,0.425,1DPS
