Chain,Edge_chain,Source,Name,PDBchain1,PDBchain2,Modelchain1,Modelchain2,Numcontacts,DockQ,PDB
C,H,1DW9_BCH,C-H,I,J,H,C,538,0.797,1DW9
G,E,1DW9_DEG,E-G,A,D,G,E,536,0.022,1DW9
H,I,1DW9_HIF,H-I,C,I,I,H,201,0.032,1DW9
I,J,1DW9_AIJ,I-J,C,H,I,J,534,0.822,1DW9
E,F,1DW9_EFJ,E-F,B,D,F,E,204,0.806,1DW9
F,B,1DW9_BJF,B-F,B,E,F,B,99,0.056,1DW9
D,B,1DW9_BDG,B-D,E,F,B,D,201,0.794,1DW9
J,A,1DW9_AJG,A-J,G,H,A,J,201,0.009,1DW9
B,A,1DW9_IAB,A-B,E,G,B,A,538,0.015,1DW9
,,,F-G,A,B,G,F,92,0.013,1DW9
,,,D-G,A,F,G,D,30,0.010,1DW9
,,,G-H,A,I,G,H,99,0.017,1DW9
,,,C-G,A,J,G,C,200,0.009,1DW9
,,,D-F,B,F,F,D,537,0.029,1DW9
,,,A-F,B,G,F,A,28,0.039,1DW9
,,,B-I,C,E,I,B,29,0.010,1DW9
,,,A-I,C,G,I,A,101,0.013,1DW9
,,,C-I,C,J,I,C,92,0.012,1DW9
,,,D-E,D,F,E,D,95,0.010,1DW9
,,,E-H,D,I,E,H,30,0.042,1DW9
,,,B-J,E,H,B,J,92,0.009,1DW9
,,,A-D,F,G,D,A,95,0.013,1DW9
,,,H-J,H,I,J,H,92,0.011,1DW9
,,,C-J,H,J,J,C,31,0.026,1DW9
