Chain,Edge_chain,Source,Name,PDBchain1,PDBchain2,Modelchain1,Modelchain2,Numcontacts,DockQ,PDB
K,E,6LQH_EKQ,E-K,,,,,,,
E,N,6LQH_AEN,E-N,,,,,,,
N,B,6LQH_BNR,B-N,,,,,,,
O,D,6LQH_DOR,D-O,,,,,,,
Q,F,6LQH_IFQ,F-Q,,,,,,,
H,F,6LQH_FHK,F-H,C,D,F,H,471,0.017,6LQH
D,C,6LQH_CDJ,C-D,B,E,D,C,470,0.011,6LQH
F,M,6LQH_FMQ,F-M,C,G,F,M,471,0.015,6LQH
M,L,6LQH_RLM,L-M,,,,,,,
C,P,6LQH_BCP,C-P,,,,,,,
P,I,6LQH_IPM,I-P,I,J,I,P,66,0.066,6LQH
L,G,6LQH_EGL,G-L,,,,,,,
I,G,6LQH_GIP,G-I,A,I,G,I,468,0.020,6LQH
G,R,6LQH_GRK,G-R,,,,,,,
R,J,6LQH_PJR,J-R,M,O,J,R,77,0.045,6LQH
J,A,6LQH_EAJ,A-J,,,,,,,
B,A,6LQH_ABO,A-B,H,N,A,B,21,0.007,6LQH
,,,D-G,A,B,G,D,471,0.009,6LQH
,,,G-P,A,J,G,P,136,0.598,6LQH
,,,G-Q,A,K,G,Q,66,0.015,6LQH
,,,G-N,A,R,G,N,21,0.013,6LQH
,,,D-P,B,J,D,P,21,0.029,6LQH
,,,D-Q,B,K,D,Q,131,0.076,6LQH
,,,B-D,B,N,D,B,66,0.005,6LQH
,,,F-O,C,L,F,O,138,0.187,6LQH
,,,F-J,C,M,F,J,21,0.009,6LQH
,,,F-K,C,P,F,K,64,0.013,6LQH
,,,E-H,D,F,H,E,469,0.009,6LQH
,,,H-O,D,L,H,O,66,0.066,6LQH
,,,H-J,D,M,H,J,132,0.011,6LQH
,,,H-R,D,O,H,R,21,0.020,6LQH
,,,A-C,E,H,C,A,469,0.008,6LQH
,,,C-Q,E,K,C,Q,21,0.025,6LQH
,,,B-C,E,N,C,B,139,0.006,6LQH
,,,C-L,E,Q,C,L,67,0.064,6LQH
,,,A-E,F,H,E,A,470,0.009,6LQH
,,,E-J,F,M,E,J,64,0.034,6LQH
,,,E-R,F,O,E,R,133,0.015,6LQH
,,,E-L,F,Q,E,L,21,0.019,6LQH
,,,I-M,G,I,M,I,470,0.010,6LQH
,,,M-O,G,L,M,O,21,0.265,6LQH
,,,K-M,G,P,M,K,140,0.026,6LQH
,,,M-N,G,R,M,N,66,0.008,6LQH
,,,A-R,H,O,A,R,66,0.042,6LQH
,,,A-L,H,Q,A,L,143,0.041,6LQH
,,,I-K,I,P,I,K,21,0.045,6LQH
,,,I-N,I,R,I,N,135,0.014,6LQH
,,,P-Q,J,K,P,Q,78,0.022,6LQH
,,,N-P,J,R,P,N,77,0.015,6LQH
,,,B-Q,K,N,Q,B,77,0.014,6LQH
,,,J-O,L,M,O,J,77,0.013,6LQH
,,,K-O,L,P,O,K,76,0.017,6LQH
,,,B-L,N,Q,B,L,77,0.005,6LQH
,,,L-R,O,Q,R,L,77,0.024,6LQH
,,,K-N,P,R,K,N,78,0.032,6LQH
