Chain,Edge_chain,Source
K,E,6LQH_EKQ
E,N,6LQH_AEN
N,B,6LQH_BNR
O,D,6LQH_DOR
Q,F,6LQH_IFQ
H,F,6LQH_FHK
D,C,6LQH_CDJ
F,M,6LQH_FMQ
M,L,6LQH_RLM
C,P,6LQH_BCP
P,I,6LQH_IPM
L,G,6LQH_EGL
I,G,6LQH_GIP
G,R,6LQH_GRK
R,J,6LQH_PJR
J,A,6LQH_EAJ
B,A,6LQH_ABO
