subcomponent,length
4C2M_5-8,1879
1KYO_4-6,278
3ONR_1-1,144
6ESQ_2-3,479
6ZKB_17-29,233
1IRU_5-13,454
1IRU_9-13,447
6ZKB_3-26,295
1G0U_6-12,448
6UWR_1-1,1334
6SQR_2-3,223
6ZEE_1-2,377
6ZKB_20-21,493
4BHU_1-1,260
1KB9_2-3,234
6G94_3-3,470
6KWY_8-13,541
6M3X_1-1,622
6ZKB_9-12,734
6ZKB_24-25,488
1Q95_1-1,620
1L0L_6-7,437
6RD7_4-6,212
1KYO_4-7,242
1VDM_1-1,306
7C4J_7-8,2608
6ZKB_12-29,781
1L0L_8-9,191
6KWY_6-14,494
6KWY_9-10,406
6KWY_7-15,2124
6KWY_4-12,482
1KB9_5-6,631
6N3P_1-1,308
4RSU_2-2,330
6KWY_8-9,482
1AVO_1-2,200
6FWH_1-1,394
1L0L_1-2,508
2VYR_2-2,306
6ZKB_10-12,743
1RBL_1-1,934
1KYO_3-3,770
7C4J_2-8,2180
1I50_1-10,1853
6ZKB_7-23,589
6ZK9_13-14,1190
6RD7_4-5,274
7CGE_1-4,443
3ZIA_3-5,339
6ZKB_8-18,214
6RD7_3-9,652
1KB9_2-7,312
6NHT_1-2,450
6KWY_8-12,518
1I50_3-8,1346
6ZK9_4-15,603
6KWY_1-2,495
6X04_2-2,236
1KB9_9-10,218
6OVH_1-1,212
5TRM_1-1,336
6OFG_1-1,166
6ZKB_18-21,245
5ODC_1-4,794
3N99_1-1,580
6ZK9_14-16,680
7CGE_1-1,520
6RKE_2-2,550
6ZK9_9-16,362
6Z1F_2-3,585
6ZK9_1-4,646
6ZKB_12-22,704
6RD7_6-9,416
6SQR_1-3,146
1A8R_1-1,442
2G9T_1-1,304
1IS7_1-1,460
3M0W_1-1,200
6RD7_8-8,254
6ESQ_3-3,698
6ZKB_26-29,364
1KYO_4-11,433
5BSE_1-1,554
6RD7_2-5,769
6Z1F_2-2,952
6ZK9_6-14,579
1G0U_13-14,427
1IRU_6-7,517
6KWY_4-15,2119
1RVV_1-1,308
6ZK9_16-18,341
6KWY_2-3,509
1I50_1-7,1879
2EWC_1-1,252
3HHW_1-1,174
6RD7_4-9,450
6ZKB_7-11,309
6ZKB_7-14,316
1L0L_6-8,351
3HHW_2-2,842
7NRQ_1-1,882
5B04_3-4,925
1X9F_2-3,298
2V5H_1-2,433
1KYO_1-6,523
6RO0_2-5,359
1KB9_3-7,292
1IRU_1-9,480
7JZ2_2-4,353
2V7Q_4-5,196
6KWY_1-7,480
5K2M_1-1,546
4BHU_1-2,260
1IRU_5-6,504
1KB9_1-4,783
1G0U_2-14,403
6Z16_2-6,231
6MST_1-1,132
1L0L_7-9,277
3ZQM_1-1,144
6SQR_2-2,292
1D0I_1-1,312
6G94_1-1,670
6QSU_1-2,807
7CGE_4-4,366
6ZKB_21-22,273
3ZNU_1-1,188
6QLV_1-1,460
6RD7_2-6,707
3KIF_1-1,212
2DD4_2-3,400
1DW9_1-1,312
1X0R_1-1,498
1KB9_5-7,570
1IRU_1-7,500
6ZKB_14-23,645
1Q95_2-2,306
3ZIA_1-2,988
1KYO_1-7,487
1IRU_8-8,410
6ZKB_26-28,361
3ZIA_1-1,1020
6Z1F_1-2,766
1G0U_1-7,495
1L0L_2-7,258
6W6M_1-1,1142
1G0U_4-5,507
6LQH_2-2,288
6KWY_3-11,511
5XPB_1-1,200
6ZK9_2-12,710
6UIW_1-1,662
1G0U_3-4,453
4RAP_1-1,812
1KYO_1-4,615
6ZKB_19-21,290
6ZKB_5-11,277
6ZKB_6-29,297
1IRU_1-2,479
7C4J_9-10,1396
2V5H_1-1,642
1L0L_5-6,620
1G0U_1-14,455
3BFJ_1-1,774
6ZKB_4-20,402
7C4J_7-9,2219
2V7Q_1-6,576
3VG8_1-1,232
6ZKB_23-24,806
6NHT_2-2,262
2BX9_1-1,106
2V7Q_3-5,322
1IRU_3-4,509
6KWY_6-7,501
6ZKB_1-23,916
6ZKB_11-26,368
3ZIA_4-5,199
1G0U_8-9,484
5B04_1-4,808
1G0U_5-10,500
6ZKB_3-24,453
5CW7_1-2,171
1BCF_1-1,316
1G0U_5-6,462
6ZKB_1-2,812
6KWY_2-9,466
6Z16_1-4,1311
1KYO_8-9,234
6ZKB_19-20,433
2V7Q_2-3,754
6ZK9_15-16,440
1L0L_1-3,502
2VYC_1-1,1510
4K2J_1-1,280
1IRU_6-14,482
1KYO_4-9,292
7JZ2_1-2,826
1HKX_1-1,294
2DD4_1-2,283
6ZKB_3-22,204
4EJ0_1-1,684
6ZKB_5-13,206
6KWY_1-15,2112
3HHW_1-2,508
1JYM_1-1,366
6JCV_1-1,666
1G0U_3-14,417
7C4J_4-9,2139
6ZKB_4-8,228
1Q5Q_1-1,518
4C2M_3-6,568
1IRU_10-13,418
2DD4_1-3,369
6Z1F_1-3,399
6NHT_1-1,638
1KB9_6-10,339
1I50_1-3,2957
6ZKB_9-29,303
4RDQ_1-2,621
1M3U_1-1,528
1G0U_6-11,444
4F4S_1-1,152
6KWY_9-12,446
6RKE_1-2,544
1KYO_11-12,374
6RD7_1-7,179
6G94_1-3,570
6LQH_1-1,570
6ZKB_12-13,714
5ODC_1-1,1308
5JQL_1-1,378
3ZIA_2-3,756
6SDZ_1-1,254
1KYO_4-8,312
3U6X_2-2,210
6KWY_9-11,468
2WCV_1-1,280
5F2Q_1-1,270
6ZKB_2-6,477
6ZK9_1-14,729
6ESQ_1-1,784
6ZK9_9-13,872
7C4J_1-5,898
6RDB_1-1,254
3OOQ_1-1,792
6SSI_1-1,636
5B04_1-2,740
6ZKB_15-23,613
6PYT_2-2,772
1KYO_1-2,782
1KYO_11-11,496
7C4J_1-9,1880
6Z16_2-4,630
1KB9_7-11,240
2FKD_1-1,220
1L6W_1-1,440
2DJW_1-1,184
6RD7_5-7,248
1IRU_4-11,449
2X2V_1-1,138
6RD7_2-4,741
5B04_3-5,1136
1X9F_4-4,280
1G0U_9-10,475
6RDB_1-3,201
6ZK9_6-8,230
5JQL_1-2,275
6ZK9_12-13,973
7CGE_2-2,538
6KWY_12-13,505
5J09_1-1,514
7JZ2_3-4,244
1G0U_1-12,502
6ZKB_11-27,336
6RO0_1-5,402
1IJG_1-1,618
1AVO_1-1,120
4C2M_10-14,1328
1G63_1-1,362
6ZKB_12-14,792
1Q95_1-2,463
6ZKB_7-12,736
1KYO_3-12,511
6ZKB_7-29,305
1KB9_1-7,616
6LQH_1-2,429
1L0L_5-7,575
1IRU_10-11,406
6KWY_8-14,516
6KWY_10-11,464
7C4J_6-7,1528
6G94_1-2,917
2YMD_1-1,424
6S5L_1-1,280
6KWY_3-15,2126
7CGE_1-2,529
2VYR_1-1,202
6ZK9_13-18,851
6RDB_3-4,273
6SQR_1-1,138
1L0L_1-4,885
6ZK9_4-18,504
6RDB_2-6,791
1IWA_1-1,986
6ZK9_2-8,578
6YBQ_1-1,1020
6LNI_1-1,420
6ZKB_3-8,250
6KWY_7-8,523
1VF7_1-1,738
6KWY_5-15,2141
6ZKB_12-24,953
6ZKB_6-28,294
2V18_1-1,136
6ZEE_2-2,156
6ZKB_9-26,317
1X0P_1-1,286
3DTD_1-1,350
5ODC_4-5,439
1I50_3-4,1542
1KYO_7-11,305
5OVS_1-1,402
6ZKB_12-25,747
4C2M_5-10,1789
1KB9_1-11,486
2QJG_1-1,546
7JQZ_1-1,618
1KYO_5-11,322
1IWA_2-2,276
1KYO_3-4,570
6ZKB_17-26,247
7C4J_8-10,1785
2D3A_1-1,712
6MRT_1-1,648
4C2M_3-14,1436
6RD7_1-4,205
7JZ2_4-4,230
4C2M_4-5,1990
5JYX_1-1,218
6ZKB_23-26,648
6ZKB_12-27,763
1KB9_6-11,301
1L0L_4-11,517
1G0U_1-13,472
3ZIA_1-3,788
6ZKB_18-20,388
1GH0_1-2,334
1KYO_10-11,356
1Z6O_1-1,424
1KYO_6-11,341
1YKK_2-2,476
6RO0_1-3,496
6Z16_5-7,277
1YKK_1-2,438
5AA5_1-2,930
1IRU_4-5,489
1QAW_1-1,148
6ZK9_8-14,577
6RDB_5-6,879
1G0U_4-9,482
6ZKB_1-24,804
4RDQ_1-1,818
5N5E_1-1,198
6ZK9_3-17,279
5UK3_1-1,352
6ZEE_1-1,598
6KWY_13-14,503
1KYO_6-12,219
6E7D_1-1,248
6Z16_2-7,259
1IRU_8-14,424
6ZKB_8-28,316
6KWY_2-10,462
6ZKB_8-20,462
1NGK_1-1,256
1TYF_1-1,386
6ZK9_3-7,310
6RD7_1-6,171
6ZKB_1-15,611
1BHC_1-1,116
3MQ7_1-1,242
1IS7_1-2,314
5CW7_2-2,200
5NFR_1-1,640
1KB9_6-9,371
1G0U_6-13,418
3LAY_1-1,350
4RSU_1-2,299
6ZKB_6-26,311
7C4J_4-5,1157
4C2M_5-6,1999
6ZKB_2-24,702
6ZKB_6-24,469
1IRU_11-11,402
6RO0_4-5,285
6ZKB_8-21,319
3K6C_1-1,190
1G0U_6-6,392
6ZKB_10-13,245
1KYO_2-12,478
4C2M_1-5,1734
2WYR_1-1,664
1G0U_2-3,410
1I50_2-3,1294
3TXQ_1-1,174
2A3W_1-1,408
5LK5_1-1,530
6ZK9_5-13,826
1G0U_2-2,396
6ZK9_1-6,382
4C2M_6-14,1538
3U6X_1-2,269
1KYO_2-2,704
6J0B_2-2,298
3JVO_1-1,216
2NV2_1-1,588
2DD4_2-2,314
2NV2_1-2,498
6ZKB_10-29,312
6KWY_6-15,2133
6ZK9_14-18,587
1X9F_1-4,291
6ZK9_3-13,897
1TR0_1-1,216
5ODC_5-6,772
7C4J_4-7,1730
6RO0_2-4,378
3ZK1_1-1,178
1KYO_3-11,633
1F1H_1-1,936
7JKC_1-1,826
6KWY_2-15,2139
6ZKB_1-22,555
5B04_2-5,1077
6ZKB_18-28,242
7AJP_1-1,416
6ZK9_1-15,489
6RDB_1-5,444
6RD7_5-6,240
1IRU_2-3,494
1AVO_2-2,280
1KB9_5-10,478
6ZKB_3-28,278
6J0B_1-2,504
4RDQ_2-3,429
4C2M_2-14,1618
6RD7_1-2,700
1KYO_3-6,478
1X9F_1-2,296
6ZKB_9-27,285
6RD7_8-9,454
2V7Q_3-6,338
1S3Q_1-1,346
6RDB_5-7,891
1Z6O_1-2,403
2VYR_1-2,254
3ZIA_3-4,416
4C2M_2-10,540
1IS7_2-2,168
7C4J_5-10,414
1L0L_6-10,319
1M5Q_1-1,260
6N3P_1-2,234
4IC1_1-1,412
1NLX_1-1,222
3A2C_1-1,648
3U6X_1-1,328
2P1B_1-1,244
6ZKB_12-23,1065
1I50_1-6,1888
6RDB_1-4,326
1KB9_6-8,320
1I50_1-8,1855
1L0L_5-9,460
1IRU_11-12,405
1L0L_2-6,303
6ZK9_8-13,841
6ZKB_1-12,1063
6GRJ_1-1,734
1IRU_3-11,462
6ZKB_9-10,265
2V5H_2-2,224
1X9F_3-4,293
1PCQ_1-1,1048
6KWY_4-5,504
6KWY_3-10,449
6ZK9_7-13,867
5K2M_1-2,326
4C2M_5-14,2867
6RDB_3-5,391
6ZKB_19-22,213
3OJ5_1-1,378
6ZK9_3-4,550
1G0U_5-13,488
1PCQ_2-2,194
5B04_1-1,682
6RD7_5-9,478
6ZKB_5-27,255
3FP9_1-1,306
1PCQ_1-2,621
7C4J_3-8,2170
4C2M_6-13,477
7C4J_5-8,2035
2GRE_1-1,698
1DPS_1-1,334
6SSI_1-2,439
6ZK9_8-9,259
2V7Q_1-3,782
7C4J_6-10,705
6ZK9_2-17,573
6RDB_4-5,516
1Q5Q_1-2,494
1G0U_12-13,474
6RD7_7-9,424
6ZK9_7-10,297
6KWY_11-12,504
7JJP_1-1,880
2OBX_1-1,314
6ZK9_1-13,993
3BJQ_1-1,632
1H2I_1-1,418
6RO0_3-4,379
1N8J_1-1,372
6OSJ_1-1,280
4C2M_2-3,648
1I50_1-5,1948
1X9F_1-3,304
5B04_2-4,866
6ZKB_2-15,509
2E6G_1-1,488
6ZKB_4-28,256
1I50_4-10,438
6PYT_1-1,334
6ZK9_2-3,634
6KWY_10-10,402
6ZK9_1-3,436
6X04_1-2,546
6KWY_14-14,478
6ESQ_1-2,522
6Z16_1-6,912
6ZKB_3-21,281
7C4J_1-4,1391
2BL2_1-1,312
2C41_1-1,316
6Z1F_1-1,580
7C4J_8-9,3017
6ZKB_11-23,638
1KB9_7-10,278
6ZK9_2-13,1191
7C4J_2-3,944
1G0U_4-13,463
1L0L_1-7,642
1KP8_1-1,1094
7C4J_4-6,1448
1L0L_1-9,527
1IRU_10-12,409
1G0U_11-12,500
1L0L_1-11,524
6KWY_3-4,489
5T11_1-1,320
1L0L_2-3,118
1I50_2-4,388
6ZK9_11-16,361
1Z6O_2-2,382
5ODC_2-3,475
1KB9_6-7,431
6ZK9_8-16,331
6ZKB_22-24,445
6ZK9_8-11,258
6RD7_1-5,233
6Z16_6-7,210
1KB9_5-9,510
6ZK9_14-15,686
6ZKB_17-23,517
7C4J_6-8,2326
1I50_1-4,2051
6ZK9_4-7,520
6J0B_1-1,710
1L0L_5-8,489
2V7Q_1-2,992
6ZKB_15-29,329
1L0L_6-9,322
4C2M_5-13,1806
5AA5_1-1,702
1IWA_1-2,631
4C2M_1-6,405
5ODC_1-5,953
6Z16_1-3,930
4RSU_1-1,268
1IRU_13-14,432
6PYT_1-2,553
1G0U_7-8,488
6RKE_1-1,538
7C4J_4-8,2528
1IRU_9-14,453
6ZK9_13-16,944
6RO0_1-4,421
1IRU_9-10,439
3TOS_1-1,514
6YBQ_1-2,1177
4C2M_5-9,1810
6QSU_2-2,1138
3M1A_1-1,562
6ZKB_6-16,198
6ZKB_2-16,431
1IRU_12-13,417
6ZKB_11-12,785
6ZKB_5-12,704
1G0U_2-8,441
6ZKB_15-26,343
5ODC_1-3,838
6WBN_1-1,746
7C4J_4-4,1650
6ZK9_9-18,269
3R90_1-1,376
1KB9_1-10,524
7JZ2_2-3,367
6ZKB_23-29,634
6SQR_1-2,215
1G0U_10-11,482
6ZKB_21-24,522
6ZK9_11-14,607
6RD7_2-9,945
6E7D_1-2,261
6ZKB_10-14,323
6ZKB_4-19,199
1TH7_1-1,162
7C4J_5-9,1646
1RBL_1-2,576
6Z16_2-5,298
6KWY_5-6,518
6KRB_1-1,182
6ZK9_1-8,380
1MFR_1-1,352
1G0U_4-14,446
6ZK9_1-7,406
6RDB_6-7,1136
4C2M_5-5,3328
7C4J_4-10,907
2V7Q_2-6,548
4JPN_1-1,158
6Z16_3-4,599
6KWY_5-13,527
4C2M_4-14,1529
6ZKB_9-11,307
6RD7_2-3,943
1IRU_8-9,439
6ZK9_12-17,355
2V7Q_3-4,418
7CGE_2-3,366
1GH0_1-1,324
7C4J_7-10,987
4C2M_1-14,1273
1I50_3-10,1344
6Z16_1-2,961
