Chain,n_ints,sum_av_IF_plDDT,n_contacts,n_IF_residues,ID
E,1,97.55264752294894,205,81,3ZK1
B,2,195.1052950458979,410,162,3ZK1
I,2,195.15081037632737,413,164,3ZK1
H,1,97.38924711092088,206,79,3ZK1
C,2,195.1702678249617,414,165,3ZK1
F,2,195.1702678249617,414,165,3ZK1
G,2,195.06298178896455,414,165,3ZK1
J,2,194.9668596948397,422,162,3ZK1
D,2,194.8923129619404,410,163,3ZK1
K,2,194.7583784510988,418,163,3ZK1
A,2,194.90849700866335,430,165,3ZK1
G,2,121.77506501141664,161,94,6OFG
D,3,179.68474207403102,122,92,6OFG
N,2,125.73264638177434,123,95,6OFG
Q,2,132.1921237732059,124,96,6OFG
R,2,132.1921237732059,124,96,6OFG
P,2,132.1921237732059,124,96,6OFG
J,2,125.07338802134932,120,91,6OFG
A,3,179.59967306726702,160,96,6OFG
I,2,187.3168223956628,106,75,1G63
E,2,187.4272172178837,106,75,1G63
A,2,187.3962967805113,104,74,1G63
R,3,255.1267741786901,105,73,1PCQ
Q,3,251.24628799960396,57,51,1PCQ
B,2,173.85127413804037,273,141,1PCQ
I,4,342.0241261368517,707,318,1PCQ
T,4,345.3122841917569,174,116,1PCQ
D,2,174.47618176306656,389,193,1PCQ
C,2,179.08625932339692,246,176,1PCQ
N,2,180.3067980548965,250,182,1PCQ
L,2,166.90505042214377,105,82,1PCQ
G,6,504.1220637708576,1011,439,1PCQ
H,4,341.55382373663366,396,236,1PCQ
M,6,498.84832524132713,1310,349,1PCQ
F,4,344.02810785869826,315,168,1PCQ
U,6,494.1243758615615,109,91,1PCQ
K,5,425.04664763382425,457,280,1PCQ
J,7,588.249498351705,1447,445,1PCQ
E,5,414.1417156536232,440,257,1PCQ
P,7,580.9502145934513,234,160,1PCQ
S,4,331.585479129437,115,95,1PCQ
A,4,334.9663676237803,254,192,1PCQ
I,3,207.0294022542396,226,124,2DD4
B,6,451.34342300425646,457,255,2DD4
F,5,409.5027708761802,448,217,2DD4
E,6,453.1961122844709,654,339,2DD4
L,7,553.083373104412,553,325,2DD4
J,10,710.3556630727601,755,393,2DD4
K,7,557.9272348136362,942,452,2DD4
D,8,639.2166972782586,817,346,2DD4
G,11,868.9530810051226,929,479,2DD4
H,10,828.5515190270858,1212,566,2DD4
C,8,647.5705887616543,377,228,2DD4
A,7,553.3297370052193,532,256,2DD4
B,3,221.39253805985885,251,105,6ZEE
G,4,261.6960264942197,337,165,6ZEE
H,3,184.3806985008848,207,104,6ZEE
K,4,282.2223079621056,372,170,6ZEE
J,6,423.3425400785152,495,222,6ZEE
D,7,605.3937957109125,964,317,6ZEE
I,5,336.5202660767562,360,193,6ZEE
F,6,463.6378112974015,554,268,6ZEE
E,5,423.553372099463,1395,378,6ZEE
C,5,432.9995721182487,934,335,6ZEE
L,5,325.0879486746849,263,148,6ZEE
A,9,697.8848614936139,408,247,6ZEE
G,2,149.4013126828482,46,40,2BX9
F,2,146.70127284101244,44,40,2BX9
A,2,148.84878180670398,46,40,2BX9
C,4,378.75538104566056,229,96,2DJW
E,4,380.83690716426366,299,114,2DJW
J,4,377.2035391079048,168,75,2DJW
F,5,474.4740872276483,172,83,2DJW
H,5,473.249718945627,196,100,2DJW
I,5,476.32984147775824,157,85,2DJW
D,4,380.5601532158363,152,68,2DJW
G,4,378.1547478234082,187,96,2DJW
A,5,475.5700568794047,158,85,2DJW
G,10,754.0581052316592,1269,574,6W6M
D,10,757.0768982115625,747,459,6W6M
F,10,745.0651252864529,731,440,6W6M
I,9,682.553116718422,1209,562,6W6M
J,10,742.5712362141552,731,432,6W6M
L,10,747.8428262706018,723,429,6W6M
H,10,750.0536451975868,822,462,6W6M
N,10,746.0266397020509,856,460,6W6M
B,10,743.6852127200543,842,453,6W6M
E,10,741.3053514982356,788,435,6W6M
A,9,677.7580018803272,696,418,6W6M
K,4,319.0689504641186,99,56,5K2M
L,3,230.30044773120125,55,41,5K2M
N,4,324.06881453408005,108,60,5K2M
J,4,351.38138843667264,180,84,5K2M
H,6,482.79938553417054,223,99,5K2M
G,6,503.6674250389554,99,47,5K2M
A,5,414.7325534095878,254,111,5K2M
E,2,179.44246975174622,176,91,1M3U
D,2,176.6593990260095,132,69,1M3U
J,3,262.3296232335107,199,117,1M3U
B,3,265.49147808221323,220,128,1M3U
I,2,178.1732351967185,225,88,1M3U
C,3,265.65862941645173,211,121,1M3U
F,3,264.4844214692765,203,118,1M3U
G,3,263.2559388528726,178,107,1M3U
H,2,176.86950863399943,223,86,1M3U
A,3,262.74763611436293,207,119,1M3U
F,4,362.1219452558645,288,165,5OVS
E,4,359.89843002731993,304,180,5OVS
H,4,364.2537813062598,248,144,5OVS
L,4,359.7967449134437,254,154,5OVS
B,4,361.8546112594647,272,160,5OVS
K,4,359.26827463586187,255,159,5OVS
N,4,361.4355711460251,268,155,5OVS
I,4,360.2540403758104,275,169,5OVS
M,4,360.3602740937994,292,176,5OVS
D,4,361.6695435607167,298,170,5OVS
G,4,363.2856027758989,266,145,5OVS
C,4,363.9082402157015,261,144,5OVS
J,4,362.496612144142,286,162,5OVS
A,4,361.8618172736002,267,151,5OVS
C,3,243.5509354106385,48,43,4EJ0
B,4,337.5216109925502,98,86,4EJ0
I,3,247.74361148103907,38,36,4EJ0
J,4,336.55947255238,86,80,4EJ0
D,4,336.4956891842586,96,89,4EJ0
F,4,333.6709952661393,93,84,4EJ0
H,4,337.834526663364,102,89,4EJ0
G,3,276.7183379739851,86,75,4EJ0
E,3,277.67749512483454,79,70,4EJ0
A,4,338.0559250338272,90,80,4EJ0
G,3,265.3716803456408,275,150,2GRE
E,3,265.0524600844467,289,161,2GRE
C,3,264.9697165349629,245,133,2GRE
B,3,266.1551871395043,255,136,2GRE
L,3,267.7388015774044,165,84,2GRE
K,3,267.6751372302164,236,128,2GRE
F,3,263.80125787236705,244,130,2GRE
D,3,265.5556857890506,294,169,2GRE
H,3,267.2630987586696,241,132,2GRE
I,3,268.57404192640365,288,162,2GRE
J,3,267.3159596026645,237,133,2GRE
A,3,264.8249606980775,245,136,2GRE
I,2,191.1003695957689,102,64,1M5Q
L,2,191.1274893624141,115,66,1M5Q
F,2,189.6697912948323,118,74,1M5Q
D,2,189.6937778879441,106,70,1M5Q
J,2,189.23371543628772,107,75,1M5Q
A,2,189.18260907653075,106,77,1M5Q
R,1,76.394719584542,71,32,1BCF
A,1,76.39471958454202,71,32,1BCF
T,3,236.6298780785184,518,281,6RDB
O,7,517.9854341285109,1354,506,6RDB
P,7,530.1401720216837,1867,767,6RDB
R,7,475.44305583142256,2042,825,6RDB
S,16,1034.4954340954955,3347,1169,6RDB
L,9,601.0885610279732,470,205,6RDB
K,9,643.6479241018669,920,411,6RDB
N,10,717.8313233296275,617,339,6RDB
Q,13,1065.2934355728096,2642,907,6RDB
B,15,1125.775245756515,1052,454,6RDB
G,11,850.4976446885047,642,277,6RDB
E,14,1121.547978131416,972,383,6RDB
J,12,953.7889795239086,1442,549,6RDB
F,12,880.8957249890815,813,337,6RDB
H,15,1110.6476572792833,1409,624,6RDB
D,10,787.4462676424376,757,329,6RDB
I,11,854.6679002326397,1251,465,6RDB
C,14,993.4276305465715,1209,520,6RDB
M,16,1148.4811479830564,581,316,6RDB
A,15,1186.124093245002,1307,486,6RDB
U,2,160.66712326744982,8,12,2NV2
Q,2,160.86845430282028,8,12,2NV2
M,2,173.63515167107388,126,82,2NV2
N,1,94.17465208410668,106,68,2NV2
O,1,92.66326241099468,122,76,2NV2
P,2,175.49060099175523,105,72,2NV2
V,4,324.9098587389841,638,245,2NV2
W,3,239.8166712802729,13,19,2NV2
X,2,173.79981025573247,122,80,2NV2
T,4,329.081050201147,666,250,2NV2
R,3,241.66799720406868,12,18,2NV2
S,2,175.22641033798692,105,70,2NV2
F,4,348.77311273614254,281,196,2NV2
K,3,271.4685559174758,272,191,2NV2
C,5,430.8455047369773,570,301,2NV2
L,5,434.9984821775282,466,269,2NV2
E,4,351.9476530861962,474,277,2NV2
A,5,440.8459048081213,554,290,2NV2
D,4,353.66827536010715,208,101,4IC1
H,4,349.42029591347097,290,128,4IC1
E,4,349.4350321838402,165,92,4IC1
I,4,349.70018587443326,164,89,4IC1
B,4,353.124043395719,196,89,4IC1
G,4,351.5090253599714,187,86,4IC1
J,4,343.37821440746967,219,112,4IC1
F,4,350.9562668414612,190,86,4IC1
C,4,353.4324157673124,194,89,4IC1
A,4,352.6540957038434,247,128,4IC1
F,2,139.1100166525234,149,105,6M3X
J,2,139.44298258152403,152,109,6M3X
A,2,138.9177560590884,143,104,6M3X
C,3,273.51961462931376,166,115,2QJG
D,4,367.6638505940422,256,169,2QJG
E,4,367.450616129845,176,127,2QJG
G,4,364.9921303395576,231,150,2QJG
H,4,368.1597177324376,286,184,2QJG
F,4,370.2240764810234,262,175,2QJG
B,3,275.57765550157626,158,114,2QJG
J,4,364.7353436061521,283,180,2QJG
I,4,366.2573508272095,229,145,2QJG
A,4,365.4419566442027,207,141,2QJG
D,11,527.5919162939011,1747,973,7JKC
E,11,573.0505022754537,2750,1361,7JKC
B,11,656.4009762808079,3404,1432,7JKC
L,11,567.726085731637,2505,1316,7JKC
K,11,645.2044433142853,3720,1708,7JKC
G,11,546.5789983797376,1993,1052,7JKC
H,11,645.8924307577371,3555,1712,7JKC
F,11,623.7468716571444,2892,1497,7JKC
C,11,556.109541811842,2195,1151,7JKC
I,11,654.0458080106038,3656,1822,7JKC
J,11,558.293744841627,2781,1343,7JKC
A,11,545.0185463272279,2306,1087,7JKC
G,6,493.0636003835553,693,284,6KWY
J,11,919.8617880789792,853,414,6KWY
I,7,606.9753605679921,764,319,6KWY
L,4,360.4381462814045,239,160,6KWY
D,10,834.6726307890953,1434,566,6KWY
F,16,1244.093047532402,1730,659,6KWY
K,10,858.9164273450208,1353,568,6KWY
H,16,1212.892800045999,2068,846,6KWY
R,7,540.5683179216676,1021,449,6KWY
S,9,739.110234099758,890,393,6KWY
Z,15,920.177048689309,1724,780,6KWY
E,8,661.8790966857702,945,418,6KWY
N,11,914.69191257302,1736,674,6KWY
Y,19,1210.6503669510907,2537,1000,6KWY
a,19,1201.728926865699,1598,733,6KWY
T,17,1379.7678239844251,1888,805,6KWY
X,17,1094.306773452098,1789,757,6KWY
C,19,1516.5410534557989,3397,1377,6KWY
U,20,1346.4349999330552,2375,1065,6KWY
Q,14,1122.8669062998256,1765,706,6KWY
V,23,1575.8494906460148,3794,1557,6KWY
W,11,804.5023260701997,1448,693,6KWY
b,11,841.2925607818527,1779,733,6KWY
B,12,961.145761684788,1384,524,6KWY
O,18,1256.479455228899,3314,1209,6KWY
M,14,1099.0500858219268,2688,933,6KWY
P,14,1042.008702674783,1622,800,6KWY
A,12,979.4636787297118,1204,484,6KWY
L,2,181.0987201825149,186,98,1TH7
I,2,187.475149590182,148,86,1TH7
C,2,187.475149590182,148,86,1TH7
D,2,187.475149590182,148,86,1TH7
G,2,187.09721130959943,133,83,1TH7
A,2,180.7207819019324,171,95,1TH7
F,3,241.07141928007343,37,38,3N99
C,4,331.91971343617905,167,92,3N99
E,4,326.0300862102431,230,131,3N99
I,3,244.59071790604327,129,91,3N99
B,4,335.271329001804,224,128,3N99
H,4,335.4511155339072,229,133,3N99
G,4,329.1249706605611,139,73,3N99
D,4,329.9972324837677,157,94,3N99
J,4,328.6408206405188,298,165,3N99
A,4,334.8498356244023,296,167,3N99
N,2,159.12336911085305,50,36,5CW7
L,4,329.5200101787158,65,54,5CW7
E,10,742.101213283782,265,139,5CW7
F,10,827.8808910212717,346,187,5CW7
K,9,793.9521456479625,394,202,5CW7
G,10,852.5666032643098,575,254,5CW7
H,12,949.8983007850226,448,235,5CW7
J,9,776.0433339807598,451,211,5CW7
C,10,898.7768132764097,352,191,5CW7
D,10,897.4154386044929,360,204,5CW7
P,8,664.013040035846,289,141,5CW7
I,13,1177.0878467343766,584,300,5CW7
B,8,661.0967786528067,304,148,5CW7
O,9,757.8392098588579,523,259,5CW7
M,9,790.7452300002975,407,218,5CW7
A,9,738.5855721710582,345,187,5CW7
G,4,303.6612748558931,512,237,2V5H
I,5,370.4235045478041,497,264,2V5H
J,4,325.97260266685504,399,213,2V5H
L,4,334.34006274977685,461,222,2V5H
C,6,467.6668939767442,547,255,2V5H
B,7,562.2207316026893,1089,432,2V5H
H,6,477.7916578469654,333,204,2V5H
D,5,411.6588616028056,1055,398,2V5H
E,5,391.0082230965966,1011,365,2V5H
K,8,591.2540299242988,375,220,2V5H
F,3,255.57566375765592,551,208,2V5H
A,7,559.1712131192623,886,350,2V5H
I,4,282.4725192760984,274,120,6E7D
L,5,390.948813055467,286,130,6E7D
J,5,367.8422679998324,319,151,6E7D
K,3,235.6232037918313,281,110,6E7D
C,6,439.4790433100985,456,197,6E7D
G,6,499.8257228002069,586,238,6E7D
D,5,406.3065257272486,294,164,6E7D
F,5,394.22941849607537,392,186,6E7D
B,8,635.181885811908,586,254,6E7D
A,9,680.3004419331666,588,294,6E7D
F,2,110.64918843104184,51,25,4BHU
G,2,111.63257054084792,54,26,4BHU
A,2,110.675376294468,51,25,4BHU
I,2,191.93865324698663,160,110,2EWC
J,2,191.96058051384205,159,110,2EWC
A,2,191.94163299420853,159,110,2EWC
G,4,293.2186919524421,443,212,6RKE
I,6,407.1997990231545,1197,419,6RKE
L,6,382.0948517903128,665,300,6RKE
E,6,465.5707736181421,834,302,6RKE
D,6,438.8108569188447,910,388,6RKE
B,5,385.1419971919639,793,306,6RKE
A,5,338.07759183342034,596,259,6RKE
H,2,188.3199976285651,497,213,2BL2
I,3,269.1010467160494,495,216,2BL2
E,2,191.61831057529943,279,181,2BL2
B,2,190.42222483547363,277,179,2BL2
G,3,266.7862670465097,279,181,2BL2
D,2,190.13659438074933,276,178,2BL2
J,2,191.61831057529943,279,181,2BL2
F,2,190.42222483547363,277,179,2BL2
C,2,191.05080276743516,282,181,2BL2
A,2,191.29927720628933,281,183,2BL2
C,1,63.465868099158776,462,166,6RD7
B,16,883.3792713001466,1477,778,6RD7
G,15,669.67269313448,1039,549,6RD7
R,16,806.1509373841541,1652,874,6RD7
K,15,1007.6292296587602,1617,701,6RD7
D,15,802.6827923879549,1264,599,6RD7
M,11,743.2630177832118,1538,534,6RD7
L,15,977.8945614005844,1892,752,6RD7
Q,15,1017.5145678147924,2067,831,6RD7
F,16,888.5242744814063,1317,621,6RD7
O,15,971.2518149254108,2144,859,6RD7
N,15,968.2840770395404,1674,705,6RD7
J,14,888.8766373354007,1856,790,6RD7
I,15,965.5215473670626,1641,748,6RD7
P,16,1132.557897743303,2129,901,6RD7
H,16,1100.1749980563095,2232,842,6RD7
E,15,704.4289898330761,1467,732,6RD7
A,15,643.9455208592082,1074,486,6RD7
H,2,188.4503414825106,81,48,1X0P
B,2,189.17353673827824,91,53,1X0P
D,3,279.6842559973603,120,80,1X0P
C,3,280.5675594767341,122,80,1X0P
I,2,189.0604107649513,81,47,1X0P
J,2,190.4949412912252,91,51,1X0P
E,3,281.20630039771527,118,78,1X0P
A,3,281.378268606583,120,79,1X0P
E,3,194.39108432795277,22,25,1JYM
I,5,395.68494923746607,134,114,1JYM
G,5,393.40696828691887,443,181,1JYM
H,5,380.4982708094992,436,168,1JYM
D,8,621.3538160447783,858,333,1JYM
C,7,542.2809950470837,813,302,1JYM
F,8,586.2547203062867,818,309,1JYM
J,7,545.1848390380195,827,319,1JYM
B,5,382.4726104913751,436,168,1JYM
A,5,399.4753005467877,431,173,1JYM
Q,10,599.3897783477772,221,158,6ZKB
W,13,969.5660442009396,1021,473,6ZKB
X,12,839.225363986223,1465,558,6ZKB
T,14,1115.3261031924512,1901,733,6ZKB
R,16,1173.671002921937,626,319,6ZKB
B,20,1519.9044438598785,2090,951,6ZKB
U,21,1236.2676233941415,1190,635,6ZKB
Y,19,1539.3311750801863,1586,774,6ZKB
F,21,1619.0247994479978,1281,672,6ZKB
L,24,1582.1177993934475,1764,864,6ZKB
D,28,1914.335905834463,1634,856,6ZKB
N,23,1694.240036174472,2247,1087,6ZKB
S,24,1784.9200592939949,2064,1041,6ZKB
V,25,1825.346104168833,2216,1045,6ZKB
E,25,1629.8309053671474,1827,924,6ZKB
M,25,1655.50190215779,1889,985,6ZKB
I,25,1919.291404647396,1784,892,6ZKB
J,21,1699.5436693092736,1359,654,6ZKB
a,22,1403.198394692591,2295,1078,6ZKB
P,24,1724.5635256880992,1314,680,6ZKB
G,25,1855.792690043978,2183,1085,6ZKB
O,28,2041.916731299474,2644,1353,6ZKB
Z,26,2045.9333020388624,2826,1279,6ZKB
c,25,1846.2953569928031,2700,1212,6ZKB
K,26,1866.408999258461,3578,1668,6ZKB
b,26,1732.3224543242873,2106,1114,6ZKB
H,23,1835.828995254233,2226,1029,6ZKB
C,25,1792.732053513782,1813,944,6ZKB
A,24,1814.8362973160265,2634,1165,6ZKB
G,3,189.25349047474828,237,121,5J09
F,5,333.48258650911265,430,231,5J09
D,4,278.589159385289,383,207,5J09
C,3,218.99427810760335,307,172,5J09
H,2,157.22397160178647,208,116,5J09
J,2,157.22397160178647,208,116,5J09
B,3,202.63827935711885,235,135,5J09
I,4,275.0913284344441,387,212,5J09
E,4,272.45619513023473,340,187,5J09
A,4,252.6657097255498,291,157,5J09
H,2,180.0497717775279,296,172,1TYF
L,2,180.25554251893368,223,160,1TYF
M,2,179.85704461365805,293,173,1TYF
I,2,179.11979906647323,214,160,1TYF
B,2,181.0729149635629,221,160,1TYF
E,2,181.14821872114595,215,158,1TYF
A,2,180.16242018998275,214,159,1TYF
F,6,442.399657450727,1102,324,6X04
K,3,208.0172678905901,99,73,6X04
B,5,373.1881660549701,195,106,6X04
G,3,220.36143155123636,119,76,6X04
C,6,458.516665286849,1128,359,6X04
D,5,345.2374292040744,183,105,6X04
L,6,464.0178321291924,470,237,6X04
E,3,220.9228270324559,162,93,6X04
A,3,231.4384845849105,102,63,6X04
F,1,72.01732969742788,12,14,3R90
H,2,141.97807282958183,27,30,3R90
A,1,69.96074313215395,15,16,3R90
G,2,106.02030977766368,139,43,6MST
H,3,142.2760189719043,9,14,6MST
J,2,96.54386016201356,21,17,6MST
A,3,165.6049758826705,157,54,6MST
K,4,174.01699404811012,108,79,6RO0
L,7,372.7972403682497,702,292,6RO0
J,5,290.12060141349144,285,172,6RO0
D,6,385.5656491580598,683,308,6RO0
H,7,325.8384507831112,865,389,6RO0
G,7,376.4690429530609,710,287,6RO0
B,9,451.4449403330293,1043,501,6RO0
C,9,574.1663360529934,1500,545,6RO0
E,7,454.01943160399975,1226,483,6RO0
I,10,546.4714069079938,1456,611,6RO0
F,7,453.002596532546,967,377,6RO0
A,10,473.99158905916414,1009,500,6RO0
B,2,187.7694716881323,277,93,3M1A
I,2,189.07036042796787,279,94,3M1A
C,2,189.09453649996303,279,93,3M1A
A,2,187.7936477601275,277,92,3M1A
J,3,181.50576745072303,87,54,2G9T
C,4,251.3667732370812,93,62,2G9T
L,4,250.3272944635221,93,62,2G9T
B,5,317.80362843467253,152,95,2G9T
I,5,307.3473344405844,100,70,2G9T
K,4,250.46237418270363,94,63,2G9T
D,4,246.28875606398384,112,78,2G9T
F,4,249.20603400292717,83,68,2G9T
E,2,134.89044580373405,57,48,2G9T
H,1,67.1991798047614,21,21,2G9T
G,2,136.83767954095651,45,44,2G9T
A,2,136.81548540848974,47,45,2G9T
B,3,266.5930021650811,110,83,6ESQ
F,6,508.51372289624754,126,114,6ESQ
D,3,267.1171530810432,66,61,6ESQ
E,6,498.3872442794552,166,125,6ESQ
I,5,436.3560626663725,372,174,6ESQ
L,8,667.9879244325336,382,193,6ESQ
J,5,435.9988496819809,331,153,6ESQ
K,8,678.1975428245221,354,168,6ESQ
H,5,439.44970271330135,181,147,6ESQ
C,4,367.8253349078209,317,156,6ESQ
G,5,451.1985570281233,176,148,6ESQ
A,4,357.562899194682,329,162,6ESQ
F,6,469.1852017092602,567,239,2WYR
G,5,404.5796346184122,832,223,2WYR
E,5,405.0052727811278,251,136,2WYR
H,5,393.44467543408535,260,142,2WYR
C,5,401.65415208092895,437,177,2WYR
I,5,398.7012735542678,286,145,2WYR
B,5,391.69957146737113,466,197,2WYR
K,5,406.9435443469588,822,221,2WYR
D,5,403.4244877404299,483,192,2WYR
J,5,403.42956363799954,287,144,2WYR
L,5,401.5051856520095,311,157,2WYR
A,6,458.2620276935589,298,155,2WYR
B,5,402.99626269406167,1597,600,2VYC
D,5,403.5955115850309,1578,523,2VYC
E,5,408.5656244554484,3106,905,2VYC
J,6,457.1904210755939,2009,679,2VYC
I,6,468.16651794600057,835,354,2VYC
C,5,371.0632351953825,1166,439,2VYC
F,6,486.063853426759,1290,479,2VYC
H,6,485.0059572264706,2170,595,2VYC
A,4,315.59968921722566,1149,444,2VYC
E,2,84.55935871096662,336,160,6GRJ
H,2,97.59426620779549,668,314,6GRJ
F,2,94.72107868361503,472,262,6GRJ
A,2,81.6861711867862,140,108,6GRJ
E,2,173.45244202585417,16,15,6ZK9
O,14,867.6667799213033,1205,656,6ZK9
I,11,863.6618131048125,1031,464,6ZK9
R,13,997.317977654844,1286,604,6ZK9
D,14,902.4773062305816,1244,669,6ZK9
Q,12,697.8920606372034,601,396,6ZK9
C,13,862.132895750133,1041,556,6ZK9
L,15,902.609217358963,1362,717,6ZK9
M,9,682.5663795303262,1629,670,6ZK9
B,11,854.9656875734719,2452,950,6ZK9
G,14,1021.8448850793004,1402,624,6ZK9
J,14,893.2240525520823,1115,598,6ZK9
H,14,907.6067112955452,1217,624,6ZK9
P,15,1051.416183343916,1221,615,6ZK9
F,13,1016.5057727349356,1248,650,6ZK9
K,12,914.8975656436528,1092,511,6ZK9
N,16,1202.2631055337272,3383,1395,6ZK9
A,16,1121.6590882575924,2505,1178,6ZK9
L,5,393.9426526542062,110,85,1RBL
N,5,421.2509928231767,157,137,1RBL
B,5,422.1506309345426,297,168,1RBL
F,6,510.2868060337034,383,225,1RBL
P,4,338.8914272709644,101,101,1RBL
I,5,412.994379420864,168,144,1RBL
E,7,595.8448847352527,489,258,1RBL
M,5,399.50834581408697,363,176,1RBL
K,5,398.9005440086,134,120,1RBL
H,7,599.3013646766423,542,280,1RBL
J,5,413.6573161840371,162,135,1RBL
O,4,323.978537911252,212,150,1RBL
D,7,595.6808916029757,830,375,1RBL
G,8,668.0502674564066,632,301,1RBL
A,6,503.0020138643898,286,183,1RBL
E,6,381.4824121073348,167,72,3K6C
D,6,380.6766039951143,241,106,3K6C
H,6,402.7507937781035,274,120,3K6C
F,6,374.5358334504538,170,73,3K6C
I,6,409.7131158178073,264,125,3K6C
C,6,370.8875652114447,244,104,3K6C
J,6,431.4450112184769,248,120,3K6C
B,6,409.9360891738386,256,117,3K6C
G,6,405.5537719558167,249,117,3K6C
A,6,416.5894583076085,263,120,3K6C
C,11,618.2912421054627,1993,1006,7JJP
H,11,666.2778274539387,3406,1421,7JJP
E,11,616.1098673941615,2536,1231,7JJP
G,11,657.3472561074683,3083,1323,7JJP
F,11,706.8781985365795,3274,1503,7JJP
L,11,667.6182704468271,2597,1173,7JJP
B,11,633.744715335025,1992,989,7JJP
J,11,719.4909073333866,3318,1409,7JJP
K,11,705.7626217295509,3106,1275,7JJP
I,11,679.5639357973002,2207,1105,7JJP
D,11,675.7826881669941,3097,1408,7JJP
A,11,615.9614830318477,2141,1035,7JJP
K,4,195.5962111584377,484,195,3A2C
D,4,213.01124009807185,854,189,3A2C
F,5,312.5113390589853,481,221,3A2C
J,4,207.5015701080167,606,251,3A2C
E,4,212.34140867689663,858,191,3A2C
I,6,344.684516135159,588,268,3A2C
C,8,475.1297510719552,1693,512,3A2C
L,7,382.830104520991,1023,369,3A2C
G,8,482.1440883741256,1817,518,3A2C
B,8,412.9274314268843,1231,352,3A2C
H,6,377.1676421448429,847,343,3A2C
A,8,431.2778473022755,1168,311,3A2C
I,5,379.7512415072071,1108,486,5AA5
G,7,541.2016140247279,2175,764,5AA5
J,7,529.879898083888,1639,611,5AA5
F,8,561.292793089988,1095,518,5AA5
H,6,452.6355646934566,593,290,5AA5
E,9,598.6451639930605,820,359,5AA5
L,9,674.401894031214,1185,591,5AA5
K,6,426.9873942871226,928,457,5AA5
C,9,668.2582531298788,1334,648,5AA5
D,8,585.640399527202,1274,600,5AA5
B,10,737.749796022085,1673,772,5AA5
A,10,783.8203854206616,1562,688,5AA5
D,2,138.3282180312127,65,60,3OOQ
C,2,139.09740214539448,62,58,3OOQ
A,2,139.19299248376234,65,60,3OOQ
E,2,150.19840762324813,239,124,7JQZ
I,3,235.6353186372541,197,115,7JQZ
H,2,150.19840762324813,239,124,7JQZ
B,3,237.03464206794845,295,160,7JQZ
C,4,292.3339137464368,524,253,7JQZ
D,4,322.9430740137197,681,310,7JQZ
G,4,294.9094882889683,596,253,7JQZ
F,4,315.3550692098887,315,176,7JQZ
J,4,292.94641135129604,426,228,7JQZ
A,4,319.8555810822331,710,283,7JQZ
G,3,281.6471461879765,150,57,6SDZ
D,3,280.7561722705465,155,59,6SDZ
J,3,283.1192385794214,130,51,6SDZ
A,3,281.44375640923863,125,49,6SDZ
C,2,165.95493867582695,208,123,3MQ7
F,2,166.37065386663,207,123,3MQ7
A,2,166.45669140068816,203,120,3MQ7
I,4,282.76484968419334,252,135,5N5E
F,5,324.63704536094457,248,134,5N5E
G,5,328.8165424546356,323,141,5N5E
C,5,351.3928233201636,297,143,5N5E
J,6,388.48932549110685,305,158,5N5E
D,5,367.2799259444009,299,139,5N5E
E,5,360.2816471877713,280,139,5N5E
H,4,297.6969589803085,257,113,5N5E
A,5,357.296057232013,295,138,5N5E
L,1,86.94298338757152,271,154,5ODC
K,1,86.9014107289507,300,167,5ODC
J,3,269.35787867422226,470,279,5ODC
I,3,272.2469342035908,487,282,5ODC
C,3,272.9901031012813,383,202,5ODC
D,4,364.7277636472359,375,194,5ODC
G,3,265.0253888179625,288,174,5ODC
H,4,354.6253023078836,273,183,5ODC
F,5,444.4613979704799,880,393,5ODC
E,5,445.6384648631348,414,237,5ODC
B,6,525.6176871684745,940,440,5ODC
A,8,731.1434016467294,921,475,5ODC
L,3,219.9775829777776,1148,430,6UWR
H,3,200.92260245549363,330,250,6UWR
B,2,149.17600664255838,309,237,6UWR
M,3,202.34542596673023,1219,434,6UWR
C,4,270.3521160995804,485,294,6UWR
E,2,128.69597997018326,534,297,6UWR
A,3,186.10270906911725,439,258,6UWR
F,1,58.36224301526564,26,22,1I50
I,6,406.9761489658706,446,246,1I50
G,8,503.55072495734,494,257,1I50
H,6,415.81822063695137,348,175,1I50
B,8,465.02989208416784,5011,1678,1I50
C,6,340.579566512591,334,216,1I50
J,7,443.9954715674333,455,240,1I50
D,7,525.7852778422165,3908,1514,1I50
E,8,519.2233786840438,1286,657,1I50
A,5,259.3822924131284,4604,1495,1I50
H,5,323.28248328052183,256,152,5JYX
G,5,363.880964366275,297,187,5JYX
E,4,326.7695947502216,377,199,5JYX
B,7,463.51582292084834,500,243,5JYX
F,5,352.34847350134805,362,166,5JYX
C,7,497.6488154294127,427,225,5JYX
D,5,273.9304070175206,235,118,5JYX
A,6,363.6169881074267,404,198,5JYX
B,4,372.112245613421,174,114,1AVO
E,5,460.8538744659886,160,111,1AVO
G,5,465.3785385525848,162,122,1AVO
N,5,464.7877070911009,196,148,1AVO
M,5,458.2992746738884,207,148,1AVO
J,5,471.3439507318482,276,209,1AVO
D,5,464.7085645899494,164,124,1AVO
L,5,470.6775554914411,272,203,1AVO
C,5,466.5941766893259,167,124,1AVO
I,5,471.3124559769691,277,214,1AVO
K,5,470.31175014676506,309,216,1AVO
H,5,472.3823830986365,266,212,1AVO
F,5,467.1671527031765,154,123,1AVO
A,4,370.2945296027698,184,114,1AVO
B,4,332.1298493851393,264,97,1GH0
K,7,604.2716799283768,415,188,1GH0
H,5,435.0860186274866,142,75,1GH0
F,4,338.4854248935664,152,84,1GH0
C,8,657.6864524890299,439,207,1GH0
G,5,444.4144681840705,160,85,1GH0
D,5,436.8383447086071,170,98,1GH0
E,5,444.87570965072456,174,81,1GH0
I,8,704.4405532040184,572,229,1GH0
L,10,882.9362214472399,680,265,1GH0
J,5,454.3319453065512,157,84,1GH0
A,8,687.7297734385683,465,239,1GH0
B,3,258.6480445432409,52,29,6KRB
H,3,257.2822433262324,85,34,6KRB
I,3,255.94685672263228,40,23,6KRB
A,3,253.86975303805184,73,28,6KRB
V,2,185.2733229185716,82,71,6FWH
R,2,185.04011853900957,83,71,6FWH
A,2,185.32350333812616,81,70,6FWH
G,9,327.0324774888224,1321,394,6OSJ
D,9,321.47763744088,1488,465,6OSJ
H,9,314.0760972456558,1681,465,6OSJ
B,9,331.10092443751233,1554,434,6OSJ
I,9,322.32579724529563,1632,404,6OSJ
E,9,327.18329306351336,1602,452,6OSJ
J,9,313.5010079181893,1577,507,6OSJ
F,9,323.7293094795833,1673,464,6OSJ
C,9,323.4417682314641,1672,418,6OSJ
A,9,317.06974270729995,1252,355,6OSJ
L,2,53.35112113480841,38,39,7C4J
C,10,594.6854709972073,3463,1511,7C4J
I,11,551.9801464971388,5222,2617,7C4J
J,10,505.0152943218752,8715,3988,7C4J
G,10,529.7865581964401,6623,2824,7C4J
E,10,496.16761740950665,8041,3431,7C4J
H,11,588.5191688265162,8287,3495,7C4J
F,10,537.9762869754761,3605,1779,7C4J
K,10,564.2320720372837,8513,3715,7C4J
B,10,662.0132426831394,4379,1726,7C4J
D,10,586.3483025774001,6665,3149,7C4J
A,10,580.0792753728931,4757,2078,7C4J
I,2,184.23313755107404,259,95,1X0R
G,3,268.36886688636133,322,116,1X0R
C,4,364.7699658153885,348,137,1X0R
H,4,361.4381981795999,339,134,1X0R
E,4,365.0657654665457,343,138,1X0R
D,4,362.0735516891132,339,134,1X0R
F,2,184.88902040636813,260,97,1X0R
J,4,361.7992951618784,346,136,1X0R
B,4,364.4218907336602,345,138,1X0R
A,3,269.89438507175646,325,119,1X0R
I,5,365.1259520272524,241,98,3M0W
F,2,114.13718768484556,54,44,3M0W
G,4,214.4552008582325,46,44,3M0W
H,6,366.1455750059819,313,137,3M0W
E,4,247.0854301639231,160,79,3M0W
D,5,261.1274278683952,58,56,3M0W
B,3,212.1765056174789,76,53,3M0W
J,6,424.8637542896573,195,103,3M0W
C,4,286.86361962498137,141,74,3M0W
A,5,309.42401170725685,324,158,3M0W
E,2,195.16399252797555,209,106,2X2V
C,2,195.22681736827587,295,124,2X2V
F,2,195.07304331351207,294,124,2X2V
B,2,195.10831777145032,293,124,2X2V
G,2,195.22681736827587,295,124,2X2V
K,2,195.22681736827587,295,124,2X2V
I,2,195.22681736827587,295,124,2X2V
D,2,195.1741209727068,206,106,2X2V
H,2,195.07304331351207,294,124,2X2V
M,2,195.24932003192504,287,124,2X2V
L,2,194.9545437166865,292,124,2X2V
J,2,195.01357018151987,293,124,2X2V
A,2,195.14444399726335,290,124,2X2V
E,7,527.5224457071572,340,203,2VYR
G,4,310.76198677062155,70,65,2VYR
D,7,495.9290123968759,354,202,2VYR
K,8,589.0552413043749,488,256,2VYR
J,6,452.2429612384349,228,136,2VYR
C,4,296.4681610968301,210,127,2VYR
L,7,520.1665392073538,341,200,2VYR
F,6,429.1365005498884,266,130,2VYR
B,7,549.7414196400846,303,163,2VYR
I,7,551.5960499400293,435,230,2VYR
H,5,358.9386507034348,178,115,2VYR
A,4,319.9732795921989,327,149,2VYR
C,2,196.06905518550224,71,52,2V18
H,2,196.09231253535813,68,50,2V18
A,2,196.10806356790525,71,52,2V18
G,5,462.4505732713608,531,212,1DPS
D,5,466.45794731797537,571,201,1DPS
H,5,462.26047358410415,285,144,1DPS
I,5,465.6142707205372,548,195,1DPS
J,5,466.609158501774,584,202,1DPS
E,5,464.670103778264,259,127,1DPS
F,5,463.9499138703992,556,225,1DPS
K,5,458.253588881053,222,129,1DPS
C,5,465.4179145893341,701,236,1DPS
B,5,453.4806740708607,401,175,1DPS
L,5,462.1122484877399,314,152,1DPS
A,5,458.1398724435104,220,114,1DPS
F,2,185.3415593442441,189,122,2OBX
D,2,186.55383225155725,158,110,2OBX
B,2,185.31316918238676,187,124,2OBX
E,2,185.4164513305088,151,112,2OBX
A,2,185.4164513305088,151,112,2OBX
S,7,581.499606569371,242,177,1Z6O
H,7,578.8863513191568,535,311,1Z6O
V,8,567.3152684182168,612,271,1Z6O
B,6,509.5950664475323,348,247,1Z6O
R,7,588.1035803491005,576,285,1Z6O
X,8,673.801093881621,269,203,1Z6O
P,7,602.59195939583,583,272,1Z6O
F,7,559.9148407264815,975,357,1Z6O
W,11,886.965392773247,372,248,1Z6O
L,8,633.2280694853199,712,340,1Z6O
J,6,511.3587113548289,748,346,1Z6O
T,9,749.6020536363675,917,370,1Z6O
E,7,600.4603854610107,737,337,1Z6O
U,9,755.223192297202,639,310,1Z6O
K,7,552.1746175861614,699,341,1Z6O
N,8,684.8345844197491,545,271,1Z6O
G,6,512.1037413182486,396,270,1Z6O
D,7,582.1782056800696,504,294,1Z6O
M,7,586.5657069632618,295,210,1Z6O
Q,9,757.862419300577,393,242,1Z6O
O,10,837.8783467191402,729,340,1Z6O
C,6,492.8809461051048,685,319,1Z6O
I,9,711.3091413488391,824,371,1Z6O
A,8,664.185638361005,783,344,1Z6O
B,2,173.46056450489934,337,189,5T11
H,2,170.41393093459504,214,154,5T11
C,2,170.41393093459504,214,154,5T11
G,2,170.8041734621529,333,186,5T11
D,2,170.41393093459504,214,154,5T11
K,2,170.41393093459504,214,154,5T11
I,2,170.13404341362477,225,157,5T11
J,2,166.38231285966094,205,149,5T11
F,2,167.66347687021968,204,150,5T11
E,2,167.66347687021968,204,150,5T11
L,2,166.55831317779314,204,150,5T11
A,2,167.65365268901053,220,155,5T11
E,3,261.7216261213589,316,191,2D3A
F,3,264.28248573301244,315,191,2D3A
B,4,343.2783812024264,314,200,2D3A
D,2,179.9855145554386,240,165,2D3A
A,4,342.9128969135256,309,195,2D3A
B,6,408.7253073407454,792,397,6G94
E,5,391.5020138543058,1491,571,6G94
D,5,366.9948271040441,867,411,6G94
C,7,526.5415186298673,1531,623,6G94
F,6,429.6152211048189,617,326,6G94
H,7,540.9164858308874,1215,562,6G94
G,5,418.00535817199847,933,391,6G94
A,7,512.2002581787865,1528,647,6G94
C,2,188.2161827752904,93,75,2A3W
D,2,190.1983867338633,84,70,2A3W
B,2,189.5297094454866,94,75,2A3W
H,2,191.6633102876789,85,70,2A3W
A,2,191.69423639441212,84,70,2A3W
E,1,92.14188597847136,89,46,7CGE
F,2,172.87149490946354,68,55,7CGE
G,7,561.2241719166946,1243,458,7CGE
I,6,472.360372375252,787,351,7CGE
K,7,545.1004911273626,640,270,7CGE
J,6,494.24834712654376,996,419,7CGE
L,8,647.6774093043737,524,297,7CGE
H,5,379.6629346045941,238,158,7CGE
B,8,662.3796073050268,1143,448,7CGE
C,4,352.34829627015046,268,145,7CGE
D,7,577.3661920045986,364,191,7CGE
A,9,754.3404079071915,1040,454,7CGE
F,4,376.45167694816826,184,111,2P1B
I,4,375.4462355663149,310,149,2P1B
E,4,376.40601876043206,188,112,2P1B
J,4,376.28223255932807,309,149,2P1B
A,4,376.0694385833481,189,113,2P1B
D,3,214.34174261431136,12,15,1HKX
M,3,229.5544751657421,59,42,1HKX
I,4,324.97795823307297,195,102,1HKX
L,4,319.7828737691032,159,74,1HKX
K,4,324.81756288558586,193,100,1HKX
J,5,405.5688183335968,193,100,1HKX
C,5,399.82098209704833,199,102,1HKX
E,4,312.93023681424563,135,61,1HKX
F,4,328.0506156219717,195,104,1HKX
B,5,392.8659642469513,225,117,1HKX
N,4,319.63924110689084,164,80,1HKX
G,5,405.4804064245564,195,104,1HKX
H,5,386.724096407135,194,103,1HKX
A,5,394.4211157670884,216,112,1HKX
J,4,266.9801366038593,279,143,2V7Q
I,3,256.80077127429007,204,138,2V7Q
H,3,257.6291015414364,191,119,2V7Q
C,6,462.5619787762099,439,242,2V7Q
B,6,463.2913214254589,1387,509,2V7Q
D,7,519.4761417079932,2250,779,2V7Q
F,5,409.1156196508701,1098,428,2V7Q
G,8,649.9119909638105,976,505,2V7Q
E,6,458.86382672956427,899,423,2V7Q
A,4,334.0739368921766,549,334,2V7Q
C,5,436.7359524441494,309,152,1KB9
B,6,509.165260368608,371,194,1KB9
H,7,597.2801061779419,234,157,1KB9
D,7,587.4690266744756,426,220,1KB9
I,5,432.9450204995307,378,192,1KB9
F,10,862.7001274059817,621,332,1KB9
G,7,578.8555574612155,621,298,1KB9
K,9,742.7347320998672,322,197,1KB9
E,10,854.8873873301352,1072,526,1KB9
J,10,856.6445579808736,637,363,1KB9
A,6,526.7751504776626,343,199,1KB9
B,2,190.35188913485396,84,48,1BHC
H,2,189.4526181693789,48,34,1BHC
A,2,190.39696857606305,84,48,1BHC
S,3,254.2464794361067,149,91,5TRM
F,4,335.3269037152274,167,111,5TRM
J,4,335.3269037152274,167,111,5TRM
I,4,335.3269037152274,167,111,5TRM
K,3,246.8692962176258,108,79,5TRM
Q,4,323.7049625051658,170,114,5TRM
V,4,324.2539028014893,169,114,5TRM
W,4,326.0051242533655,169,114,5TRM
E,5,418.70650290431166,173,118,5TRM
M,5,409.2995857518592,173,119,5TRM
U,6,508.5149132311909,297,181,5TRM
C,6,508.4929588722134,298,182,5TRM
L,6,508.4929588722134,298,182,5TRM
B,6,508.4929588722134,298,182,5TRM
G,6,508.4929588722134,298,182,5TRM
D,6,508.5510359837885,297,182,5TRM
X,6,495.5500732392933,259,174,5TRM
H,6,496.09195438527706,301,186,5TRM
P,6,508.5994826246405,299,183,5TRM
T,6,499.6649281861448,301,186,5TRM
R,6,507.1649552990151,299,183,5TRM
O,6,507.1631685689307,298,183,5TRM
N,6,506.8060752161679,298,183,5TRM
A,6,506.979708997188,299,185,5TRM
B,2,143.3381676686322,40,31,5XPB
C,2,193.96053790242524,81,59,5XPB
I,2,142.98739062384743,40,31,5XPB
J,2,193.43197718073,78,58,5XPB
G,2,193.70274425914252,86,61,5XPB
E,2,193.43197718073,78,58,5XPB
H,2,193.75673302465896,87,62,5XPB
F,2,193.4513482970317,79,59,5XPB
D,2,193.7652313092474,79,59,5XPB
A,2,193.97763263537263,82,60,5XPB
B,2,179.73240936819357,447,191,7JZ2
C,4,353.4245924632572,628,307,7JZ2
D,6,499.3990324007799,767,335,7JZ2
L,5,431.72887180763246,192,133,7JZ2
G,8,564.8851082317161,502,262,7JZ2
F,9,775.9081718906677,1469,609,7JZ2
K,6,433.11513527170985,324,162,7JZ2
J,7,584.7659783236188,448,250,7JZ2
H,8,623.9368154118074,589,323,7JZ2
I,8,659.2434594338196,438,253,7JZ2
E,10,826.931574138741,1337,616,7JZ2
A,9,735.1177819279595,273,205,7JZ2
C,5,319.7448665953304,116,70,1L0L
J,8,573.1536784966873,473,247,1L0L
H,7,564.5683552558213,719,348,1L0L
K,9,504.8216940331189,487,275,1L0L
B,7,590.5873217640465,335,162,1L0L
D,6,427.2525972729045,568,211,1L0L
E,10,733.140933132542,1522,586,1L0L
F,9,729.9516505916383,1018,441,1L0L
I,8,522.5307459288389,318,203,1L0L
G,9,711.760656637169,718,403,1L0L
A,6,478.164802516187,1026,382,1L0L
E,3,280.61534274243115,553,271,1L6W
C,4,372.7997520196647,551,316,1L6W
B,4,371.7599428420101,471,291,1L6W
J,3,280.42529265913174,421,232,1L6W
H,4,370.9318526867852,505,303,1L6W
D,4,372.37020419785017,490,302,1L6W
G,4,372.7443243740208,522,303,1L6W
I,4,373.0847971911136,627,335,1L6W
F,3,277.26316816906865,305,212,1L6W
A,3,277.81210239674294,349,233,1L6W
W,1,89.61941762707474,104,67,1G0U
X,2,177.3244859825702,206,131,1G0U
N,5,429.27849905867066,627,267,1G0U
M,3,274.21476982334593,184,121,1G0U
L,6,522.1933061565762,809,345,1G0U
E,9,780.4029502157575,1188,483,1G0U
G,10,749.4531614751616,1406,578,1G0U
Q,11,889.4868441354554,2704,1008,1G0U
K,6,500.3605806180798,559,254,1G0U
D,4,352.49062067189493,567,222,1G0U
T,12,944.4505812910736,796,411,1G0U
a,8,696.7763113955443,659,329,1G0U
R,6,514.0702386219295,544,272,1G0U
H,13,1006.9602385457556,994,476,1G0U
O,8,713.9090504153057,1199,437,1G0U
F,12,1048.5379803416738,1287,534,1G0U
Y,11,984.4229522602568,1260,528,1G0U
b,8,690.1637952510663,628,326,1G0U
V,10,883.0833975152512,1990,738,1G0U
P,8,701.7363722290833,1621,600,1G0U
C,14,1238.05765847638,1782,709,1G0U
B,10,863.5347841395975,862,420,1G0U
S,9,762.8557559332272,1153,438,1G0U
Z,14,1210.524965994465,2054,755,1G0U
J,11,797.6356817800879,1098,477,1G0U
I,19,1501.6294704221125,3378,1285,1G0U
U,8,687.3205750199398,859,350,1G0U
A,12,1022.816523277274,1366,601,1G0U
K,1,91.63982916038309,415,122,6JCV
A,1,91.63982916038309,415,122,6JCV
C,2,169.73370270335695,331,177,6SSI
G,4,328.1874329893513,274,129,6SSI
B,3,243.55787429809297,293,216,6SSI
E,2,173.96312604181156,235,171,6SSI
A,3,256.0836107671108,299,225,6SSI
C,3,273.3708536560332,142,96,3TXQ
D,3,275.250432377606,257,159,3TXQ
E,4,362.6169997826135,273,170,3TXQ
B,4,365.9550147252152,246,167,3TXQ
I,4,363.03105342596575,243,166,3TXQ
H,4,365.69006154804816,259,168,3TXQ
F,4,366.8152708676468,241,168,3TXQ
G,4,363.44323359315615,280,169,3TXQ
J,3,272.7398202177764,141,94,3TXQ
A,3,278.98441146330345,270,159,3TXQ
M,6,535.9332285551546,1341,533,1VF7
E,7,629.3589446731368,1560,663,1VF7
C,6,539.2679396560603,1534,571,1VF7
F,7,625.9426280550108,1445,637,1VF7
L,7,629.1725328746201,1547,657,1VF7
B,7,628.7074684357761,1580,656,1VF7
D,6,537.9172860938668,1582,657,1VF7
I,6,531.6718887849029,1228,523,1VF7
K,6,545.4576328614584,774,350,1VF7
H,6,538.7138891130662,1272,507,1VF7
J,7,626.140886534883,1478,649,1VF7
G,7,628.830704637632,1489,652,1VF7
A,6,537.6356388172028,1450,617,1VF7
I,3,189.4188752438402,766,333,3BJQ
B,3,184.27938165584328,764,333,3BJQ
E,3,177.94295232874396,243,183,3BJQ
D,3,172.28536988730494,253,191,3BJQ
C,2,119.7749279928716,253,186,3BJQ
A,2,121.59406455172014,249,184,3BJQ
J,2,183.23401636003055,105,98,2YMD
G,2,183.23949752799533,106,97,2YMD
I,2,182.74739356763556,159,132,2YMD
E,2,183.1029480991153,159,131,2YMD
A,2,183.33933852085727,159,132,2YMD
I,2,183.53227770165245,242,145,3FP9
F,2,184.79275614487543,122,94,3FP9
B,2,185.4349000938369,125,97,3FP9
J,2,186.44418010480533,120,93,3FP9
K,2,186.1503281681134,112,86,3FP9
A,2,183.88056971392197,237,141,3FP9
N,3,196.98136133247752,222,147,1KP8
J,5,268.8101608002368,235,159,1KP8
L,5,275.2831434553467,232,177,1KP8
E,4,239.33909207150128,238,174,1KP8
D,5,275.339808974333,242,175,1KP8
K,4,239.3348658928436,237,173,1KP8
B,5,275.339808974333,242,175,1KP8
A,3,203.45011780892975,218,164,1KP8
I,2,193.740259252764,66,48,3ONR
F,2,193.71011917517032,65,48,3ONR
A,2,193.7180409004689,65,48,3ONR
E,3,227.45712757415677,406,114,2E6G
B,3,228.4484400511588,406,114,2E6G
J,3,227.83581474880185,207,85,2E6G
A,3,219.8364810880305,207,85,2E6G
F,2,149.66198114085074,77,63,4RSU
C,2,166.06150210278082,135,86,4RSU
K,4,321.50758406576466,398,203,4RSU
L,4,309.4820082973325,534,229,4RSU
J,4,315.0306482105988,439,220,4RSU
A,2,155.99154428547055,79,67,4RSU
K,2,183.3367086028735,31,31,1Q5Q
N,5,453.3097348671562,116,99,1Q5Q
J,3,278.02104724874323,160,102,1Q5Q
L,4,363.92633019561873,428,204,1Q5Q
M,4,368.4732915125337,576,248,1Q5Q
H,5,457.8779175853343,496,244,1Q5Q
I,6,556.4968927844718,627,291,1Q5Q
D,8,589.7796001573402,263,182,1Q5Q
E,6,443.16520787758685,834,372,1Q5Q
G,9,726.9540972255908,819,405,1Q5Q
C,7,532.8362720806767,674,315,1Q5Q
F,8,599.9905915084242,266,185,1Q5Q
B,8,532.4261425291022,185,112,1Q5Q
A,7,505.017217461431,591,254,1Q5Q
G,0,0.0,0,0,1H2I
D,5,373.40143175812057,489,266,1H2I
B,7,491.7229290329565,671,395,1H2I
F,6,499.3699210972928,1034,464,1H2I
C,8,595.376346076495,895,450,1H2I
I,7,609.478502973025,1348,595,1H2I
K,7,574.3364575475342,1023,431,1H2I
J,6,557.0980424140016,933,419,1H2I
E,6,528.0578051882574,1136,470,1H2I
H,6,436.459984699715,823,350,1H2I
A,4,268.7081718151666,304,162,1H2I
J,1,93.10622044700912,85,29,3VG8
A,1,93.10622044700912,85,29,3VG8
L,1,68.82722660553938,49,27,4RAP
A,1,68.82722660553937,49,27,4RAP
D,3,258.4024480914078,96,42,1VDM
F,3,260.9361323155859,101,43,1VDM
C,3,257.7160224828034,100,44,1VDM
A,3,260.6777611366786,105,45,1VDM
C,1,74.85417070138533,33,20,5JQL
D,1,74.85417070138533,33,20,5JQL
J,3,193.3003294016126,210,112,5JQL
H,4,249.4131254120764,194,120,5JQL
I,4,281.3134791645482,246,125,5JQL
F,3,238.2549460750194,292,173,5JQL
L,4,275.4097528543523,318,148,5JQL
B,4,309.15333723193004,454,237,5JQL
G,4,263.0633425538846,218,116,5JQL
K,5,332.0209660342287,419,186,5JQL
A,5,369.3911493760454,285,189,5JQL
O,3,179.09905889321547,556,205,1YKK
N,3,173.09925455496386,419,197,1YKK
M,3,207.0639019540287,893,366,1YKK
E,4,307.87338853875684,1138,448,1YKK
P,4,319.8983110422388,822,399,1YKK
Q,3,177.3099669667034,469,210,1YKK
R,3,204.416521871393,747,304,1YKK
H,4,308.55273294129927,1208,455,1YKK
U,3,192.7636079089568,624,262,1YKK
V,4,329.873629939908,818,400,1YKK
T,3,177.37729054368862,469,210,1YKK
S,4,295.71186096091924,838,340,1YKK
W,3,192.610486682808,624,264,1YKK
X,4,329.8940865773574,821,400,1YKK
A,4,308.5279290783465,1214,456,1YKK
E,2,164.7753125410963,170,122,3KIF
D,2,166.06194660764965,159,120,3KIF
A,2,166.04082580675657,163,122,3KIF
E,2,153.3144559857124,284,113,5UK3
C,4,286.57631697440127,430,196,5UK3
D,7,383.0841750299292,421,178,5UK3
J,2,154.97469850830345,259,101,5UK3
B,6,347.1012354880959,458,183,5UK3
F,5,330.2523297201918,436,196,5UK3
I,7,405.59207437639657,468,215,5UK3
G,6,369.3341586114062,494,203,5UK3
H,5,327.18070729280697,468,216,5UK3
A,6,366.3674324603897,504,213,5UK3
B,4,382.0335721306017,125,60,2WCV
J,4,383.3210837792523,230,79,2WCV
D,4,379.6708831912941,144,74,2WCV
H,4,382.8990654056109,229,78,2WCV
F,4,382.03605681594377,116,56,2WCV
C,4,379.4024672011019,136,72,2WCV
I,4,379.084026314233,136,70,2WCV
E,4,380.156982991635,140,72,2WCV
G,4,379.77396769120105,140,73,2WCV
A,4,380.46229389564144,136,72,2WCV
C,3,258.64240822026136,696,231,3U6X
I,3,262.2438791139483,693,231,3U6X
F,4,313.8760556619961,712,232,3U6X
D,8,641.0187226921232,864,358,3U6X
E,8,653.1520748625712,1030,342,3U6X
B,7,565.383514661533,1059,380,3U6X
J,10,783.1772217178953,405,205,3U6X
L,9,595.6119960778386,590,257,3U6X
K,8,574.0605776188202,196,104,3U6X
H,8,654.1224893692782,1266,395,3U6X
G,8,650.495328648252,1058,359,3U6X
A,8,640.6852078919478,1205,374,3U6X
C,2,188.9520174662436,113,95,1RVV
Z,2,189.2690665924034,182,128,1RVV
G,2,189.2690665924034,182,128,1RVV
R,2,188.01255125290996,179,129,1RVV
A,2,187.6955021267501,110,96,1RVV
C,1,89.41771897399009,79,66,4JPN
F,2,179.040309641366,155,132,4JPN
E,2,177.847790756759,156,135,4JPN
I,2,176.41350035909466,162,138,4JPN
J,2,177.60601924370167,161,135,4JPN
G,2,178.8354379479802,158,132,4JPN
H,1,88.21628447238842,76,66,4JPN
D,2,179.21171379182942,160,132,4JPN
B,2,175.89130852909744,156,137,4JPN
A,2,177.4690188745483,161,137,4JPN
I,3,266.88970153719555,428,190,1F1H
B,3,269.04460723433084,460,207,1F1H
D,4,358.7899789219788,688,339,1F1H
C,4,357.1187197624428,554,283,1F1H
E,4,356.897757404444,469,250,1F1H
F,4,358.858179023584,570,293,1F1H
J,4,356.9710835681672,562,288,1F1H
K,4,356.3130146978664,463,250,1F1H
G,4,361.05951080169353,614,320,1F1H
L,3,269.0276530167739,472,214,1F1H
H,4,358.0961858895778,558,288,1F1H
A,3,270.4232839204539,354,164,1F1H
D,3,249.76574218349924,384,200,3TOS
B,3,244.61224274951516,207,146,3TOS
F,3,250.32648088325283,338,169,3TOS
C,4,339.13688398105893,380,207,3TOS
J,4,339.0396567385104,464,245,3TOS
I,4,335.6246908058896,412,225,3TOS
E,4,337.9090541538864,357,168,3TOS
H,4,339.1161671526175,424,227,3TOS
G,3,260.80940752761506,561,261,3TOS
A,4,339.30251887932945,431,232,3TOS
O,2,132.34714804491276,1194,310,5NFR
C,2,134.17627347290042,1270,323,5NFR
A,2,130.38388335587814,1114,293,5NFR
I,2,180.22877118137276,212,127,7AJP
G,2,179.8743573583554,200,124,7AJP
A,2,180.2311243479681,212,127,7AJP
C,1,84.66089757464208,25,24,6SQR
K,5,427.69934728003466,197,93,6SQR
F,4,352.9611794270645,274,137,6SQR
B,5,404.6456312228657,305,147,6SQR
H,4,348.98978585422026,152,91,6SQR
I,5,443.9746021815791,317,122,6SQR
G,9,788.4011136864588,596,262,6SQR
L,7,624.8951643059993,388,155,6SQR
J,7,599.2188638936502,232,135,6SQR
E,3,269.0210627184408,78,69,6SQR
D,8,697.8294233905888,393,193,6SQR
A,8,706.1320598123216,379,160,6SQR
G,4,346.1243187403518,375,144,1X9F
H,4,343.04021606325006,313,142,1X9F
E,6,495.7533737016559,600,230,1X9F
I,6,544.8199667276829,466,232,1X9F
L,8,724.8413124969408,594,296,1X9F
J,4,330.3351312566474,164,102,1X9F
K,5,453.7147758919273,141,94,1X9F
F,7,624.7884995633291,696,294,1X9F
D,5,429.8115210271416,545,243,1X9F
B,9,799.2191811360783,1375,502,1X9F
C,6,515.0223758556695,374,189,1X9F
A,10,836.3533025466096,727,298,1X9F
O,5,408.5294201315414,302,180,1IWA
F,6,508.12375795189496,1002,342,1IWA
N,5,407.8783647457564,201,154,1IWA
P,7,533.6688731137237,374,240,1IWA
I,7,530.0691094139953,359,233,1IWA
D,8,654.3469291982018,1004,341,1IWA
B,8,653.4923278383933,652,298,1IWA
H,8,670.8499895095903,814,384,1IWA
J,6,462.7732297550813,210,174,1IWA
M,6,467.7560492840746,428,252,1IWA
L,6,471.3164354775258,456,262,1IWA
K,5,356.9696445457738,266,156,1IWA
G,8,649.4837870769588,458,268,1IWA
E,8,678.3991878031688,785,370,1IWA
C,7,570.5405295504397,770,341,1IWA
A,8,650.3095360126237,403,287,1IWA
J,4,357.5031689693013,322,133,2C41
G,4,363.21030704045273,374,144,2C41
I,4,330.53237033782085,95,70,2C41
B,4,345.36413592037354,172,89,2C41
K,5,438.7776936195065,142,90,2C41
L,4,368.3157087275426,358,138,2C41
H,5,434.3718716807008,143,87,2C41
E,4,341.6303799238473,159,85,2C41
A,4,334.2279542896357,311,124,2C41
M,3,281.3576448966772,120,83,3JVO
L,3,284.3421147953322,176,109,3JVO
K,3,280.15488901195505,125,83,3JVO
E,3,284.3176812118368,182,109,3JVO
D,4,378.7086961091393,176,113,3JVO
I,4,378.06515738881865,176,113,3JVO
F,4,378.6482587162516,178,113,3JVO
C,4,377.49962259418976,175,113,3JVO
H,4,378.08381719363547,183,114,3JVO
J,4,378.9847149906975,177,114,3JVO
G,4,378.2145872781024,178,115,3JVO
B,4,378.0943477311233,175,113,3JVO
A,4,379.0435489105666,183,114,3JVO
M,17,983.353820942366,1363,635,6LQH
O,17,1021.279263520323,1752,788,6LQH
L,17,1112.806684919215,1774,788,6LQH
N,16,947.943076143208,1542,717,6LQH
R,17,999.8388335167286,1845,783,6LQH
I,17,1264.20483994112,2506,1162,6LQH
G,17,1135.5996373310643,2198,946,6LQH
E,17,1101.459116570594,2754,1168,6LQH
H,17,1073.986700350773,1881,852,6LQH
J,17,1171.9834839501696,1864,823,6LQH
P,17,1051.2280313131882,1560,684,6LQH
F,15,1049.442969099594,1127,611,6LQH
D,17,1173.6915316078482,2783,1264,6LQH
B,17,1155.6262824670098,1958,985,6LQH
C,17,1089.808205326754,2837,1262,6LQH
Q,16,912.2264014230116,1910,797,6LQH
K,17,1150.4781382177714,2052,987,6LQH
A,17,1219.326484380881,2978,1248,6LQH
K,1,64.73343429599183,208,116,4C2M
L,4,302.44693806144227,456,229,4C2M
M,4,261.9611550653068,472,257,4C2M
H,4,238.3483705667176,1993,632,4C2M
G,4,288.38599500364825,3738,1272,4C2M
N,4,290.0644043503009,227,144,4C2M
B,8,576.3340943249782,2234,932,4C2M
E,7,462.5404078053615,927,456,4C2M
C,8,475.2703925357122,1232,599,4C2M
D,7,402.1754959567909,972,500,4C2M
I,9,679.556201663998,4168,1517,4C2M
F,11,761.7308925312303,5581,2371,4C2M
J,9,646.2228081943696,1261,544,4C2M
O,9,654.7661653032416,3448,1505,4C2M
A,3,234.4171301683249,135,98,4C2M
C,2,186.6165611187663,69,34,2FKD
G,5,452.8057727380078,154,95,2FKD
M,3,275.40969707429525,92,68,2FKD
F,4,365.7544596235825,85,49,2FKD
D,3,265.7617994125592,79,40,2FKD
E,4,368.1740228412329,155,91,2FKD
H,4,361.368704948081,357,135,2FKD
I,5,441.3158301298216,159,96,2FKD
N,4,349.70043395665385,327,136,2FKD
K,5,429.723761158488,120,91,2FKD
B,5,457.7226373675827,154,95,2FKD
J,4,359.21913824225334,157,96,2FKD
L,4,361.7616805690275,122,72,2FKD
A,4,350.41842224489847,120,92,2FKD
D,2,189.162601998064,276,63,3DTD
H,2,189.162601998064,276,63,3DTD
B,2,185.515786430359,120,40,3DTD
C,2,188.2680694081104,107,34,3DTD
J,2,187.2797989137287,102,37,3DTD
A,2,190.03208189148015,89,31,3DTD
J,2,155.12803771750913,194,83,6OVH
E,2,141.83285326331384,2,4,6OVH
A,2,153.3424608160676,194,83,6OVH
G,1,85.57792505317404,78,67,6YBQ
J,1,85.02518898407435,91,79,6YBQ
L,1,86.03355105027957,83,69,6YBQ
D,3,254.07880478132648,496,284,6YBQ
B,3,254.1521520065509,458,275,6YBQ
A,3,257.0003157465534,614,318,6YBQ
K,3,241.3274101967972,414,230,6UIW
D,3,239.7694121802648,325,230,6UIW
J,2,158.57121658924044,324,228,6UIW
C,3,238.65403448274725,386,218,6UIW
H,2,158.57121658924044,324,228,6UIW
B,2,158.57121658924044,324,228,6UIW
F,3,235.8754473718566,304,232,6UIW
E,2,159.34096980283954,354,235,6UIW
A,2,156.84917076037112,339,233,6UIW
B,3,279.67559174218025,103,46,1N8J
F,3,282.89647589945804,257,94,1N8J
H,4,374.4816178549679,264,103,1N8J
J,3,280.1236798110638,107,48,1N8J
I,3,284.49599001177074,253,88,1N8J
G,4,376.5042992587147,267,98,1N8J
E,4,376.9172423899665,263,98,1N8J
C,4,375.78958709521,377,127,1N8J
D,4,376.83866288574177,266,98,1N8J
A,4,375.0411443758304,377,128,1N8J
H,2,174.29452561503024,44,30,6N3P
K,4,362.07659905965727,121,68,6N3P
G,3,274.04470346432424,212,103,6N3P
J,4,348.5630570673791,146,65,6N3P
E,3,236.3025499008901,312,93,6N3P
B,5,475.5287743404219,336,113,6N3P
F,5,421.56272036168616,288,116,6N3P
I,4,368.46190352082766,272,126,6N3P
L,4,359.5118737027929,206,96,6N3P
D,5,471.9935361962656,275,133,6N3P
C,9,827.1494869539385,418,207,6N3P
A,6,561.2440459217174,428,188,6N3P
F,3,267.6081641255463,302,147,3ZQM
E,4,374.3140801259733,294,156,3ZQM
H,3,273.8284008899462,266,145,3ZQM
J,3,286.68964587804373,183,112,3ZQM
B,3,288.18330680468506,152,92,3ZQM
D,7,648.4716943318339,438,229,3ZQM
G,4,374.1771779696109,320,157,3ZQM
C,2,191.5416872291992,161,90,3ZQM
I,2,189.89855938575408,184,104,3ZQM
A,3,288.0145045680772,160,100,3ZQM
E,2,193.9803482659046,146,69,4F4S
J,2,193.8250102693977,294,130,4F4S
I,2,193.7755224114047,300,130,4F4S
D,2,193.8434238764715,150,69,4F4S
G,2,193.81598891606265,305,132,4F4S
B,2,193.6494884843423,296,130,4F4S
F,2,193.6573813170505,297,130,4F4S
H,2,193.6573813170505,297,130,4F4S
C,2,193.79299355828303,296,130,4F4S
A,2,193.8720574585633,303,132,4F4S
E,2,156.39133823021524,435,164,3BFJ
H,4,300.9370250374752,703,217,3BFJ
I,4,277.1033829686014,447,179,3BFJ
G,2,156.92564031044276,432,163,3BFJ
D,3,215.96647163941503,437,167,3BFJ
C,5,366.4227368781999,1394,423,3BFJ
B,5,346.422645704666,448,181,3BFJ
F,2,155.31944387690316,425,161,3BFJ
J,5,384.0868918691264,706,227,3BFJ
A,4,321.7522060891157,857,324,3BFJ
F,2,165.45083954645418,15,22,1NGK
J,2,162.68845546835,11,17,1NGK
A,2,159.4964102000099,18,25,1NGK
D,2,168.01630511528947,8,11,3HHW
G,7,606.2403412593671,319,162,3HHW
I,5,334.3161492632132,119,97,3HHW
F,5,377.3463358511377,160,116,3HHW
L,5,396.2363966424704,418,242,3HHW
J,6,509.2211713463139,451,221,3HHW
K,9,735.4176386561539,1279,488,3HHW
S,12,975.1486324503896,2154,785,3HHW
O,9,700.4599218581352,993,498,3HHW
B,10,751.156551884751,476,248,3HHW
C,8,631.1028099892266,482,238,3HHW
M,12,982.4268820767036,1809,782,3HHW
N,8,575.9331169341623,416,277,3HHW
P,12,980.6172673553962,796,433,3HHW
H,9,732.5790290917545,624,279,3HHW
Q,5,413.5122162578622,380,240,3HHW
E,6,484.1574107322953,394,198,3HHW
T,15,1180.2608344311986,2270,991,3HHW
R,11,919.5292923145688,1590,723,3HHW
A,10,790.8171617510568,534,295,3HHW
G,2,131.7333675699629,2,4,1NLX
B,2,130.70423177101745,2,4,1NLX
A,2,130.61839911742663,2,4,1NLX
F,5,437.3382876489938,227,139,1A8R
J,5,440.6986260227344,240,139,1A8R
D,5,439.98562493482086,308,176,1A8R
I,5,436.7835475975663,224,134,1A8R
C,5,439.7877341551026,244,142,1A8R
G,5,438.6032880795385,305,175,1A8R
H,5,438.5312319596133,300,173,1A8R
B,5,440.0592019456356,301,176,1A8R
E,5,439.0978716611654,303,177,1A8R
A,5,438.1316420724332,304,175,1A8R
K,3,230.26396968139773,38,37,4RDQ
L,2,161.23636992309068,68,58,4RDQ
G,6,512.8043499741166,1281,482,4RDQ
J,8,698.1484154680356,882,357,4RDQ
O,6,498.49961293588746,813,312,4RDQ
N,4,342.6760414575159,200,115,4RDQ
F,8,703.2096376114981,1581,547,4RDQ
I,5,407.5368756408303,521,231,4RDQ
H,5,420.7524707337297,594,258,4RDQ
M,7,578.1676371932917,1783,648,4RDQ
B,9,758.332802870156,1489,788,4RDQ
D,8,680.7525041477144,1194,631,4RDQ
C,6,486.2017689623189,1036,562,4RDQ
E,4,329.408479801613,1060,544,4RDQ
A,5,417.53068848453535,918,544,4RDQ
O,4,337.91634438829885,211,160,6Z1F
E,5,381.9777417068103,700,331,6Z1F
U,6,488.36397167606776,406,206,6Z1F
Q,5,417.3592378601471,204,146,6Z1F
C,4,315.9320571253512,767,400,6Z1F
L,7,599.057753168333,730,319,6Z1F
G,9,673.3871006328918,962,460,6Z1F
N,7,594.505499359346,750,354,6Z1F
T,4,329.7425581869154,218,158,6Z1F
S,5,411.89284161526615,243,178,6Z1F
M,7,586.2836345857864,789,377,6Z1F
J,9,692.8118313971839,734,424,6Z1F
P,5,412.8668363706956,242,172,6Z1F
I,7,572.4494471849164,714,338,6Z1F
K,7,577.5551871177195,788,370,6Z1F
H,6,472.6064507214368,635,305,6Z1F
B,6,424.4654758447657,465,283,6Z1F
A,5,356.49659242139705,546,367,6Z1F
B,4,207.9376533364051,142,100,6S5L
D,6,367.4633019780576,528,242,6S5L
F,5,329.4582801122332,315,146,6S5L
G,6,385.1381755995608,318,153,6S5L
E,7,454.05865797290176,544,235,6S5L
K,8,539.2760438490878,1138,448,6S5L
J,8,511.1712197165599,653,284,6S5L
I,8,542.5730562942839,670,291,6S5L
H,7,443.9520836678974,959,357,6S5L
L,9,565.4642518709312,675,302,6S5L
C,10,644.675488324121,1043,409,6S5L
A,10,642.6969488600856,925,361,6S5L
F,2,146.7947694966012,197,161,6WBN
K,2,143.38328871518829,280,240,6WBN
M,2,141.16342043868872,261,230,6WBN
J,2,139.8390182953404,241,217,6WBN
E,2,148.01489106271038,196,156,6WBN
L,2,145.82353184740666,278,230,6WBN
A,2,143.27900813794918,259,222,6WBN
B,9,371.33484171314353,1043,672,7NRQ
H,9,386.8251402259557,1405,786,7NRQ
J,9,381.8938068306052,1674,922,7NRQ
G,9,370.0859998993499,1201,773,7NRQ
I,9,389.95872049981546,1129,601,7NRQ
E,9,384.0111018383185,1352,852,7NRQ
D,9,366.0884885295604,1404,787,7NRQ
F,9,380.02151377754456,1679,939,7NRQ
C,9,377.6597385217291,1270,801,7NRQ
A,9,378.7605162509512,1571,889,7NRQ
D,2,172.17456165539016,37,30,1TR0
B,3,256.00311454914845,59,52,1TR0
K,4,338.1169459037244,217,104,1TR0
G,4,341.3445124076622,163,93,1TR0
C,3,256.6915772746976,63,57,1TR0
J,6,503.5148344073064,251,130,1TR0
E,3,256.17055127093323,60,53,1TR0
L,6,502.96966610445867,256,133,1TR0
I,5,419.1556341814109,243,126,1TR0
F,6,501.1853022655477,255,132,1TR0
H,3,253.9365415040917,126,64,1TR0
A,3,255.5110791075048,212,100,1TR0
I,3,253.08966176677075,107,72,1Q95
J,4,346.005128112983,72,55,1Q95
L,4,319.44584986146504,360,146,1Q95
D,9,770.7618134113786,957,428,1Q95
K,3,229.45788778916108,63,50,1Q95
H,5,410.04343908000567,194,121,1Q95
G,5,426.7691613957388,300,125,1Q95
F,5,430.2303263586717,471,241,1Q95
B,7,609.5367509248046,657,308,1Q95
A,5,435.3871010144788,353,232,1Q95
B,8,376.12271992628143,1036,377,3LAY
E,8,292.59083680996736,753,333,3LAY
H,8,372.8853374672899,1173,425,3LAY
C,8,318.13958607265755,893,362,3LAY
G,8,340.6928043825702,408,240,3LAY
D,8,353.9258278333888,1124,413,3LAY
I,8,330.86135693809405,888,360,3LAY
J,8,310.1465359122884,581,261,3LAY
A,8,309.22555893922845,872,369,3LAY
J,3,205.66208253516612,126,82,1QAW
H,3,216.83476338106072,177,110,1QAW
I,3,209.50646146333025,123,82,1QAW
G,3,218.4590887097309,174,110,1QAW
B,3,217.00788489726253,179,110,1QAW
D,3,215.6997322112358,182,110,1QAW
F,4,267.9979682560124,178,111,1QAW
E,3,218.4454608158711,174,110,1QAW
C,3,219.89410697428488,180,109,1QAW
K,3,217.1509360237041,177,110,1QAW
A,3,219.08830440864665,170,110,1QAW
D,4,188.36988267721443,261,157,1IJG
H,4,203.1677358095941,472,236,1IJG
L,4,222.64483374973207,747,403,1IJG
F,5,272.3528070328261,663,383,1IJG
G,6,323.43949854032763,924,503,1IJG
E,5,277.69306585699246,797,446,1IJG
I,6,316.6185782172169,1193,553,1IJG
C,6,313.0347383464154,1297,582,1IJG
K,5,267.74487140802813,1231,553,1IJG
B,5,262.0379653645361,1130,488,1IJG
J,5,269.41722077797783,870,454,1IJG
A,3,164.29278809706705,375,250,1IJG
H,2,132.26524233603095,5,4,5LK5
C,2,132.49376334812132,4,4,5LK5
A,2,131.93384099852256,5,4,5LK5
D,4,370.4186233055045,418,269,6QSU
C,4,369.7966481100059,378,267,6QSU
U,4,359.28951906988766,684,462,6QSU
M,4,360.5970462199189,881,525,6QSU
X,4,361.4611693622781,869,521,6QSU
A,4,367.9916542394043,572,328,6QSU
K,2,158.67741335457265,115,90,6MRT
I,2,153.60228030378482,220,166,6MRT
H,2,153.60228030378482,220,166,6MRT
G,2,149.41984489151366,221,168,6MRT
A,2,154.4949779423015,116,92,6MRT
V,4,341.6029684639261,133,78,1KYO
S,6,532.9558854299556,467,185,1KYO
Q,7,656.6300992555598,624,273,1KYO
J,14,1133.112560898003,726,325,1KYO
I,6,410.5548935527595,275,135,1KYO
M,11,790.8710033613543,420,223,1KYO
B,8,703.9650892403023,1245,480,1KYO
R,7,632.452073502864,726,327,1KYO
P,10,775.4623646088877,675,284,1KYO
O,10,746.6523458220191,580,273,1KYO
N,5,421.07513617008885,244,110,1KYO
E,17,1414.8724981842497,2140,871,1KYO
G,16,1287.6339464920804,1363,592,1KYO
F,20,1711.0259480121244,2387,960,1KYO
D,11,905.8372561023394,1738,668,1KYO
H,14,1164.534879231635,1272,603,1KYO
U,13,1061.4942785667474,1258,537,1KYO
W,15,1273.867706508142,973,493,1KYO
C,13,1065.1830972284918,1434,577,1KYO
T,14,1185.705957891228,1714,781,1KYO
L,16,1073.5564877263528,702,353,1KYO
K,17,1318.9263949907722,915,496,1KYO
A,14,1198.106218256294,1675,708,1KYO
E,4,381.7383217359395,374,149,3ZNU
G,4,382.9324317074344,167,90,3ZNU
I,5,479.5869252287908,291,134,3ZNU
H,4,382.5264222120073,141,74,3ZNU
F,4,382.2893614842832,360,149,3ZNU
B,4,383.4993370363488,159,85,3ZNU
J,4,383.6760795442253,150,78,3ZNU
C,4,383.2997615992014,164,88,3ZNU
D,4,383.9477101612787,141,75,3ZNU
A,5,480.4176513866437,309,136,3ZNU
H,5,472.3262906659862,568,214,1DW9
C,5,468.34926014168025,548,240,1DW9
F,5,471.4031678696835,647,258,1DW9
B,5,467.6482974874159,411,188,1DW9
G,5,471.38227813932775,343,164,1DW9
D,5,468.6364420122654,372,166,1DW9
E,5,470.8376860299373,384,180,1DW9
I,5,469.13794871029154,355,173,1DW9
J,5,467.3879733932805,365,168,1DW9
A,5,469.24272834852286,423,201,1DW9
L,3,276.6374637564233,530,184,1IRU
E,4,369.6504695093814,586,211,1IRU
G,7,645.6078643617315,1142,429,1IRU
H,10,865.9010772914864,1384,527,1IRU
S,6,538.8320304362882,1061,399,1IRU
U,10,837.5633945960714,759,361,1IRU
B,9,713.4070002038574,884,395,1IRU
W,8,707.0598973906036,1087,446,1IRU
V,9,777.9897022915729,823,345,1IRU
T,7,612.5670838361818,549,292,1IRU
O,10,865.0284101125407,1190,518,1IRU
R,9,770.200262691392,1115,471,1IRU
F,7,612.2367507723721,1028,393,1IRU
b,16,1345.1279603342798,2018,840,1IRU
Q,11,929.0705716875242,893,435,1IRU
M,6,549.7704636794417,564,274,1IRU
K,18,1424.9219192495752,2802,1067,1IRU
X,7,634.8948600275794,757,287,1IRU
D,8,701.6128395001789,472,280,1IRU
J,11,892.4687460524933,1419,600,1IRU
I,8,630.179049082566,894,345,1IRU
Z,8,688.9139382984605,954,435,1IRU
Y,10,831.4377911833169,1037,439,1IRU
C,8,669.564421219498,1343,454,1IRU
a,9,790.3812554018666,780,369,1IRU
P,6,548.3892663583091,612,259,1IRU
N,7,616.4818955121561,909,374,1IRU
A,10,869.0246333468502,1264,495,1IRU
I,2,189.11286213808413,97,60,1D0I
F,2,188.904486333466,98,60,1D0I
A,2,189.07902954927945,97,60,1D0I
E,4,359.09885410275734,670,232,6QLV
H,5,456.07803250741006,734,257,6QLV
J,7,579.3225015153099,577,246,6QLV
K,5,449.9807802061587,845,331,6QLV
F,6,561.6935124452909,381,179,6QLV
D,4,326.5035433844363,525,200,6QLV
B,5,445.3898326623627,271,149,6QLV
G,5,433.8637085444464,584,213,6QLV
L,4,367.23465853397806,844,317,6QLV
C,4,356.0547392733217,221,120,6QLV
A,5,445.5255430752343,504,214,6QLV
J,2,147.08533883493098,66,54,5F2Q
C,2,145.32563303328303,50,46,5F2Q
A,2,146.89273551745757,66,54,5F2Q
E,3,219.67810852330115,511,175,5B04
F,4,276.6310586219982,1043,361,5B04
D,4,308.7972094892187,244,182,5B04
J,5,382.2583128537273,539,246,5B04
C,8,613.0043347213511,897,451,5B04
I,6,482.1387290061892,1929,652,5B04
H,8,610.0496363619582,1055,565,5B04
G,5,365.0728816809506,450,262,5B04
B,5,383.7745759078934,579,308,5B04
A,6,464.7345416639004,267,156,5B04
J,2,183.00660458684516,154,103,3ZIA
I,2,178.9674128865939,144,97,3ZIA
F,2,171.0430905741725,966,323,3ZIA
D,7,541.1735438966441,1117,352,3ZIA
B,6,455.2166992372802,533,362,3ZIA
C,6,445.6016729165701,1133,447,3ZIA
E,5,399.2504243142007,1370,500,3ZIA
H,8,658.8497874927948,754,385,3ZIA
G,6,493.2986120896269,1269,595,3ZIA
A,6,418.7509972328609,368,232,3ZIA
D,4,324.5017335500516,220,127,6Z16
N,3,251.17278881475409,182,91,6Z16
J,5,412.41692990481823,299,165,6Z16
C,4,334.27572172087014,357,185,6Z16
M,4,351.42826508670714,247,155,6Z16
I,7,582.8905088715723,486,255,6Z16
K,7,569.5517950254532,450,240,6Z16
L,5,388.378534219422,460,267,6Z16
B,12,954.4012119061226,2464,961,6Z16
F,7,558.8306021609674,628,317,6Z16
E,7,574.7087942089634,778,470,6Z16
H,8,655.3869813749308,1009,530,6Z16
G,6,511.928364544064,613,430,6Z16
A,9,719.5837513081927,2419,947,6Z16
C,3,265.74496290780974,481,131,5BSE
D,3,265.74496290780974,481,131,5BSE
I,3,264.30706953596706,517,146,5BSE
F,3,264.30706953596706,517,146,5BSE
E,4,348.25993892772163,561,171,5BSE
J,4,344.5349545764686,551,171,5BSE
H,4,345.08646990620923,561,171,5BSE
G,4,344.5300229939299,554,171,5BSE
B,4,347.2695769002444,561,171,5BSE
A,4,332.62048334488645,558,171,5BSE
I,1,59.62763519946201,8,8,4K2J
D,3,156.6960688686835,32,22,4K2J
C,3,207.01232419932137,107,58,4K2J
E,5,315.76272723631456,127,67,4K2J
F,4,206.69612995326216,110,56,4K2J
H,3,148.61572181823647,101,48,4K2J
J,5,294.7405572418048,149,83,4K2J
G,4,213.23451617847223,157,80,4K2J
B,4,210.0089582541898,143,77,4K2J
A,4,204.7760186453844,116,55,4K2J
Q,4,347.4272074212647,216,133,1IS7
S,4,311.6104873149311,419,189,1IS7
L,5,460.4008309425368,242,135,1IS7
M,4,374.1713516857009,173,112,1IS7
K,5,452.502496063693,263,130,1IS7
P,6,514.2635835237731,210,129,1IS7
D,6,513.4385149566651,556,211,1IS7
I,9,789.7514213605276,900,427,1IS7
B,8,694.5077684686049,359,228,1IS7
G,9,708.4737982992642,1008,377,1IS7
T,8,713.342811143972,422,258,1IS7
J,10,846.7511337120073,1387,528,1IS7
C,8,684.5339653457503,558,278,1IS7
O,6,503.551936621906,299,162,1IS7
R,4,372.40785270785534,163,111,1IS7
N,5,464.14694860884254,218,124,1IS7
F,12,1046.0513998508402,955,468,1IS7
E,12,1010.379686933205,1157,448,1IS7
H,8,687.2908750181602,620,286,1IS7
A,11,971.0383874996468,597,278,1IS7
