Useq,Sequence,Chain
1,MKPISIIGVPMDLGQTRRGVDMGPSAMRYAGVIERLERLHYDIEDLGDIPIGKAERLHEQGDSRLRNLKAVAEANEKLAAAVDQVVQRGRFPLVLGGDHSIAIGTLAGVAKHYERLGVIWYDAHGDVNTAETSPSGNIHGMPLAASLGFGHPALTQIGGYSPKIKPEHVVLIGVRSLDEGEKKFIREKGIKIYTMHEVDRLGMTRVMEETIAYLKERTDGVHLSLDLDGLDPSDAPGVGTPVIGGLTYRESHLAMEMLAEAQIITSAEFVEVNPILDERNKTASVAVALMGSLFGEKLM,A
1,MKPISIIGVPMDLGQTRRGVDMGPSAMRYAGVIERLERLHYDIEDLGDIPIGKAERLHEQGDSRLRNLKAVAEANEKLAAAVDQVVQRGRFPLVLGGDHSIAIGTLAGVAKHYERLGVIWYDAHGDVNTAETSPSGNIHGMPLAASLGFGHPALTQIGGYSPKIKPEHVVLIGVRSLDEGEKKFIREKGIKIYTMHEVDRLGMTRVMEETIAYLKERTDGVHLSLDLDGLDPSDAPGVGTPVIGGLTYRESHLAMEMLAEAQIITSAEFVEVNPILDERNKTASVAVALMGSLFGEKLM,B
1,MKPISIIGVPMDLGQTRRGVDMGPSAMRYAGVIERLERLHYDIEDLGDIPIGKAERLHEQGDSRLRNLKAVAEANEKLAAAVDQVVQRGRFPLVLGGDHSIAIGTLAGVAKHYERLGVIWYDAHGDVNTAETSPSGNIHGMPLAASLGFGHPALTQIGGYSPKIKPEHVVLIGVRSLDEGEKKFIREKGIKIYTMHEVDRLGMTRVMEETIAYLKERTDGVHLSLDLDGLDPSDAPGVGTPVIGGLTYRESHLAMEMLAEAQIITSAEFVEVNPILDERNKTASVAVALMGSLFGEKLM,C
1,MKPISIIGVPMDLGQTRRGVDMGPSAMRYAGVIERLERLHYDIEDLGDIPIGKAERLHEQGDSRLRNLKAVAEANEKLAAAVDQVVQRGRFPLVLGGDHSIAIGTLAGVAKHYERLGVIWYDAHGDVNTAETSPSGNIHGMPLAASLGFGHPALTQIGGYSPKIKPEHVVLIGVRSLDEGEKKFIREKGIKIYTMHEVDRLGMTRVMEETIAYLKERTDGVHLSLDLDGLDPSDAPGVGTPVIGGLTYRESHLAMEMLAEAQIITSAEFVEVNPILDERNKTASVAVALMGSLFGEKLM,D
1,MKPISIIGVPMDLGQTRRGVDMGPSAMRYAGVIERLERLHYDIEDLGDIPIGKAERLHEQGDSRLRNLKAVAEANEKLAAAVDQVVQRGRFPLVLGGDHSIAIGTLAGVAKHYERLGVIWYDAHGDVNTAETSPSGNIHGMPLAASLGFGHPALTQIGGYSPKIKPEHVVLIGVRSLDEGEKKFIREKGIKIYTMHEVDRLGMTRVMEETIAYLKERTDGVHLSLDLDGLDPSDAPGVGTPVIGGLTYRESHLAMEMLAEAQIITSAEFVEVNPILDERNKTASVAVALMGSLFGEKLM,E
1,MKPISIIGVPMDLGQTRRGVDMGPSAMRYAGVIERLERLHYDIEDLGDIPIGKAERLHEQGDSRLRNLKAVAEANEKLAAAVDQVVQRGRFPLVLGGDHSIAIGTLAGVAKHYERLGVIWYDAHGDVNTAETSPSGNIHGMPLAASLGFGHPALTQIGGYSPKIKPEHVVLIGVRSLDEGEKKFIREKGIKIYTMHEVDRLGMTRVMEETIAYLKERTDGVHLSLDLDGLDPSDAPGVGTPVIGGLTYRESHLAMEMLAEAQIITSAEFVEVNPILDERNKTASVAVALMGSLFGEKLM,F
