Useq,Sequence,Chain
1,QNVQHQLAQFQQLQQQAQAISVQKQTVEMQINETQKALEELSRAADDAEVYKSSGNILIRVAKDELTEELQEKLETLQLREKTIERQEERVMKKLQEMQVNIQEAMK,A
1,QNVQHQLAQFQQLQQQAQAISVQKQTVEMQINETQKALEELSRAADDAEVYKSSGNILIRVAKDELTEELQEKLETLQLREKTIERQEERVMKKLQEMQVNIQEAMK,B
2,NVQHQLAQFQQLQQQAQAISVQKQTVEMQINETQKALEELSRAADDAEVYKSSGNILIRVAKDELTEELQEKLETLQLREKTIERQEERVMKKLQEMQVNIQEAMKGAG,C
2,NVQHQLAQFQQLQQQAQAISVQKQTVEMQINETQKALEELSRAADDAEVYKSSGNILIRVAKDELTEELQEKLETLQLREKTIERQEERVMKKLQEMQVNIQEAMKGAG,D
3,AALAEIVAQLNIYQSQVELIQQQMEAVRATISELEILEKTLSDIQGKDGSETLVPVGAGSFIKAELKDTSEVIMSVGAGVAIKKNFEDAMESIKSQKNELESTLQKMGENLRAITDIMMKLSPQAEELLAAVA,E
3,AALAEIVAQLNIYQSQVELIQQQMEAVRATISELEILEKTLSDIQGKDGSETLVPVGAGSFIKAELKDTSEVIMSVGAGVAIKKNFEDAMESIKSQKNELESTLQKMGENLRAITDIMMKLSPQAEELLAAVA,F
