Useq,Sequence,Chain
1,MAKLGIHSNDTRDAWVNKIAQLNTLEKAAEMLKQFRMDHTTPFRNSYELDNDYLWIEAKLEEKVAVLKARAFNEVDFRHKTAFGEDAKSVLDGTVAKMNAAKDKWEAEKIHIGFRQAYKPPIMPVNYFLDGERQLGTRLMELRNLNYYDTPLEELRKQRGVRVVHLQSPH,A
1,MAKLGIHSNDTRDAWVNKIAQLNTLEKAAEMLKQFRMDHTTPFRNSYELDNDYLWIEAKLEEKVAVLKARAFNEVDFRHKTAFGEDAKSVLDGTVAKMNAAKDKWEAEKIHIGFRQAYKPPIMPVNYFLDGERQLGTRLMELRNLNYYDTPLEELRKQRGVRVVHLQSPH,B
1,MAKLGIHSNDTRDAWVNKIAQLNTLEKAAEMLKQFRMDHTTPFRNSYELDNDYLWIEAKLEEKVAVLKARAFNEVDFRHKTAFGEDAKSVLDGTVAKMNAAKDKWEAEKIHIGFRQAYKPPIMPVNYFLDGERQLGTRLMELRNLNYYDTPLEELRKQRGVRVVHLQSPH,C
1,MAKLGIHSNDTRDAWVNKIAQLNTLEKAAEMLKQFRMDHTTPFRNSYELDNDYLWIEAKLEEKVAVLKARAFNEVDFRHKTAFGEDAKSVLDGTVAKMNAAKDKWEAEKIHIGFRQAYKPPIMPVNYFLDGERQLGTRLMELRNLNYYDTPLEELRKQRGVRVVHLQSPH,D
1,MAKLGIHSNDTRDAWVNKIAQLNTLEKAAEMLKQFRMDHTTPFRNSYELDNDYLWIEAKLEEKVAVLKARAFNEVDFRHKTAFGEDAKSVLDGTVAKMNAAKDKWEAEKIHIGFRQAYKPPIMPVNYFLDGERQLGTRLMELRNLNYYDTPLEELRKQRGVRVVHLQSPH,E
1,MAKLGIHSNDTRDAWVNKIAQLNTLEKAAEMLKQFRMDHTTPFRNSYELDNDYLWIEAKLEEKVAVLKARAFNEVDFRHKTAFGEDAKSVLDGTVAKMNAAKDKWEAEKIHIGFRQAYKPPIMPVNYFLDGERQLGTRLMELRNLNYYDTPLEELRKQRGVRVVHLQSPH,F
