Stoichiometry,SeqID,PDB,Sequence
1,1,1g2c,LHLEGEVNKIKSALLSTNKAVVSLSNGVSVLTSKVLDLKNYIDKQLLPIVNK
1,2,1g2c,FYDPLVFPSDEFDASISQVNEKINQSLAFIRKSDELLHNVNAG
1,3,1g2c,LHLEGEVNKIKSALLSTNKAVVSLSNGVSVLTSKVLDLKNYIDKQLLPIVNK
1,4,1g2c,FYDPLVFPSDEFDASISQVNEKINQSLAFIRKSDELLHNVNAG
1,5,1g2c,LHLEGEVNKIKSALLSTNKAVVSLSNGVSVLTSKVLDLKNYIDKQLLPIVNK
1,6,1g2c,FYDPLVFPSDEFDASISQVNEKINQSLAFIRKSDELLHNVNAG
