Useq,Sequence,Chain
1,LHLEGEVNKIKSALLSTNKAVVSLSNGVSVLTSKVLDLKNYIDKQLLPIVNK,A
2,FYDPLVFPSDEFDASISQVNEKINQSLAFIRKSDELLHNVNAG,B
3,LHLEGEVNKIKSALLSTNKAVVSLSNGVSVLTSKVLDLKNYIDKQLLPIVNK,C
4,FYDPLVFPSDEFDASISQVNEKINQSLAFIRKSDELLHNVNAG,D
5,LHLEGEVNKIKSALLSTNKAVVSLSNGVSVLTSKVLDLKNYIDKQLLPIVNK,E
6,FYDPLVFPSDEFDASISQVNEKINQSLAFIRKSDELLHNVNAG,F
