Useq,Sequence,Chain
1,MKVLFLTANEFEDVELIYPYHRLKEEGHEVYIASFERGTITGKHGYSVKVDLTFDKVNPEEFDALVLPGGRAPERVRLNEKAVSIARKMFSEGKPVASICHGPQILISAGVLRGRKGTSYPGIKDDMINAGVEWVDAEVVVDGNWVSSRVPADLYAWMREFVKLLK,A
1,MKVLFLTANEFEDVELIYPYHRLKEEGHEVYIASFERGTITGKHGYSVKVDLTFDKVNPEEFDALVLPGGRAPERVRLNEKAVSIARKMFSEGKPVASICHGPQILISAGVLRGRKGTSYPGIKDDMINAGVEWVDAEVVVDGNWVSSRVPADLYAWMREFVKLLK,B
1,MKVLFLTANEFEDVELIYPYHRLKEEGHEVYIASFERGTITGKHGYSVKVDLTFDKVNPEEFDALVLPGGRAPERVRLNEKAVSIARKMFSEGKPVASICHGPQILISAGVLRGRKGTSYPGIKDDMINAGVEWVDAEVVVDGNWVSSRVPADLYAWMREFVKLLK,C
1,MKVLFLTANEFEDVELIYPYHRLKEEGHEVYIASFERGTITGKHGYSVKVDLTFDKVNPEEFDALVLPGGRAPERVRLNEKAVSIARKMFSEGKPVASICHGPQILISAGVLRGRKGTSYPGIKDDMINAGVEWVDAEVVVDGNWVSSRVPADLYAWMREFVKLLK,D
1,MKVLFLTANEFEDVELIYPYHRLKEEGHEVYIASFERGTITGKHGYSVKVDLTFDKVNPEEFDALVLPGGRAPERVRLNEKAVSIARKMFSEGKPVASICHGPQILISAGVLRGRKGTSYPGIKDDMINAGVEWVDAEVVVDGNWVSSRVPADLYAWMREFVKLLK,E
1,MKVLFLTANEFEDVELIYPYHRLKEEGHEVYIASFERGTITGKHGYSVKVDLTFDKVNPEEFDALVLPGGRAPERVRLNEKAVSIARKMFSEGKPVASICHGPQILISAGVLRGRKGTSYPGIKDDMINAGVEWVDAEVVVDGNWVSSRVPADLYAWMREFVKLLK,F
