Useq,Sequence,Chain
1,MTVAKAIFIKCGNLGTSMMMDMLLDERADREDVEFRVVGTSVKMDPECVEAAVEMALDIAEDFEPDFIVYGGPNPAAPGPSKAREMLADSEYPAVIIGDAPGLKVKDEMEEQGLGYILVKPDAMLGARREFLDPVEMAIYNADLMKVLAATGVFRVVQEAFDELIEKAKEDEISENDLPKLVIDRNTLLEREEFENPYAMVKAMAALEIAENVADVSVEGCFVEQDKERYVPIVASAHEMMRKAAELADEARELEKSNDAVLRTPHAPDGKVLSKRKFMEDPE,A
1,MTVAKAIFIKCGNLGTSMMMDMLLDERADREDVEFRVVGTSVKMDPECVEAAVEMALDIAEDFEPDFIVYGGPNPAAPGPSKAREMLADSEYPAVIIGDAPGLKVKDEMEEQGLGYILVKPDAMLGARREFLDPVEMAIYNADLMKVLAATGVFRVVQEAFDELIEKAKEDEISENDLPKLVIDRNTLLEREEFENPYAMVKAMAALEIAENVADVSVEGCFVEQDKERYVPIVASAHEMMRKAAELADEARELEKSNDAVLRTPHAPDGKVLSKRKFMEDPE,B
1,MTVAKAIFIKCGNLGTSMMMDMLLDERADREDVEFRVVGTSVKMDPECVEAAVEMALDIAEDFEPDFIVYGGPNPAAPGPSKAREMLADSEYPAVIIGDAPGLKVKDEMEEQGLGYILVKPDAMLGARREFLDPVEMAIYNADLMKVLAATGVFRVVQEAFDELIEKAKEDEISENDLPKLVIDRNTLLEREEFENPYAMVKAMAALEIAENVADVSVEGCFVEQDKERYVPIVASAHEMMRKAAELADEARELEKSNDAVLRTPHAPDGKVLSKRKFMEDPE,C
1,MTVAKAIFIKCGNLGTSMMMDMLLDERADREDVEFRVVGTSVKMDPECVEAAVEMALDIAEDFEPDFIVYGGPNPAAPGPSKAREMLADSEYPAVIIGDAPGLKVKDEMEEQGLGYILVKPDAMLGARREFLDPVEMAIYNADLMKVLAATGVFRVVQEAFDELIEKAKEDEISENDLPKLVIDRNTLLEREEFENPYAMVKAMAALEIAENVADVSVEGCFVEQDKERYVPIVASAHEMMRKAAELADEARELEKSNDAVLRTPHAPDGKVLSKRKFMEDPE,D
1,MTVAKAIFIKCGNLGTSMMMDMLLDERADREDVEFRVVGTSVKMDPECVEAAVEMALDIAEDFEPDFIVYGGPNPAAPGPSKAREMLADSEYPAVIIGDAPGLKVKDEMEEQGLGYILVKPDAMLGARREFLDPVEMAIYNADLMKVLAATGVFRVVQEAFDELIEKAKEDEISENDLPKLVIDRNTLLEREEFENPYAMVKAMAALEIAENVADVSVEGCFVEQDKERYVPIVASAHEMMRKAAELADEARELEKSNDAVLRTPHAPDGKVLSKRKFMEDPE,E
1,MTVAKAIFIKCGNLGTSMMMDMLLDERADREDVEFRVVGTSVKMDPECVEAAVEMALDIAEDFEPDFIVYGGPNPAAPGPSKAREMLADSEYPAVIIGDAPGLKVKDEMEEQGLGYILVKPDAMLGARREFLDPVEMAIYNADLMKVLAATGVFRVVQEAFDELIEKAKEDEISENDLPKLVIDRNTLLEREEFENPYAMVKAMAALEIAENVADVSVEGCFVEQDKERYVPIVASAHEMMRKAAELADEARELEKSNDAVLRTPHAPDGKVLSKRKFMEDPE,F
