Useq,Sequence,Chain
1,GSHTPDESFLCYQPDQVCAFICRGAAPLPSEGECNPHPTAPWAREGAVEWVPYSTGQCRTTCIPYVE,A
1,GSHTPDESFLCYQPDQVCAFICRGAAPLPSEGECNPHPTAPWAREGAVEWVPYSTGQCRTTCIPYVE,B
1,GSHTPDESFLCYQPDQVCAFICRGAAPLPSEGECNPHPTAPWAREGAVEWVPYSTGQCRTTCIPYVE,C
1,GSHTPDESFLCYQPDQVCAFICRGAAPLPSEGECNPHPTAPWAREGAVEWVPYSTGQCRTTCIPYVE,D
1,GSHTPDESFLCYQPDQVCAFICRGAAPLPSEGECNPHPTAPWAREGAVEWVPYSTGQCRTTCIPYVE,E
1,GSHTPDESFLCYQPDQVCAFICRGAAPLPSEGECNPHPTAPWAREGAVEWVPYSTGQCRTTCIPYVE,F
