Useq,Sequence,Chain
1,MAQGTLYIVSAPSGAGKSSLIQALLKTQPLYDTQVSVSHTTRQPRPGEVHGEHYFFVNHDEFKEMISRDAFLEHAEVFGNYYGTSREAIEQVLATGVDVFLDIDWQGAQQIRQKMPHARSIFILPPSKIELDRRLRGRGQDSEEVIAKRMAQAVAEMSHYAEYDYLIVNDDFDTALTDLKTIIRAERLRMSRQKQRHDALISKLLAD,A
1,MAQGTLYIVSAPSGAGKSSLIQALLKTQPLYDTQVSVSHTTRQPRPGEVHGEHYFFVNHDEFKEMISRDAFLEHAEVFGNYYGTSREAIEQVLATGVDVFLDIDWQGAQQIRQKMPHARSIFILPPSKIELDRRLRGRGQDSEEVIAKRMAQAVAEMSHYAEYDYLIVNDDFDTALTDLKTIIRAERLRMSRQKQRHDALISKLLAD,B
1,MAQGTLYIVSAPSGAGKSSLIQALLKTQPLYDTQVSVSHTTRQPRPGEVHGEHYFFVNHDEFKEMISRDAFLEHAEVFGNYYGTSREAIEQVLATGVDVFLDIDWQGAQQIRQKMPHARSIFILPPSKIELDRRLRGRGQDSEEVIAKRMAQAVAEMSHYAEYDYLIVNDDFDTALTDLKTIIRAERLRMSRQKQRHDALISKLLAD,C
1,MAQGTLYIVSAPSGAGKSSLIQALLKTQPLYDTQVSVSHTTRQPRPGEVHGEHYFFVNHDEFKEMISRDAFLEHAEVFGNYYGTSREAIEQVLATGVDVFLDIDWQGAQQIRQKMPHARSIFILPPSKIELDRRLRGRGQDSEEVIAKRMAQAVAEMSHYAEYDYLIVNDDFDTALTDLKTIIRAERLRMSRQKQRHDALISKLLAD,D
1,MAQGTLYIVSAPSGAGKSSLIQALLKTQPLYDTQVSVSHTTRQPRPGEVHGEHYFFVNHDEFKEMISRDAFLEHAEVFGNYYGTSREAIEQVLATGVDVFLDIDWQGAQQIRQKMPHARSIFILPPSKIELDRRLRGRGQDSEEVIAKRMAQAVAEMSHYAEYDYLIVNDDFDTALTDLKTIIRAERLRMSRQKQRHDALISKLLAD,E
1,MAQGTLYIVSAPSGAGKSSLIQALLKTQPLYDTQVSVSHTTRQPRPGEVHGEHYFFVNHDEFKEMISRDAFLEHAEVFGNYYGTSREAIEQVLATGVDVFLDIDWQGAQQIRQKMPHARSIFILPPSKIELDRRLRGRGQDSEEVIAKRMAQAVAEMSHYAEYDYLIVNDDFDTALTDLKTIIRAERLRMSRQKQRHDALISKLLAD,F
