Useq,Sequence,Chain
1,MGTEPPENCQDDFNFNYVSDQEIEVYHVDKGWSAGWNYVCLNDYCLPGNKSNGAFRKTFNAVLGQDYKLTFKVEDRYGQGQQILDRNITFTTQVCNLEHHHHHH,A
1,MGTEPPENCQDDFNFNYVSDQEIEVYHVDKGWSAGWNYVCLNDYCLPGNKSNGAFRKTFNAVLGQDYKLTFKVEDRYGQGQQILDRNITFTTQVCNLEHHHHHH,B
1,MGTEPPENCQDDFNFNYVSDQEIEVYHVDKGWSAGWNYVCLNDYCLPGNKSNGAFRKTFNAVLGQDYKLTFKVEDRYGQGQQILDRNITFTTQVCNLEHHHHHH,C
1,MGTEPPENCQDDFNFNYVSDQEIEVYHVDKGWSAGWNYVCLNDYCLPGNKSNGAFRKTFNAVLGQDYKLTFKVEDRYGQGQQILDRNITFTTQVCNLEHHHHHH,D
1,MGTEPPENCQDDFNFNYVSDQEIEVYHVDKGWSAGWNYVCLNDYCLPGNKSNGAFRKTFNAVLGQDYKLTFKVEDRYGQGQQILDRNITFTTQVCNLEHHHHHH,E
1,MGTEPPENCQDDFNFNYVSDQEIEVYHVDKGWSAGWNYVCLNDYCLPGNKSNGAFRKTFNAVLGQDYKLTFKVEDRYGQGQQILDRNITFTTQVCNLEHHHHHH,F
