Useq,Sequence,Chain
1,MNSMELLIIKERRIDYDGSAIRSHWAYRNFGILGDSLVVFRGKCNVKVEEMVDIEDLRLRKEIKGDDMVHYILELFWHPDILLASSLQKLLIARLVELLWNYGIEASRRGDDIYVNGRKLSISIATVSPVSIKIHIGLNVKTVGVPPGVDAIGLEELGIDPTEFMERSAKALVEEIEKVRKDSLKVRWVT,A
1,MNSMELLIIKERRIDYDGSAIRSHWAYRNFGILGDSLVVFRGKCNVKVEEMVDIEDLRLRKEIKGDDMVHYILELFWHPDILLASSLQKLLIARLVELLWNYGIEASRRGDDIYVNGRKLSISIATVSPVSIKIHIGLNVKTVGVPPGVDAIGLEELGIDPTEFMERSAKALVEEIEKVRKDSLKVRWVT,B
1,MNSMELLIIKERRIDYDGSAIRSHWAYRNFGILGDSLVVFRGKCNVKVEEMVDIEDLRLRKEIKGDDMVHYILELFWHPDILLASSLQKLLIARLVELLWNYGIEASRRGDDIYVNGRKLSISIATVSPVSIKIHIGLNVKTVGVPPGVDAIGLEELGIDPTEFMERSAKALVEEIEKVRKDSLKVRWVT,C
1,MNSMELLIIKERRIDYDGSAIRSHWAYRNFGILGDSLVVFRGKCNVKVEEMVDIEDLRLRKEIKGDDMVHYILELFWHPDILLASSLQKLLIARLVELLWNYGIEASRRGDDIYVNGRKLSISIATVSPVSIKIHIGLNVKTVGVPPGVDAIGLEELGIDPTEFMERSAKALVEEIEKVRKDSLKVRWVT,D
1,MNSMELLIIKERRIDYDGSAIRSHWAYRNFGILGDSLVVFRGKCNVKVEEMVDIEDLRLRKEIKGDDMVHYILELFWHPDILLASSLQKLLIARLVELLWNYGIEASRRGDDIYVNGRKLSISIATVSPVSIKIHIGLNVKTVGVPPGVDAIGLEELGIDPTEFMERSAKALVEEIEKVRKDSLKVRWVT,E
1,MNSMELLIIKERRIDYDGSAIRSHWAYRNFGILGDSLVVFRGKCNVKVEEMVDIEDLRLRKEIKGDDMVHYILELFWHPDILLASSLQKLLIARLVELLWNYGIEASRRGDDIYVNGRKLSISIATVSPVSIKIHIGLNVKTVGVPPGVDAIGLEELGIDPTEFMERSAKALVEEIEKVRKDSLKVRWVT,F
