Useq,Sequence,Chain
1,MTNYTYIKPEELVELLDNPDSLVKAAVIDCRDSDRDCGFIVNSINMPTISCTEEMYEKLAKTLFEEKKELAVFHCAQSLVRAPKGANRFALAQKKLGYVLPAVYVLRGGWEAFYHMYGDVRPDLMYVKLGPEQKLISEEDLNSAVDHHHHHH,A
1,MTNYTYIKPEELVELLDNPDSLVKAAVIDCRDSDRDCGFIVNSINMPTISCTEEMYEKLAKTLFEEKKELAVFHCAQSLVRAPKGANRFALAQKKLGYVLPAVYVLRGGWEAFYHMYGDVRPDLMYVKLGPEQKLISEEDLNSAVDHHHHHH,B
1,MTNYTYIKPEELVELLDNPDSLVKAAVIDCRDSDRDCGFIVNSINMPTISCTEEMYEKLAKTLFEEKKELAVFHCAQSLVRAPKGANRFALAQKKLGYVLPAVYVLRGGWEAFYHMYGDVRPDLMYVKLGPEQKLISEEDLNSAVDHHHHHH,C
1,MTNYTYIKPEELVELLDNPDSLVKAAVIDCRDSDRDCGFIVNSINMPTISCTEEMYEKLAKTLFEEKKELAVFHCAQSLVRAPKGANRFALAQKKLGYVLPAVYVLRGGWEAFYHMYGDVRPDLMYVKLGPEQKLISEEDLNSAVDHHHHHH,D
1,MTNYTYIKPEELVELLDNPDSLVKAAVIDCRDSDRDCGFIVNSINMPTISCTEEMYEKLAKTLFEEKKELAVFHCAQSLVRAPKGANRFALAQKKLGYVLPAVYVLRGGWEAFYHMYGDVRPDLMYVKLGPEQKLISEEDLNSAVDHHHHHH,E
1,MTNYTYIKPEELVELLDNPDSLVKAAVIDCRDSDRDCGFIVNSINMPTISCTEEMYEKLAKTLFEEKKELAVFHCAQSLVRAPKGANRFALAQKKLGYVLPAVYVLRGGWEAFYHMYGDVRPDLMYVKLGPEQKLISEEDLNSAVDHHHHHH,F
