Useq,Sequence,Chain
1,MEIPSKQIDYRDVFIEFLTTFKGNNNQNKYIERINELVAYRKKSLIIEFSDVLSFNENLAYEIINNTKIILPILEGALYDHILQLDPTYQRDIEKVHVRIVGIPRVIELRKIRSTDIGKLITIDGILVKVTPVKERIYKATYKHIHPDCMQEFEWPEDEEMPEVLEMPTICPKCGKPGQFRLIPEKTKLIDWQKAVIQERPEEVPSGQLPRQLEIILEDDLVDSARPGDRVKVTGILDIKQDSPVKRGSRAVFDIYMKVSSIEVSQKV,A
1,MEIPSKQIDYRDVFIEFLTTFKGNNNQNKYIERINELVAYRKKSLIIEFSDVLSFNENLAYEIINNTKIILPILEGALYDHILQLDPTYQRDIEKVHVRIVGIPRVIELRKIRSTDIGKLITIDGILVKVTPVKERIYKATYKHIHPDCMQEFEWPEDEEMPEVLEMPTICPKCGKPGQFRLIPEKTKLIDWQKAVIQERPEEVPSGQLPRQLEIILEDDLVDSARPGDRVKVTGILDIKQDSPVKRGSRAVFDIYMKVSSIEVSQKV,B
1,MEIPSKQIDYRDVFIEFLTTFKGNNNQNKYIERINELVAYRKKSLIIEFSDVLSFNENLAYEIINNTKIILPILEGALYDHILQLDPTYQRDIEKVHVRIVGIPRVIELRKIRSTDIGKLITIDGILVKVTPVKERIYKATYKHIHPDCMQEFEWPEDEEMPEVLEMPTICPKCGKPGQFRLIPEKTKLIDWQKAVIQERPEEVPSGQLPRQLEIILEDDLVDSARPGDRVKVTGILDIKQDSPVKRGSRAVFDIYMKVSSIEVSQKV,C
1,MEIPSKQIDYRDVFIEFLTTFKGNNNQNKYIERINELVAYRKKSLIIEFSDVLSFNENLAYEIINNTKIILPILEGALYDHILQLDPTYQRDIEKVHVRIVGIPRVIELRKIRSTDIGKLITIDGILVKVTPVKERIYKATYKHIHPDCMQEFEWPEDEEMPEVLEMPTICPKCGKPGQFRLIPEKTKLIDWQKAVIQERPEEVPSGQLPRQLEIILEDDLVDSARPGDRVKVTGILDIKQDSPVKRGSRAVFDIYMKVSSIEVSQKV,D
1,MEIPSKQIDYRDVFIEFLTTFKGNNNQNKYIERINELVAYRKKSLIIEFSDVLSFNENLAYEIINNTKIILPILEGALYDHILQLDPTYQRDIEKVHVRIVGIPRVIELRKIRSTDIGKLITIDGILVKVTPVKERIYKATYKHIHPDCMQEFEWPEDEEMPEVLEMPTICPKCGKPGQFRLIPEKTKLIDWQKAVIQERPEEVPSGQLPRQLEIILEDDLVDSARPGDRVKVTGILDIKQDSPVKRGSRAVFDIYMKVSSIEVSQKV,E
1,MEIPSKQIDYRDVFIEFLTTFKGNNNQNKYIERINELVAYRKKSLIIEFSDVLSFNENLAYEIINNTKIILPILEGALYDHILQLDPTYQRDIEKVHVRIVGIPRVIELRKIRSTDIGKLITIDGILVKVTPVKERIYKATYKHIHPDCMQEFEWPEDEEMPEVLEMPTICPKCGKPGQFRLIPEKTKLIDWQKAVIQERPEEVPSGQLPRQLEIILEDDLVDSARPGDRVKVTGILDIKQDSPVKRGSRAVFDIYMKVSSIEVSQKV,F
