Useq,Sequence,Chain
1,MSLILCIDVGNSHIYGGVFDGDEIKLRFRHTSKVSTSDELGIFLKSVLRENNCSPETIRKIAICSVVPQVDYSLRSACVKYFSIDPFLLQAGVKTGLNIKYRNPVEVGADRIANAIAATHSFPNQNIIVIDFGTATTFCAISHKKAYLGGAILPGLRLSADALSKNTAKLPSVEIIKTESVVGRSTIESIQSGVYYGVLGACKELIQRIHHEAFNGDQILILATGGFASLFDKQGLYDHLVPDLVLQGIRLAAMMNTAEGHHHHHH,A
1,MSLILCIDVGNSHIYGGVFDGDEIKLRFRHTSKVSTSDELGIFLKSVLRENNCSPETIRKIAICSVVPQVDYSLRSACVKYFSIDPFLLQAGVKTGLNIKYRNPVEVGADRIANAIAATHSFPNQNIIVIDFGTATTFCAISHKKAYLGGAILPGLRLSADALSKNTAKLPSVEIIKTESVVGRSTIESIQSGVYYGVLGACKELIQRIHHEAFNGDQILILATGGFASLFDKQGLYDHLVPDLVLQGIRLAAMMNTAEGHHHHHH,B
1,MSLILCIDVGNSHIYGGVFDGDEIKLRFRHTSKVSTSDELGIFLKSVLRENNCSPETIRKIAICSVVPQVDYSLRSACVKYFSIDPFLLQAGVKTGLNIKYRNPVEVGADRIANAIAATHSFPNQNIIVIDFGTATTFCAISHKKAYLGGAILPGLRLSADALSKNTAKLPSVEIIKTESVVGRSTIESIQSGVYYGVLGACKELIQRIHHEAFNGDQILILATGGFASLFDKQGLYDHLVPDLVLQGIRLAAMMNTAEGHHHHHH,C
1,MSLILCIDVGNSHIYGGVFDGDEIKLRFRHTSKVSTSDELGIFLKSVLRENNCSPETIRKIAICSVVPQVDYSLRSACVKYFSIDPFLLQAGVKTGLNIKYRNPVEVGADRIANAIAATHSFPNQNIIVIDFGTATTFCAISHKKAYLGGAILPGLRLSADALSKNTAKLPSVEIIKTESVVGRSTIESIQSGVYYGVLGACKELIQRIHHEAFNGDQILILATGGFASLFDKQGLYDHLVPDLVLQGIRLAAMMNTAEGHHHHHH,D
1,MSLILCIDVGNSHIYGGVFDGDEIKLRFRHTSKVSTSDELGIFLKSVLRENNCSPETIRKIAICSVVPQVDYSLRSACVKYFSIDPFLLQAGVKTGLNIKYRNPVEVGADRIANAIAATHSFPNQNIIVIDFGTATTFCAISHKKAYLGGAILPGLRLSADALSKNTAKLPSVEIIKTESVVGRSTIESIQSGVYYGVLGACKELIQRIHHEAFNGDQILILATGGFASLFDKQGLYDHLVPDLVLQGIRLAAMMNTAEGHHHHHH,E
1,MSLILCIDVGNSHIYGGVFDGDEIKLRFRHTSKVSTSDELGIFLKSVLRENNCSPETIRKIAICSVVPQVDYSLRSACVKYFSIDPFLLQAGVKTGLNIKYRNPVEVGADRIANAIAATHSFPNQNIIVIDFGTATTFCAISHKKAYLGGAILPGLRLSADALSKNTAKLPSVEIIKTESVVGRSTIESIQSGVYYGVLGACKELIQRIHHEAFNGDQILILATGGFASLFDKQGLYDHLVPDLVLQGIRLAAMMNTAEGHHHHHH,F
