Useq,Sequence,Chain
1,MGSDKIHHHHHHENLYFQGMLIEIPNVFSKQEVSHLREQLDARRWIDGNQTSGAMATTRKRNQQLDKDDPVAVALGQQIMDRLLAHPQFVSAALPLQFYPPLFNRYQGGETFGYHIDNAIRSTPDGMIRTDLSATLFLSEPENYQGGELVIQDTYGQQSIKLSAGSLVLYPSSSLHQVTPVLSGERTAAFMWLQSMVRDEGQRRLLFQLDQSIQSLTAQTAAEQELFNLSGVYHNLLRRWSEL,A
1,MGSDKIHHHHHHENLYFQGMLIEIPNVFSKQEVSHLREQLDARRWIDGNQTSGAMATTRKRNQQLDKDDPVAVALGQQIMDRLLAHPQFVSAALPLQFYPPLFNRYQGGETFGYHIDNAIRSTPDGMIRTDLSATLFLSEPENYQGGELVIQDTYGQQSIKLSAGSLVLYPSSSLHQVTPVLSGERTAAFMWLQSMVRDEGQRRLLFQLDQSIQSLTAQTAAEQELFNLSGVYHNLLRRWSEL,B
1,MGSDKIHHHHHHENLYFQGMLIEIPNVFSKQEVSHLREQLDARRWIDGNQTSGAMATTRKRNQQLDKDDPVAVALGQQIMDRLLAHPQFVSAALPLQFYPPLFNRYQGGETFGYHIDNAIRSTPDGMIRTDLSATLFLSEPENYQGGELVIQDTYGQQSIKLSAGSLVLYPSSSLHQVTPVLSGERTAAFMWLQSMVRDEGQRRLLFQLDQSIQSLTAQTAAEQELFNLSGVYHNLLRRWSEL,C
1,MGSDKIHHHHHHENLYFQGMLIEIPNVFSKQEVSHLREQLDARRWIDGNQTSGAMATTRKRNQQLDKDDPVAVALGQQIMDRLLAHPQFVSAALPLQFYPPLFNRYQGGETFGYHIDNAIRSTPDGMIRTDLSATLFLSEPENYQGGELVIQDTYGQQSIKLSAGSLVLYPSSSLHQVTPVLSGERTAAFMWLQSMVRDEGQRRLLFQLDQSIQSLTAQTAAEQELFNLSGVYHNLLRRWSEL,D
1,MGSDKIHHHHHHENLYFQGMLIEIPNVFSKQEVSHLREQLDARRWIDGNQTSGAMATTRKRNQQLDKDDPVAVALGQQIMDRLLAHPQFVSAALPLQFYPPLFNRYQGGETFGYHIDNAIRSTPDGMIRTDLSATLFLSEPENYQGGELVIQDTYGQQSIKLSAGSLVLYPSSSLHQVTPVLSGERTAAFMWLQSMVRDEGQRRLLFQLDQSIQSLTAQTAAEQELFNLSGVYHNLLRRWSEL,E
1,MGSDKIHHHHHHENLYFQGMLIEIPNVFSKQEVSHLREQLDARRWIDGNQTSGAMATTRKRNQQLDKDDPVAVALGQQIMDRLLAHPQFVSAALPLQFYPPLFNRYQGGETFGYHIDNAIRSTPDGMIRTDLSATLFLSEPENYQGGELVIQDTYGQQSIKLSAGSLVLYPSSSLHQVTPVLSGERTAAFMWLQSMVRDEGQRRLLFQLDQSIQSLTAQTAAEQELFNLSGVYHNLLRRWSEL,F
