Useq,Sequence,Chain
1,GMADPKELQDKFWKALKSDRTVMLGLDGVEDGHARPMTAQIEGDSGGPIWFFTSKDNALIAMLGQGRRVIGAFSSKGHDLFASISGSLREDTDPAVVDRLWNPYVAAWYEGGKDDPKLALLRLDADHAQIWLNGSSLLAGIKVLLGV,A
1,GMADPKELQDKFWKALKSDRTVMLGLDGVEDGHARPMTAQIEGDSGGPIWFFTSKDNALIAMLGQGRRVIGAFSSKGHDLFASISGSLREDTDPAVVDRLWNPYVAAWYEGGKDDPKLALLRLDADHAQIWLNGSSLLAGIKVLLGV,B
1,GMADPKELQDKFWKALKSDRTVMLGLDGVEDGHARPMTAQIEGDSGGPIWFFTSKDNALIAMLGQGRRVIGAFSSKGHDLFASISGSLREDTDPAVVDRLWNPYVAAWYEGGKDDPKLALLRLDADHAQIWLNGSSLLAGIKVLLGV,C
1,GMADPKELQDKFWKALKSDRTVMLGLDGVEDGHARPMTAQIEGDSGGPIWFFTSKDNALIAMLGQGRRVIGAFSSKGHDLFASISGSLREDTDPAVVDRLWNPYVAAWYEGGKDDPKLALLRLDADHAQIWLNGSSLLAGIKVLLGV,D
1,GMADPKELQDKFWKALKSDRTVMLGLDGVEDGHARPMTAQIEGDSGGPIWFFTSKDNALIAMLGQGRRVIGAFSSKGHDLFASISGSLREDTDPAVVDRLWNPYVAAWYEGGKDDPKLALLRLDADHAQIWLNGSSLLAGIKVLLGV,E
1,GMADPKELQDKFWKALKSDRTVMLGLDGVEDGHARPMTAQIEGDSGGPIWFFTSKDNALIAMLGQGRRVIGAFSSKGHDLFASISGSLREDTDPAVVDRLWNPYVAAWYEGGKDDPKLALLRLDADHAQIWLNGSSLLAGIKVLLGV,F
