Useq,Sequence,Chain
1,MDKERIIQEFVPGKQVTLAHLIAHPGEELAKKIGVPDAGAIGIMTLTPGETAMIAGDLALKAADVHIGFLDRFSGALVIYGSVGAVEEALSQTVSGLGRLLNYTLCEMTKSLEHHHHHH,A
1,MDKERIIQEFVPGKQVTLAHLIAHPGEELAKKIGVPDAGAIGIMTLTPGETAMIAGDLALKAADVHIGFLDRFSGALVIYGSVGAVEEALSQTVSGLGRLLNYTLCEMTKSLEHHHHHH,B
1,MDKERIIQEFVPGKQVTLAHLIAHPGEELAKKIGVPDAGAIGIMTLTPGETAMIAGDLALKAADVHIGFLDRFSGALVIYGSVGAVEEALSQTVSGLGRLLNYTLCEMTKSLEHHHHHH,C
1,MDKERIIQEFVPGKQVTLAHLIAHPGEELAKKIGVPDAGAIGIMTLTPGETAMIAGDLALKAADVHIGFLDRFSGALVIYGSVGAVEEALSQTVSGLGRLLNYTLCEMTKSLEHHHHHH,D
1,MDKERIIQEFVPGKQVTLAHLIAHPGEELAKKIGVPDAGAIGIMTLTPGETAMIAGDLALKAADVHIGFLDRFSGALVIYGSVGAVEEALSQTVSGLGRLLNYTLCEMTKSLEHHHHHH,E
1,MDKERIIQEFVPGKQVTLAHLIAHPGEELAKKIGVPDAGAIGIMTLTPGETAMIAGDLALKAADVHIGFLDRFSGALVIYGSVGAVEEALSQTVSGLGRLLNYTLCEMTKSLEHHHHHH,F
