Useq,Sequence,Chain
1,MGSDKIHHHHHHENLYFQGMARYINITLEKRGVTCKALLLDDVAPRTSKAVWDALPQSSQVFHGKYARNEIYNLVPAFAPKEPGAENTTVTPIPGDVCYFTFTSNDLKTPSHGYEADSGTDEVQTIVDLAVFYGRNNLLLNGDTGWVPGNVFATIVEGLDEMAAACQDIWMGGARDETLTFSRAEDTA,A
1,MGSDKIHHHHHHENLYFQGMARYINITLEKRGVTCKALLLDDVAPRTSKAVWDALPQSSQVFHGKYARNEIYNLVPAFAPKEPGAENTTVTPIPGDVCYFTFTSNDLKTPSHGYEADSGTDEVQTIVDLAVFYGRNNLLLNGDTGWVPGNVFATIVEGLDEMAAACQDIWMGGARDETLTFSRAEDTA,B
1,MGSDKIHHHHHHENLYFQGMARYINITLEKRGVTCKALLLDDVAPRTSKAVWDALPQSSQVFHGKYARNEIYNLVPAFAPKEPGAENTTVTPIPGDVCYFTFTSNDLKTPSHGYEADSGTDEVQTIVDLAVFYGRNNLLLNGDTGWVPGNVFATIVEGLDEMAAACQDIWMGGARDETLTFSRAEDTA,C
1,MGSDKIHHHHHHENLYFQGMARYINITLEKRGVTCKALLLDDVAPRTSKAVWDALPQSSQVFHGKYARNEIYNLVPAFAPKEPGAENTTVTPIPGDVCYFTFTSNDLKTPSHGYEADSGTDEVQTIVDLAVFYGRNNLLLNGDTGWVPGNVFATIVEGLDEMAAACQDIWMGGARDETLTFSRAEDTA,D
1,MGSDKIHHHHHHENLYFQGMARYINITLEKRGVTCKALLLDDVAPRTSKAVWDALPQSSQVFHGKYARNEIYNLVPAFAPKEPGAENTTVTPIPGDVCYFTFTSNDLKTPSHGYEADSGTDEVQTIVDLAVFYGRNNLLLNGDTGWVPGNVFATIVEGLDEMAAACQDIWMGGARDETLTFSRAEDTA,E
1,MGSDKIHHHHHHENLYFQGMARYINITLEKRGVTCKALLLDDVAPRTSKAVWDALPQSSQVFHGKYARNEIYNLVPAFAPKEPGAENTTVTPIPGDVCYFTFTSNDLKTPSHGYEADSGTDEVQTIVDLAVFYGRNNLLLNGDTGWVPGNVFATIVEGLDEMAAACQDIWMGGARDETLTFSRAEDTA,F
