Useq,Sequence,Chain
1,SMACYGGFDLYFILDKSGSVLHHWNEIYYFVEQLAHKFISPQLRMSFIVFSTRGTTLMKLTEDREQIRQGLEELQKVLPGGDTYMHEGFERASEQIYYENRQGYRTASVIIALTDGELHEDLFFYSEREANRSRDLGAIVYAVGVKDFNETQLARIADSKDHVFPVNDGFQALQGIIHSILKKSC,A
1,SMACYGGFDLYFILDKSGSVLHHWNEIYYFVEQLAHKFISPQLRMSFIVFSTRGTTLMKLTEDREQIRQGLEELQKVLPGGDTYMHEGFERASEQIYYENRQGYRTASVIIALTDGELHEDLFFYSEREANRSRDLGAIVYAVGVKDFNETQLARIADSKDHVFPVNDGFQALQGIIHSILKKSC,B
1,SMACYGGFDLYFILDKSGSVLHHWNEIYYFVEQLAHKFISPQLRMSFIVFSTRGTTLMKLTEDREQIRQGLEELQKVLPGGDTYMHEGFERASEQIYYENRQGYRTASVIIALTDGELHEDLFFYSEREANRSRDLGAIVYAVGVKDFNETQLARIADSKDHVFPVNDGFQALQGIIHSILKKSC,C
1,SMACYGGFDLYFILDKSGSVLHHWNEIYYFVEQLAHKFISPQLRMSFIVFSTRGTTLMKLTEDREQIRQGLEELQKVLPGGDTYMHEGFERASEQIYYENRQGYRTASVIIALTDGELHEDLFFYSEREANRSRDLGAIVYAVGVKDFNETQLARIADSKDHVFPVNDGFQALQGIIHSILKKSC,D
1,SMACYGGFDLYFILDKSGSVLHHWNEIYYFVEQLAHKFISPQLRMSFIVFSTRGTTLMKLTEDREQIRQGLEELQKVLPGGDTYMHEGFERASEQIYYENRQGYRTASVIIALTDGELHEDLFFYSEREANRSRDLGAIVYAVGVKDFNETQLARIADSKDHVFPVNDGFQALQGIIHSILKKSC,E
1,SMACYGGFDLYFILDKSGSVLHHWNEIYYFVEQLAHKFISPQLRMSFIVFSTRGTTLMKLTEDREQIRQGLEELQKVLPGGDTYMHEGFERASEQIYYENRQGYRTASVIIALTDGELHEDLFFYSEREANRSRDLGAIVYAVGVKDFNETQLARIADSKDHVFPVNDGFQALQGIIHSILKKSC,F
