Useq,Sequence,Chain
1,MAMKRLLVTGAAGQLGRVMRERLAPMAEILRLADLSPLDPAGPNEECVQCDLADANAVNAMVAGCDGIVHLGGISVEKPFEQILQGNIIGLYNLYEAARAHGQPRIVFASSNHTIGYYPQTERLGPDVPARPDGLYGVSKCFGENLARMYFDKFGQETALVRIGSCTPEPNNYRMLSTWFSHDDFVSLIEAVFRAPVLGCPVVWGASANDAGWWDNSHLGFLGWKPKDNAEAFRRHITETTPPPDPNDALVRFQGGTFVDNPIFKQS,A
1,MAMKRLLVTGAAGQLGRVMRERLAPMAEILRLADLSPLDPAGPNEECVQCDLADANAVNAMVAGCDGIVHLGGISVEKPFEQILQGNIIGLYNLYEAARAHGQPRIVFASSNHTIGYYPQTERLGPDVPARPDGLYGVSKCFGENLARMYFDKFGQETALVRIGSCTPEPNNYRMLSTWFSHDDFVSLIEAVFRAPVLGCPVVWGASANDAGWWDNSHLGFLGWKPKDNAEAFRRHITETTPPPDPNDALVRFQGGTFVDNPIFKQS,B
1,MAMKRLLVTGAAGQLGRVMRERLAPMAEILRLADLSPLDPAGPNEECVQCDLADANAVNAMVAGCDGIVHLGGISVEKPFEQILQGNIIGLYNLYEAARAHGQPRIVFASSNHTIGYYPQTERLGPDVPARPDGLYGVSKCFGENLARMYFDKFGQETALVRIGSCTPEPNNYRMLSTWFSHDDFVSLIEAVFRAPVLGCPVVWGASANDAGWWDNSHLGFLGWKPKDNAEAFRRHITETTPPPDPNDALVRFQGGTFVDNPIFKQS,C
1,MAMKRLLVTGAAGQLGRVMRERLAPMAEILRLADLSPLDPAGPNEECVQCDLADANAVNAMVAGCDGIVHLGGISVEKPFEQILQGNIIGLYNLYEAARAHGQPRIVFASSNHTIGYYPQTERLGPDVPARPDGLYGVSKCFGENLARMYFDKFGQETALVRIGSCTPEPNNYRMLSTWFSHDDFVSLIEAVFRAPVLGCPVVWGASANDAGWWDNSHLGFLGWKPKDNAEAFRRHITETTPPPDPNDALVRFQGGTFVDNPIFKQS,D
1,MAMKRLLVTGAAGQLGRVMRERLAPMAEILRLADLSPLDPAGPNEECVQCDLADANAVNAMVAGCDGIVHLGGISVEKPFEQILQGNIIGLYNLYEAARAHGQPRIVFASSNHTIGYYPQTERLGPDVPARPDGLYGVSKCFGENLARMYFDKFGQETALVRIGSCTPEPNNYRMLSTWFSHDDFVSLIEAVFRAPVLGCPVVWGASANDAGWWDNSHLGFLGWKPKDNAEAFRRHITETTPPPDPNDALVRFQGGTFVDNPIFKQS,E
1,MAMKRLLVTGAAGQLGRVMRERLAPMAEILRLADLSPLDPAGPNEECVQCDLADANAVNAMVAGCDGIVHLGGISVEKPFEQILQGNIIGLYNLYEAARAHGQPRIVFASSNHTIGYYPQTERLGPDVPARPDGLYGVSKCFGENLARMYFDKFGQETALVRIGSCTPEPNNYRMLSTWFSHDDFVSLIEAVFRAPVLGCPVVWGASANDAGWWDNSHLGFLGWKPKDNAEAFRRHITETTPPPDPNDALVRFQGGTFVDNPIFKQS,F
