Stoichiometry,SeqID,PDB,Sequence
1,1,4f7u,MKLVRFLMKLSHETVTIELKNGTQVHGTITGVDVSMNTHLKAVKMTLKNREPVQLETLSIRGNNIRYFILPDSLPLDTLLVDVEPKVKSKKREAVAGRGRGRGRGRGRGRGRGRGGPRR
1,2,4f7u,MSLLNKPKSEMTPEELQKREEEEFNTGPLSVLTQSVKNNTQVLINCRNNKKLLGRVKAFDRHCNMVLENVKEMWTEVPKSGKGKKKSKPVNKDRYISKMFLRGDSVIVVLRNPLIAGK
1,3,4f7u,MAYRGQGQKVQKVMVQPINLIFRYLQNRSRIQVWLYEQVNMRIEGCIIGFDEYMNLVLDDAEEIHSKTKSRKQLGRIMLKGDNITLLQSVSN
1,4,4f7u,MSLPLNPKPFLNGLTGKPVMVKLKWGMEYKGYLVSVDGYMNMQLANTEEYIDGALSGHLGEVLIRCNNVLYIRGVEEEEEDGEMRE
1,5,4f7u,MSKAHPPELKKFMDKKLSLKLNGGRHVQGILRGFDPFMNLVIDECVEMATSGQQNNIGMVVIRGNSIIMLEALERV
1,6,4f7u,MVLIMHVSPPEHGLLYTANNIKLKLGDKVVGEGTVYIAQNTLSWQPTELAEGISIEWKQVSLHGISSNPRKCIYFMLDHKVEWNGVYGDVDEQFGEVTECWLMPEDIATVDTMYSAMTTCQALHHHHHH
