Useq,Sequence,Chain
1,GSSPGPYIVRLLNSSLNGCEFPLLTGRTLFVVGQSDALTASGQLPDIPADSFFIPLDHGGVNFEIQVDTDATEIILHELKEGNSESRSVQLNTPIQVGELLILIRPESEPW,A
1,GSSPGPYIVRLLNSSLNGCEFPLLTGRTLFVVGQSDALTASGQLPDIPADSFFIPLDHGGVNFEIQVDTDATEIILHELKEGNSESRSVQLNTPIQVGELLILIRPESEPW,B
1,GSSPGPYIVRLLNSSLNGCEFPLLTGRTLFVVGQSDALTASGQLPDIPADSFFIPLDHGGVNFEIQVDTDATEIILHELKEGNSESRSVQLNTPIQVGELLILIRPESEPW,C
1,GSSPGPYIVRLLNSSLNGCEFPLLTGRTLFVVGQSDALTASGQLPDIPADSFFIPLDHGGVNFEIQVDTDATEIILHELKEGNSESRSVQLNTPIQVGELLILIRPESEPW,D
1,GSSPGPYIVRLLNSSLNGCEFPLLTGRTLFVVGQSDALTASGQLPDIPADSFFIPLDHGGVNFEIQVDTDATEIILHELKEGNSESRSVQLNTPIQVGELLILIRPESEPW,E
1,GSSPGPYIVRLLNSSLNGCEFPLLTGRTLFVVGQSDALTASGQLPDIPADSFFIPLDHGGVNFEIQVDTDATEIILHELKEGNSESRSVQLNTPIQVGELLILIRPESEPW,F
