Useq,Sequence,Chain
1,MKAKEIIEFIETFAPKDLAIEGDNIGLQVGDNLDKEIKKLGIALDPSLSVIKKAEKEGVDFLFTHHPLLKDPIRNFTGVIYKKLKILMENDIILYSAHTNLDICKNGLNDALAELYNLENPKPLYDNGLGRVGIFKGSFEEFLEITKKYIHKNPIVVKSKEVDDNFKLAVLSGYGLSQSSIKYVAEKADVYLSGDLTHHSKILAEELGLVVVDATHYSTEVFGLKKFKEFLSSNLDLEIISLDFLEHHHHHH,A
1,MKAKEIIEFIETFAPKDLAIEGDNIGLQVGDNLDKEIKKLGIALDPSLSVIKKAEKEGVDFLFTHHPLLKDPIRNFTGVIYKKLKILMENDIILYSAHTNLDICKNGLNDALAELYNLENPKPLYDNGLGRVGIFKGSFEEFLEITKKYIHKNPIVVKSKEVDDNFKLAVLSGYGLSQSSIKYVAEKADVYLSGDLTHHSKILAEELGLVVVDATHYSTEVFGLKKFKEFLSSNLDLEIISLDFLEHHHHHH,B
1,MKAKEIIEFIETFAPKDLAIEGDNIGLQVGDNLDKEIKKLGIALDPSLSVIKKAEKEGVDFLFTHHPLLKDPIRNFTGVIYKKLKILMENDIILYSAHTNLDICKNGLNDALAELYNLENPKPLYDNGLGRVGIFKGSFEEFLEITKKYIHKNPIVVKSKEVDDNFKLAVLSGYGLSQSSIKYVAEKADVYLSGDLTHHSKILAEELGLVVVDATHYSTEVFGLKKFKEFLSSNLDLEIISLDFLEHHHHHH,C
1,MKAKEIIEFIETFAPKDLAIEGDNIGLQVGDNLDKEIKKLGIALDPSLSVIKKAEKEGVDFLFTHHPLLKDPIRNFTGVIYKKLKILMENDIILYSAHTNLDICKNGLNDALAELYNLENPKPLYDNGLGRVGIFKGSFEEFLEITKKYIHKNPIVVKSKEVDDNFKLAVLSGYGLSQSSIKYVAEKADVYLSGDLTHHSKILAEELGLVVVDATHYSTEVFGLKKFKEFLSSNLDLEIISLDFLEHHHHHH,D
1,MKAKEIIEFIETFAPKDLAIEGDNIGLQVGDNLDKEIKKLGIALDPSLSVIKKAEKEGVDFLFTHHPLLKDPIRNFTGVIYKKLKILMENDIILYSAHTNLDICKNGLNDALAELYNLENPKPLYDNGLGRVGIFKGSFEEFLEITKKYIHKNPIVVKSKEVDDNFKLAVLSGYGLSQSSIKYVAEKADVYLSGDLTHHSKILAEELGLVVVDATHYSTEVFGLKKFKEFLSSNLDLEIISLDFLEHHHHHH,E
1,MKAKEIIEFIETFAPKDLAIEGDNIGLQVGDNLDKEIKKLGIALDPSLSVIKKAEKEGVDFLFTHHPLLKDPIRNFTGVIYKKLKILMENDIILYSAHTNLDICKNGLNDALAELYNLENPKPLYDNGLGRVGIFKGSFEEFLEITKKYIHKNPIVVKSKEVDDNFKLAVLSGYGLSQSSIKYVAEKADVYLSGDLTHHSKILAEELGLVVVDATHYSTEVFGLKKFKEFLSSNLDLEIISLDFLEHHHHHH,F
