Useq,Sequence,Chain
1,SNAMKVDPNSINLEKAAQSIQILAVIDTNYIKRSHPNPSLNAQNPTSIPSTALFMLNGHAPGVSSSEGNGNLGLKLNVGDKVSLMGTSLADNSGDAALIYHVQQYSGAQVFAPFTAVTIEQAGAASAAETPDLIATSAQSQVFQAFESVAKSAGSEYLATSFALYTRSQNRKSLFGYFFWVWQAAAA,A
1,SNAMKVDPNSINLEKAAQSIQILAVIDTNYIKRSHPNPSLNAQNPTSIPSTALFMLNGHAPGVSSSEGNGNLGLKLNVGDKVSLMGTSLADNSGDAALIYHVQQYSGAQVFAPFTAVTIEQAGAASAAETPDLIATSAQSQVFQAFESVAKSAGSEYLATSFALYTRSQNRKSLFGYFFWVWQAAAA,B
1,SNAMKVDPNSINLEKAAQSIQILAVIDTNYIKRSHPNPSLNAQNPTSIPSTALFMLNGHAPGVSSSEGNGNLGLKLNVGDKVSLMGTSLADNSGDAALIYHVQQYSGAQVFAPFTAVTIEQAGAASAAETPDLIATSAQSQVFQAFESVAKSAGSEYLATSFALYTRSQNRKSLFGYFFWVWQAAAA,C
1,SNAMKVDPNSINLEKAAQSIQILAVIDTNYIKRSHPNPSLNAQNPTSIPSTALFMLNGHAPGVSSSEGNGNLGLKLNVGDKVSLMGTSLADNSGDAALIYHVQQYSGAQVFAPFTAVTIEQAGAASAAETPDLIATSAQSQVFQAFESVAKSAGSEYLATSFALYTRSQNRKSLFGYFFWVWQAAAA,D
1,SNAMKVDPNSINLEKAAQSIQILAVIDTNYIKRSHPNPSLNAQNPTSIPSTALFMLNGHAPGVSSSEGNGNLGLKLNVGDKVSLMGTSLADNSGDAALIYHVQQYSGAQVFAPFTAVTIEQAGAASAAETPDLIATSAQSQVFQAFESVAKSAGSEYLATSFALYTRSQNRKSLFGYFFWVWQAAAA,E
1,SNAMKVDPNSINLEKAAQSIQILAVIDTNYIKRSHPNPSLNAQNPTSIPSTALFMLNGHAPGVSSSEGNGNLGLKLNVGDKVSLMGTSLADNSGDAALIYHVQQYSGAQVFAPFTAVTIEQAGAASAAETPDLIATSAQSQVFQAFESVAKSAGSEYLATSFALYTRSQNRKSLFGYFFWVWQAAAA,F
