Useq,Sequence,Chain
1,MHHHHHHGGGGGMPTSPSKKLVVLDRDGVINVDSDAFVKSPDEWVALPGSLEAIARLNHAGYRVVVATNQSGIGRGLFDMATLNAMHLKMHRAAAAVGGRIDAVFFCPHTADDHCDCRKPMPGMMKLIAERFEIDPADTPVVGDSLRDLQAGAALGFRPHLVLTGKGKKTLAAGGLPEGTRVHDDLRAFALDFLSKEHE,A
1,MHHHHHHGGGGGMPTSPSKKLVVLDRDGVINVDSDAFVKSPDEWVALPGSLEAIARLNHAGYRVVVATNQSGIGRGLFDMATLNAMHLKMHRAAAAVGGRIDAVFFCPHTADDHCDCRKPMPGMMKLIAERFEIDPADTPVVGDSLRDLQAGAALGFRPHLVLTGKGKKTLAAGGLPEGTRVHDDLRAFALDFLSKEHE,B
1,MHHHHHHGGGGGMPTSPSKKLVVLDRDGVINVDSDAFVKSPDEWVALPGSLEAIARLNHAGYRVVVATNQSGIGRGLFDMATLNAMHLKMHRAAAAVGGRIDAVFFCPHTADDHCDCRKPMPGMMKLIAERFEIDPADTPVVGDSLRDLQAGAALGFRPHLVLTGKGKKTLAAGGLPEGTRVHDDLRAFALDFLSKEHE,C
1,MHHHHHHGGGGGMPTSPSKKLVVLDRDGVINVDSDAFVKSPDEWVALPGSLEAIARLNHAGYRVVVATNQSGIGRGLFDMATLNAMHLKMHRAAAAVGGRIDAVFFCPHTADDHCDCRKPMPGMMKLIAERFEIDPADTPVVGDSLRDLQAGAALGFRPHLVLTGKGKKTLAAGGLPEGTRVHDDLRAFALDFLSKEHE,D
1,MHHHHHHGGGGGMPTSPSKKLVVLDRDGVINVDSDAFVKSPDEWVALPGSLEAIARLNHAGYRVVVATNQSGIGRGLFDMATLNAMHLKMHRAAAAVGGRIDAVFFCPHTADDHCDCRKPMPGMMKLIAERFEIDPADTPVVGDSLRDLQAGAALGFRPHLVLTGKGKKTLAAGGLPEGTRVHDDLRAFALDFLSKEHE,E
1,MHHHHHHGGGGGMPTSPSKKLVVLDRDGVINVDSDAFVKSPDEWVALPGSLEAIARLNHAGYRVVVATNQSGIGRGLFDMATLNAMHLKMHRAAAAVGGRIDAVFFCPHTADDHCDCRKPMPGMMKLIAERFEIDPADTPVVGDSLRDLQAGAALGFRPHLVLTGKGKKTLAAGGLPEGTRVHDDLRAFALDFLSKEHE,F
