Useq,Sequence,Chain
1,GAMGSKLSYTSFVQMVEDERSVVSEVVIRDDGVLRVYTKDGRVYEVDAPWAVNDSQLIEKLVSKGIKVSGER,A
1,GAMGSKLSYTSFVQMVEDERSVVSEVVIRDDGVLRVYTKDGRVYEVDAPWAVNDSQLIEKLVSKGIKVSGER,B
1,GAMGSKLSYTSFVQMVEDERSVVSEVVIRDDGVLRVYTKDGRVYEVDAPWAVNDSQLIEKLVSKGIKVSGER,C
1,GAMGSKLSYTSFVQMVEDERSVVSEVVIRDDGVLRVYTKDGRVYEVDAPWAVNDSQLIEKLVSKGIKVSGER,D
1,GAMGSKLSYTSFVQMVEDERSVVSEVVIRDDGVLRVYTKDGRVYEVDAPWAVNDSQLIEKLVSKGIKVSGER,E
1,GAMGSKLSYTSFVQMVEDERSVVSEVVIRDDGVLRVYTKDGRVYEVDAPWAVNDSQLIEKLVSKGIKVSGER,F
