Useq,Sequence,Chain
1,SNAERKEGEVAGLDMNISQFLKSLGLEHLRDIFETEQITLRVLADMGHEELKEIGINAYGHRHKLIKGVERLLGGQQGT,A
1,SNAERKEGEVAGLDMNISQFLKSLGLEHLRDIFETEQITLRVLADMGHEELKEIGINAYGHRHKLIKGVERLLGGQQGT,B
1,SNAERKEGEVAGLDMNISQFLKSLGLEHLRDIFETEQITLRVLADMGHEELKEIGINAYGHRHKLIKGVERLLGGQQGT,C
1,SNAERKEGEVAGLDMNISQFLKSLGLEHLRDIFETEQITLRVLADMGHEELKEIGINAYGHRHKLIKGVERLLGGQQGT,D
1,SNAERKEGEVAGLDMNISQFLKSLGLEHLRDIFETEQITLRVLADMGHEELKEIGINAYGHRHKLIKGVERLLGGQQGT,E
1,SNAERKEGEVAGLDMNISQFLKSLGLEHLRDIFETEQITLRVLADMGHEELKEIGINAYGHRHKLIKGVERLLGGQQGT,F
