Useq,Sequence,Chain
1,AKDCKRESNTFPGICITKPPCRKACIREKFTDGHCSKILRRCLCTKPC,A
1,AKDCKRESNTFPGICITKPPCRKACIREKFTDGHCSKILRRCLCTKPC,B
1,AKDCKRESNTFPGICITKPPCRKACIREKFTDGHCSKILRRCLCTKPC,C
1,AKDCKRESNTFPGICITKPPCRKACIREKFTDGHCSKILRRCLCTKPC,D
1,AKDCKRESNTFPGICITKPPCRKACIREKFTDGHCSKILRRCLCTKPC,E
1,AKDCKRESNTFPGICITKPPCRKACIREKFTDGHCSKILRRCLCTKPC,F
