Useq,Sequence,Chain
1,DIVMTQSPKFMSTSVGDRVSVTCKASQNVGTNVAWYQQKPGQSPKTLIYWASYRYSGVPDRFTGSGSGTDFTLAISNVQSEDLAEYFCQQYNSYPLTFGSGTKLELK,A
1,DIVMTQSPKFMSTSVGDRVSVTCKASQNVGTNVAWYQQKPGQSPKTLIYWASYRYSGVPDRFTGSGSGTDFTLAISNVQSEDLAEYFCQQYNSYPLTFGSGTKLELK,B
1,DIVMTQSPKFMSTSVGDRVSVTCKASQNVGTNVAWYQQKPGQSPKTLIYWASYRYSGVPDRFTGSGSGTDFTLAISNVQSEDLAEYFCQQYNSYPLTFGSGTKLELK,C
1,DIVMTQSPKFMSTSVGDRVSVTCKASQNVGTNVAWYQQKPGQSPKTLIYWASYRYSGVPDRFTGSGSGTDFTLAISNVQSEDLAEYFCQQYNSYPLTFGSGTKLELK,D
1,DIVMTQSPKFMSTSVGDRVSVTCKASQNVGTNVAWYQQKPGQSPKTLIYWASYRYSGVPDRFTGSGSGTDFTLAISNVQSEDLAEYFCQQYNSYPLTFGSGTKLELK,E
1,DIVMTQSPKFMSTSVGDRVSVTCKASQNVGTNVAWYQQKPGQSPKTLIYWASYRYSGVPDRFTGSGSGTDFTLAISNVQSEDLAEYFCQQYNSYPLTFGSGTKLELK,F
