Useq,Sequence,Chain
1,EVQLVESGGGLVQPGGSLRLSCAASGFNVYSYSIHWVRQAPGKGLEWVASISSYYSSTSYADSVKGRFTISADTSKNTAYLQMNSLRAEDTAVYYCARSYWYWRTSTLGGIDYWGQGTLVTVFNQIKGPSVFPLAPSSKSTSGGTAALGCLVKDYFPEPVTVSWNSGALTSGVHTFPAVLQSSGLYSLSSVVTVPSSSLGTQTYICNVNHKPSNTKVDKKVEPKSCDKTHT,A
1,EVQLVESGGGLVQPGGSLRLSCAASGFNVYSYSIHWVRQAPGKGLEWVASISSYYSSTSYADSVKGRFTISADTSKNTAYLQMNSLRAEDTAVYYCARSYWYWRTSTLGGIDYWGQGTLVTVFNQIKGPSVFPLAPSSKSTSGGTAALGCLVKDYFPEPVTVSWNSGALTSGVHTFPAVLQSSGLYSLSSVVTVPSSSLGTQTYICNVNHKPSNTKVDKKVEPKSCDKTHT,B
1,EVQLVESGGGLVQPGGSLRLSCAASGFNVYSYSIHWVRQAPGKGLEWVASISSYYSSTSYADSVKGRFTISADTSKNTAYLQMNSLRAEDTAVYYCARSYWYWRTSTLGGIDYWGQGTLVTVFNQIKGPSVFPLAPSSKSTSGGTAALGCLVKDYFPEPVTVSWNSGALTSGVHTFPAVLQSSGLYSLSSVVTVPSSSLGTQTYICNVNHKPSNTKVDKKVEPKSCDKTHT,C
1,EVQLVESGGGLVQPGGSLRLSCAASGFNVYSYSIHWVRQAPGKGLEWVASISSYYSSTSYADSVKGRFTISADTSKNTAYLQMNSLRAEDTAVYYCARSYWYWRTSTLGGIDYWGQGTLVTVFNQIKGPSVFPLAPSSKSTSGGTAALGCLVKDYFPEPVTVSWNSGALTSGVHTFPAVLQSSGLYSLSSVVTVPSSSLGTQTYICNVNHKPSNTKVDKKVEPKSCDKTHT,D
1,EVQLVESGGGLVQPGGSLRLSCAASGFNVYSYSIHWVRQAPGKGLEWVASISSYYSSTSYADSVKGRFTISADTSKNTAYLQMNSLRAEDTAVYYCARSYWYWRTSTLGGIDYWGQGTLVTVFNQIKGPSVFPLAPSSKSTSGGTAALGCLVKDYFPEPVTVSWNSGALTSGVHTFPAVLQSSGLYSLSSVVTVPSSSLGTQTYICNVNHKPSNTKVDKKVEPKSCDKTHT,E
1,EVQLVESGGGLVQPGGSLRLSCAASGFNVYSYSIHWVRQAPGKGLEWVASISSYYSSTSYADSVKGRFTISADTSKNTAYLQMNSLRAEDTAVYYCARSYWYWRTSTLGGIDYWGQGTLVTVFNQIKGPSVFPLAPSSKSTSGGTAALGCLVKDYFPEPVTVSWNSGALTSGVHTFPAVLQSSGLYSLSSVVTVPSSSLGTQTYICNVNHKPSNTKVDKKVEPKSCDKTHT,F
