Useq,Sequence,Chain
1,MHHHHHHMLENKLGIINQLELNRVEERVSKENAKRLYDSGDIDRIEVGTFKGLSYIHNYLFEDIYEFAGKVRSQNISKGNFRFAPVMYLEIALEHIDKMPQRNLDEIVAKYVEMNIAHPFREGNGRATRIWLDLILKKELKRVVDWNLINKEDYLSAMERSPVKDLEIKYLISNALTDKINDREIFMKGIDISYYYEGYTEYNVDEL,A
1,MHHHHHHMLENKLGIINQLELNRVEERVSKENAKRLYDSGDIDRIEVGTFKGLSYIHNYLFEDIYEFAGKVRSQNISKGNFRFAPVMYLEIALEHIDKMPQRNLDEIVAKYVEMNIAHPFREGNGRATRIWLDLILKKELKRVVDWNLINKEDYLSAMERSPVKDLEIKYLISNALTDKINDREIFMKGIDISYYYEGYTEYNVDEL,B
1,MHHHHHHMLENKLGIINQLELNRVEERVSKENAKRLYDSGDIDRIEVGTFKGLSYIHNYLFEDIYEFAGKVRSQNISKGNFRFAPVMYLEIALEHIDKMPQRNLDEIVAKYVEMNIAHPFREGNGRATRIWLDLILKKELKRVVDWNLINKEDYLSAMERSPVKDLEIKYLISNALTDKINDREIFMKGIDISYYYEGYTEYNVDEL,C
1,MHHHHHHMLENKLGIINQLELNRVEERVSKENAKRLYDSGDIDRIEVGTFKGLSYIHNYLFEDIYEFAGKVRSQNISKGNFRFAPVMYLEIALEHIDKMPQRNLDEIVAKYVEMNIAHPFREGNGRATRIWLDLILKKELKRVVDWNLINKEDYLSAMERSPVKDLEIKYLISNALTDKINDREIFMKGIDISYYYEGYTEYNVDEL,D
1,MHHHHHHMLENKLGIINQLELNRVEERVSKENAKRLYDSGDIDRIEVGTFKGLSYIHNYLFEDIYEFAGKVRSQNISKGNFRFAPVMYLEIALEHIDKMPQRNLDEIVAKYVEMNIAHPFREGNGRATRIWLDLILKKELKRVVDWNLINKEDYLSAMERSPVKDLEIKYLISNALTDKINDREIFMKGIDISYYYEGYTEYNVDEL,E
1,MHHHHHHMLENKLGIINQLELNRVEERVSKENAKRLYDSGDIDRIEVGTFKGLSYIHNYLFEDIYEFAGKVRSQNISKGNFRFAPVMYLEIALEHIDKMPQRNLDEIVAKYVEMNIAHPFREGNGRATRIWLDLILKKELKRVVDWNLINKEDYLSAMERSPVKDLEIKYLISNALTDKINDREIFMKGIDISYYYEGYTEYNVDEL,F
