Useq,Sequence,Chain
1,MATLSLTVNSGDPPLGALLAVEHVKDDVSISVEEGKENILHVSENVIFTDVNSILRYLARVATTAGLYGSNLMEHTEIDHWLEFSATKLSSCDSFTSTINELNHCLSLRTYLVGNSLSLADLCVWATLKGNAAWQEQLKQKKAPVHVKRWFGFLEAQLEHHHHHH,A
1,MATLSLTVNSGDPPLGALLAVEHVKDDVSISVEEGKENILHVSENVIFTDVNSILRYLARVATTAGLYGSNLMEHTEIDHWLEFSATKLSSCDSFTSTINELNHCLSLRTYLVGNSLSLADLCVWATLKGNAAWQEQLKQKKAPVHVKRWFGFLEAQLEHHHHHH,B
1,MATLSLTVNSGDPPLGALLAVEHVKDDVSISVEEGKENILHVSENVIFTDVNSILRYLARVATTAGLYGSNLMEHTEIDHWLEFSATKLSSCDSFTSTINELNHCLSLRTYLVGNSLSLADLCVWATLKGNAAWQEQLKQKKAPVHVKRWFGFLEAQLEHHHHHH,C
1,MATLSLTVNSGDPPLGALLAVEHVKDDVSISVEEGKENILHVSENVIFTDVNSILRYLARVATTAGLYGSNLMEHTEIDHWLEFSATKLSSCDSFTSTINELNHCLSLRTYLVGNSLSLADLCVWATLKGNAAWQEQLKQKKAPVHVKRWFGFLEAQLEHHHHHH,D
1,MATLSLTVNSGDPPLGALLAVEHVKDDVSISVEEGKENILHVSENVIFTDVNSILRYLARVATTAGLYGSNLMEHTEIDHWLEFSATKLSSCDSFTSTINELNHCLSLRTYLVGNSLSLADLCVWATLKGNAAWQEQLKQKKAPVHVKRWFGFLEAQLEHHHHHH,E
1,MATLSLTVNSGDPPLGALLAVEHVKDDVSISVEEGKENILHVSENVIFTDVNSILRYLARVATTAGLYGSNLMEHTEIDHWLEFSATKLSSCDSFTSTINELNHCLSLRTYLVGNSLSLADLCVWATLKGNAAWQEQLKQKKAPVHVKRWFGFLEAQLEHHHHHH,F
