Useq,Sequence,Chain
1,GPSQDPVKLSVSLSDDDVAILDAYVKRAGLPSRSAGLQHAIRVLRYPTLEDDYANAWQEWSAAGDTDAWEQTVGDGVGDAPR,A
1,GPSQDPVKLSVSLSDDDVAILDAYVKRAGLPSRSAGLQHAIRVLRYPTLEDDYANAWQEWSAAGDTDAWEQTVGDGVGDAPR,B
1,GPSQDPVKLSVSLSDDDVAILDAYVKRAGLPSRSAGLQHAIRVLRYPTLEDDYANAWQEWSAAGDTDAWEQTVGDGVGDAPR,C
1,GPSQDPVKLSVSLSDDDVAILDAYVKRAGLPSRSAGLQHAIRVLRYPTLEDDYANAWQEWSAAGDTDAWEQTVGDGVGDAPR,D
1,GPSQDPVKLSVSLSDDDVAILDAYVKRAGLPSRSAGLQHAIRVLRYPTLEDDYANAWQEWSAAGDTDAWEQTVGDGVGDAPR,E
1,GPSQDPVKLSVSLSDDDVAILDAYVKRAGLPSRSAGLQHAIRVLRYPTLEDDYANAWQEWSAAGDTDAWEQTVGDGVGDAPR,F
