Stoichiometry,SeqID,PDB,Sequence
1,1,6uyg,EVQLLEQSGAELKKPGSSVKVSCKPSDGTFRAYTLSWVRQAPGQTLEWMGRIMPTVGITNYAQKFQGRVTISADMSTATAYMELSSLRSDDTAIYYCAKGPYVGLGEGFSEWGQGTLVTVSSASTKGPSVFPLAPSSKSTSGGTAALGCLVKDYFPEPVTVSWNSGALTSGVHTFPAVLQSSGLYSLSSVVTVPSSSLGTQTYICNVNHKPSNTKVDKKVEPKSCGS
1,2,6uyg,ELVLTQSPLSLPVTLGQPASISCRSTQSLVYSDGNTYLNWFHQRAGQPPRRLIYKVSNRDSGVPERFSGSGSGTDFTLKISRVEAEDVGIYYCMQGAHWPPTFGGGTKVEINRTVAAPSVFIFPPSDEQLKSGTASVVCLLNNFYPREAKVQWKVDNALQSGNSQESVTEQDSKDSTYSLSSTLTLSKADYEKHKVYACEVTHQGLSSPVTKSFNRGEC
1,3,6uyg,QLINTNGSWHINRTALNCNDSLQTGFITSLFYAKNVDSSGCPERMAACGSSGCWHYAPRPCDVVSARTVCGPVYCFTPSPVVVGTTDKLGIPTYNWGENETDVFMLESLRPPTGGWFGCTWMNSTGFTKTCGAPPGGPTDGGSGPWITPRCLVDYPYRLWHYPCTVNFTLHKVRMFVGGIEHRFDAACN
1,4,6uyg,MTPAVTTYKLVINGKTLKGETTTKAVDAETAEKAFKQYANDNGVDGVWTYDDATKTFTVTE
1,5,6uyg,VQLLEQSGAEVKTPGSSVRVSCRPPGGNFNSYSINWVRQAPGHGLEWVGTFIPMFGTSKYAQKFQGRVTITADGSSGTAYMDLNSLRSDDTAFYYCVRPETPRYCSGGFCYGEFDNWGQGTLVTVSSASTKGPSVFPLAPSSKSTSGGTAALGCLVKDYFPEPVTVSWNSGALTSGVHTFPAVLQSSGLYSLSSVVTVPSSSLGTQTYICNVNHKPSNTKVDKKVEPKSCGS
1,6,6uyg,ELTLTQSPGTLSLSPGKRATLSCRASQSVSGSYLAWYQQKPGQAPRLLIYGASNRATGIPHRFSGSGSGTDFTLTISRLEPEDFAVYYCQQYGSSPTFGQGTRVDIKRTVAAPSVFIFPPSDEQLKSGTASVVCLLNNFYPREAKVQWKVDNALQSGNSQESVTEQDSKDSTYSLSSTLTLSKADYEKHKVYACEVTHQGLSSPVTKSFNRGEC
