5y0e
5yje
6ab6
6b03
6b05
6bhp
6c72
6c95
6e0v
6e1h
6eun
6eup
6g43
6g44
6g45
6h2b
6h3j
6h7f
6h9l
6hcp
6izl
6j5v
6j7f
6j7x
6jdj
6jdx
6jjc
6jjd
6kxf
6ky9
6lj3
6lnl
6lnw
6m5s
6m5u
6m5v
6mjb
6mvl
6n5m
6nyq
6ohg
6ojn
6oua
6ov6
6r5w
6rbk
6rtk
6scl
6sco
6sni
6syt
6tgf
6tpi
6tsw
6tyd
6u5h
6uxg
6v4u
6vhr
6vp8
6vyh
6wik
6wr4
6wuh
6wuj
6wut
6xd3
6xi8
6xws
6ycy
6ycz
6yga
6ygb
6z2l
6z6e
7ank
7bjs
7bv7
7chk
7cp2
7cqv
7cye
7d6v
7d6x
7da4
7dc3
7dg2
7dou
7dsz
7e4g
7eao
7eb9
7eea
7en0
7f6j
7fbo
7fci
7fe6
7jgj
7jlo
7jlp
7jlq
7jv7
7k0j
7k0k
7k0l
7kiy
7kue
7l7q
7lfb
7liy
7lq4
7ly4
7lzj
7m4o
7mjs
7mrw
7mzt
7n10
7os2
7oy2
7pw4
7pw5
7pw8
7px3
7q3d
7qia
7qic
7qvc
7qwg
7qwl
7qwm
7r5z
7rfo
7sfj
7sfk
7shs
7sp6
7sp7
7sp8
7sp9
7spa
7sqg
7sqz
7tcg
7tch
7tpg
7tpj
7u10
7u11
7u12
7u13
7u14
7u15
7u16
7u17
7u18
7vmc
7vvv
7vvw
7vvx
7wnq
7wzs
7ywe
