Name,NumChain,NumPDB,NumMissing,Complete[%]
HumanCoreComplexes/bigcomplexes/1004.fasta,13,13,0,100
HumanCoreComplexes/bigcomplexes/1005.fasta,13,13,0,100
HumanCoreComplexes/bigcomplexes/1009.fasta,10,10,0,100
HumanCoreComplexes/bigcomplexes/103.fasta,24,24,0,100
HumanCoreComplexes/bigcomplexes/104.fasta,12,12,0,100
HumanCoreComplexes/bigcomplexes/1068.fasta,15,15,0,100
HumanCoreComplexes/bigcomplexes/1097.fasta,13,13,0,100
HumanCoreComplexes/bigcomplexes/1099.fasta,17,17,0,100
HumanCoreComplexes/bigcomplexes/1141.fasta,16,16,0,100
HumanCoreComplexes/bigcomplexes/1143.fasta,16,16,0,100
HumanCoreComplexes/bigcomplexes/1149.fasta,10,10,0,100
HumanCoreComplexes/bigcomplexes/1153.fasta,12,12,0,100
HumanCoreComplexes/bigcomplexes/1154.fasta,13,13,0,100
HumanCoreComplexes/bigcomplexes/1155.fasta,14,14,0,100
HumanCoreComplexes/bigcomplexes/116.fasta,13,13,0,100
HumanCoreComplexes/bigcomplexes/1179.fasta,13,13,0,100
HumanCoreComplexes/bigcomplexes/1181.fasta,80,80,0,100
HumanCoreComplexes/bigcomplexes/1183.fasta,30,30,0,100
HumanCoreComplexes/bigcomplexes/1186.fasta,10,10,0,100
HumanCoreComplexes/bigcomplexes/1194.fasta,12,12,0,100
HumanCoreComplexes/bigcomplexes/1223.fasta,12,12,0,100
HumanCoreComplexes/bigcomplexes/1227.fasta,10,10,0,100
HumanCoreComplexes/bigcomplexes/1230.fasta,14,14,0,100
HumanCoreComplexes/bigcomplexes/1239.fasta,10,10,0,100
HumanCoreComplexes/bigcomplexes/123.fasta,10,10,0,100
HumanCoreComplexes/bigcomplexes/1252.fasta,10,10,0,100
HumanCoreComplexes/bigcomplexes/1257.fasta,28,28,0,100
HumanCoreComplexes/bigcomplexes/1332.fasta,20,20,0,100
HumanCoreComplexes/bigcomplexes/1413.fasta,10,10,0,100
HumanCoreComplexes/bigcomplexes/145.fasta,14,14,0,100
HumanCoreComplexes/bigcomplexes/149.fasta,10,10,0,100
HumanCoreComplexes/bigcomplexes/1729.fasta,10,10,0,100
HumanCoreComplexes/bigcomplexes/1745.fasta,15,15,0,100
HumanCoreComplexes/bigcomplexes/1749.fasta,10,10,0,100
HumanCoreComplexes/bigcomplexes/1751.fasta,10,10,0,100
HumanCoreComplexes/bigcomplexes/178.fasta,44,44,0,100
HumanCoreComplexes/bigcomplexes/181.fasta,22,22,0,100
HumanCoreComplexes/bigcomplexes/189.fasta,13,13,0,100
HumanCoreComplexes/bigcomplexes/191.fasta,14,14,0,100
HumanCoreComplexes/bigcomplexes/192.fasta,16,16,0,100
HumanCoreComplexes/bigcomplexes/193.fasta,36,36,0,100
HumanCoreComplexes/bigcomplexes/194.fasta,15,15,0,100
HumanCoreComplexes/bigcomplexes/2183.fasta,10,10,0,100
HumanCoreComplexes/bigcomplexes/230.fasta,32,32,0,100
HumanCoreComplexes/bigcomplexes/232.fasta,15,15,0,100
HumanCoreComplexes/bigcomplexes/238.fasta,10,10,0,100
HumanCoreComplexes/bigcomplexes/244.fasta,13,13,0,100
HumanCoreComplexes/bigcomplexes/248.fasta,11,11,0,100
HumanCoreComplexes/bigcomplexes/2639.fasta,13,13,0,100
HumanCoreComplexes/bigcomplexes/2685.fasta,17,17,0,100
HumanCoreComplexes/bigcomplexes/2686.fasta,13,13,0,100
HumanCoreComplexes/bigcomplexes/2721.fasta,18,18,0,100
HumanCoreComplexes/bigcomplexes/2739.fasta,11,11,0,100
HumanCoreComplexes/bigcomplexes/2755.fasta,33,33,0,100
HumanCoreComplexes/bigcomplexes/2825.fasta,26,26,0,100
HumanCoreComplexes/bigcomplexes/2829.fasta,10,10,0,100
HumanCoreComplexes/bigcomplexes/282.fasta,16,16,0,100
HumanCoreComplexes/bigcomplexes/284.fasta,11,11,0,100
HumanCoreComplexes/bigcomplexes/2851.fasta,13,12,1,92
HumanCoreComplexes/bigcomplexes/2856.fasta,10,10,0,100
HumanCoreComplexes/bigcomplexes/2857.fasta,14,14,0,100
HumanCoreComplexes/bigcomplexes/287.fasta,14,14,0,100
HumanCoreComplexes/bigcomplexes/288.fasta,15,15,0,100
HumanCoreComplexes/bigcomplexes/2904.fasta,10,10,0,100
HumanCoreComplexes/bigcomplexes/2905.fasta,11,11,0,100
HumanCoreComplexes/bigcomplexes/2914.fasta,16,16,0,100
HumanCoreComplexes/bigcomplexes/2919.fasta,13,13,0,100
HumanCoreComplexes/bigcomplexes/2920.fasta,16,16,0,100
HumanCoreComplexes/bigcomplexes/2948.fasta,11,11,0,100
HumanCoreComplexes/bigcomplexes/300.fasta,12,12,0,100
HumanCoreComplexes/bigcomplexes/301.fasta,17,17,0,100
HumanCoreComplexes/bigcomplexes/302.fasta,13,13,0,100
HumanCoreComplexes/bigcomplexes/3040.fasta,11,11,0,100
HumanCoreComplexes/bigcomplexes/3047.fasta,62,62,0,100
HumanCoreComplexes/bigcomplexes/304.fasta,10,10,0,100
HumanCoreComplexes/bigcomplexes/3055.fasta,104,104,0,100
HumanCoreComplexes/bigcomplexes/3064.fasta,16,16,0,100
HumanCoreComplexes/bigcomplexes/3066.fasta,13,13,0,100
HumanCoreComplexes/bigcomplexes/306.fasta,80,80,0,100
HumanCoreComplexes/bigcomplexes/3074.fasta,14,14,0,100
HumanCoreComplexes/bigcomplexes/3075.fasta,12,12,0,100
HumanCoreComplexes/bigcomplexes/3082.fasta,11,11,0,100
HumanCoreComplexes/bigcomplexes/308.fasta,47,47,0,100
HumanCoreComplexes/bigcomplexes/315.fasta,30,30,0,100
HumanCoreComplexes/bigcomplexes/320.fasta,78,78,0,100
HumanCoreComplexes/bigcomplexes/324.fasta,48,48,0,100
HumanCoreComplexes/bigcomplexes/32.fasta,20,20,0,100
HumanCoreComplexes/bigcomplexes/338.fasta,31,31,0,100
HumanCoreComplexes/bigcomplexes/351.fasta,143,143,0,100
HumanCoreComplexes/bigcomplexes/430.fasta,24,24,0,100
HumanCoreComplexes/bigcomplexes/433.fasta,12,12,0,100
HumanCoreComplexes/bigcomplexes/438.fasta,10,10,0,100
HumanCoreComplexes/bigcomplexes/441.fasta,11,11,0,100
HumanCoreComplexes/bigcomplexes/445.fasta,16,16,0,100
HumanCoreComplexes/bigcomplexes/463.fasta,11,11,0,100
HumanCoreComplexes/bigcomplexes/469.fasta,12,12,0,100
HumanCoreComplexes/bigcomplexes/470.fasta,17,17,0,100
HumanCoreComplexes/bigcomplexes/471.fasta,10,10,0,100
HumanCoreComplexes/bigcomplexes/476.fasta,13,13,0,100
HumanCoreComplexes/bigcomplexes/485.fasta,12,12,0,100
HumanCoreComplexes/bigcomplexes/492.fasta,15,15,0,100
HumanCoreComplexes/bigcomplexes/493.fasta,16,16,0,100
HumanCoreComplexes/bigcomplexes/509.fasta,12,12,0,100
HumanCoreComplexes/bigcomplexes/513.fasta,17,17,0,100
HumanCoreComplexes/bigcomplexes/514.fasta,12,12,0,100
HumanCoreComplexes/bigcomplexes/5177.fasta,11,11,0,100
HumanCoreComplexes/bigcomplexes/5193.fasta,12,12,0,100
HumanCoreComplexes/bigcomplexes/5194.fasta,10,10,0,100
HumanCoreComplexes/bigcomplexes/5195.fasta,10,10,0,100
HumanCoreComplexes/bigcomplexes/5196.fasta,12,12,0,100
HumanCoreComplexes/bigcomplexes/5199.fasta,16,16,0,100
HumanCoreComplexes/bigcomplexes/5230.fasta,12,12,0,100
HumanCoreComplexes/bigcomplexes/5232.fasta,17,17,0,100
HumanCoreComplexes/bigcomplexes/5233.fasta,24,24,0,100
HumanCoreComplexes/bigcomplexes/5266.fasta,14,14,0,100
HumanCoreComplexes/bigcomplexes/5286.fasta,10,10,0,100
HumanCoreComplexes/bigcomplexes/528.fasta,15,15,0,100
HumanCoreComplexes/bigcomplexes/529.fasta,16,16,0,100
HumanCoreComplexes/bigcomplexes/535.fasta,16,16,0,100
HumanCoreComplexes/bigcomplexes/5380.fasta,25,25,0,100
HumanCoreComplexes/bigcomplexes/5386.fasta,27,27,0,100
HumanCoreComplexes/bigcomplexes/5450.fasta,27,27,0,100
HumanCoreComplexes/bigcomplexes/547.fasta,14,14,0,100
HumanCoreComplexes/bigcomplexes/548.fasta,14,14,0,100
HumanCoreComplexes/bigcomplexes/5611.fasta,15,15,0,100
HumanCoreComplexes/bigcomplexes/5613.fasta,16,16,0,100
HumanCoreComplexes/bigcomplexes/5614.fasta,22,22,0,100
HumanCoreComplexes/bigcomplexes/5615.fasta,23,23,0,100
HumanCoreComplexes/bigcomplexes/563.fasta,16,16,0,100
HumanCoreComplexes/bigcomplexes/568.fasta,28,28,0,100
HumanCoreComplexes/bigcomplexes/6084.fasta,11,11,0,100
HumanCoreComplexes/bigcomplexes/6131.fasta,10,10,0,100
HumanCoreComplexes/bigcomplexes/6172.fasta,16,16,0,100
HumanCoreComplexes/bigcomplexes/6173.fasta,10,10,0,100
HumanCoreComplexes/bigcomplexes/6236.fasta,12,12,0,100
HumanCoreComplexes/bigcomplexes/6247.fasta,10,10,0,100
HumanCoreComplexes/bigcomplexes/6249.fasta,11,11,0,100
HumanCoreComplexes/bigcomplexes/626.fasta,14,14,0,100
HumanCoreComplexes/bigcomplexes/632.fasta,17,17,0,100
HumanCoreComplexes/bigcomplexes/633.fasta,11,11,0,100
HumanCoreComplexes/bigcomplexes/6344.fasta,15,15,0,100
HumanCoreComplexes/bigcomplexes/642.fasta,17,17,0,100
HumanCoreComplexes/bigcomplexes/6442.fasta,14,14,0,100
HumanCoreComplexes/bigcomplexes/6460.fasta,10,10,0,100
HumanCoreComplexes/bigcomplexes/6468.fasta,14,14,0,100
HumanCoreComplexes/bigcomplexes/6469.fasta,10,10,0,100
HumanCoreComplexes/bigcomplexes/6470.fasta,12,12,0,100
HumanCoreComplexes/bigcomplexes/652.fasta,15,15,0,100
HumanCoreComplexes/bigcomplexes/654.fasta,11,11,0,100
HumanCoreComplexes/bigcomplexes/6639.fasta,15,15,0,100
HumanCoreComplexes/bigcomplexes/6643.fasta,19,19,0,100
HumanCoreComplexes/bigcomplexes/6645.fasta,13,13,0,100
HumanCoreComplexes/bigcomplexes/6657.fasta,10,10,0,100
HumanCoreComplexes/bigcomplexes/6664.fasta,19,19,0,100
HumanCoreComplexes/bigcomplexes/6665.fasta,14,14,0,100
HumanCoreComplexes/bigcomplexes/6671.fasta,14,14,0,100
HumanCoreComplexes/bigcomplexes/6859.fasta,13,13,0,100
HumanCoreComplexes/bigcomplexes/6884.fasta,10,10,0,100
HumanCoreComplexes/bigcomplexes/6888.fasta,14,14,0,100
HumanCoreComplexes/bigcomplexes/691.fasta,11,11,0,100
HumanCoreComplexes/bigcomplexes/713.fasta,14,14,0,100
HumanCoreComplexes/bigcomplexes/714.fasta,15,15,0,100
HumanCoreComplexes/bigcomplexes/725.fasta,12,12,0,100
HumanCoreComplexes/bigcomplexes/726.fasta,12,12,0,100
HumanCoreComplexes/bigcomplexes/727.fasta,12,12,0,100
HumanCoreComplexes/bigcomplexes/728.fasta,13,13,0,100
HumanCoreComplexes/bigcomplexes/7372.fasta,11,11,0,100
HumanCoreComplexes/bigcomplexes/7388.fasta,15,15,0,100
HumanCoreComplexes/bigcomplexes/7394.fasta,11,11,0,100
HumanCoreComplexes/bigcomplexes/739.fasta,16,16,0,100
HumanCoreComplexes/bigcomplexes/743.fasta,11,11,0,100
HumanCoreComplexes/bigcomplexes/7443.fasta,12,12,0,100
HumanCoreComplexes/bigcomplexes/7557.fasta,10,10,0,100
HumanCoreComplexes/bigcomplexes/7581.fasta,18,18,0,100
HumanCoreComplexes/bigcomplexes/7582.fasta,18,18,0,100
HumanCoreComplexes/bigcomplexes/778.fasta,19,19,0,100
HumanCoreComplexes/bigcomplexes/789.fasta,11,11,0,100
HumanCoreComplexes/bigcomplexes/798.fasta,15,15,0,100
HumanCoreComplexes/bigcomplexes/799.fasta,10,10,0,100
HumanCoreComplexes/bigcomplexes/803.fasta,11,11,0,100
HumanCoreComplexes/bigcomplexes/806.fasta,12,12,0,100
HumanCoreComplexes/bigcomplexes/822.fasta,10,10,0,100
HumanCoreComplexes/bigcomplexes/867.fasta,10,10,0,100
HumanCoreComplexes/bigcomplexes/86.fasta,10,10,0,100
HumanCoreComplexes/bigcomplexes/909.fasta,13,13,0,100
HumanCoreComplexes/bigcomplexes/910.fasta,10,10,0,100
HumanCoreComplexes/bigcomplexes/929.fasta,37,37,0,100
